[
    {
        "id": 0,
        "name": "turningcloud solution"
    },
    {
        "id": 1,
        "name": "Suman"
    },
    {
        "id": 2,
        "name": "Kavita"
    },
    {
        "id": 3,
        "name": "Tahmina"
    },
    {
        "id": 4,
        "name": "Soni"
    }
]