<svg xmlns="http://www.w3.org/2000/svg" width="26" height="28" viewBox="0 0 26 28">
    <path fill="#FFF" fill-rule="nonzero" d="M6.953.304a.91.91 0 0 0-.906.913v2.616a2.453 2.453 0 0 0-1.512 2.254c0 1.334 1.093 2.435 2.418 2.435 1.326 0 2.42-1.101 2.42-2.435 0-1.011-.631-1.889-1.513-2.254V1.217a.91.91 0 0 0-.907-.913zm12.094 0a.91.91 0 0 0-.907.913v2.616a2.453 2.453 0 0 0-1.512 2.254c0 1.334 1.093 2.435 2.419 2.435 1.325 0 2.418-1.101 2.418-2.435 0-1.011-.63-1.889-1.512-2.254V1.217a.91.91 0 0 0-.906-.913zM3.335 1.522C1.503 1.522 0 3.035 0 4.879v19.46c0 1.843 1.503 3.357 3.335 3.357h19.33c1.832 0 3.335-1.514 3.335-3.358V4.88c0-1.844-1.503-3.357-3.335-3.357h-1.2c-.48-.007-.916.43-.916.913 0 .482.437.92.916.913h1.2c.856 0 1.521.669 1.521 1.531v3.947H1.814V4.88c0-.862.665-1.531 1.521-1.531h1.2c.48.007.916-.43.916-.913 0-.483-.437-.92-.916-.913h-1.2zm5.943 0c-.475.025-.885.482-.86.96.025.478.48.89.954.866h7.256c.48.007.916-.43.916-.913 0-.483-.437-.92-.916-.913h-7.35zM6.953 5.478c.345 0 .605.262.605.609s-.26.609-.605.609a.593.593 0 0 1-.604-.609c0-.347.26-.609.604-.609zm12.094 0c.344 0 .604.262.604.609s-.26.609-.604.609a.593.593 0 0 1-.605-.609c0-.347.26-.609.605-.609zM1.814 10.652h22.372v13.686c0 .862-.665 1.532-1.521 1.532H3.335c-.856 0-1.521-.67-1.521-1.532V10.652zM13 13.392a.91.91 0 0 0-.907.912v3.348H8.767a.91.91 0 0 0-.907.913.91.91 0 0 0 .907.913h3.326v3.348a.91.91 0 0 0 .907.913.91.91 0 0 0 .907-.913v-3.348h3.326a.91.91 0 0 0 .907-.913.91.91 0 0 0-.907-.913h-3.326v-3.348a.91.91 0 0 0-.907-.913z"/>
</svg>
