<svg xmlns="http://www.w3.org/2000/svg" width="28" height="28" viewBox="0 0 28 28">
    <path fill="#FFF" fill-rule="nonzero" d="M15.107 12.693h4.986a.907.907 0 1 1 0 1.814h-4.986v4.986a.907.907 0 1 1-1.814 0v-4.986H8.307a.907.907 0 0 1 0-1.814h4.986V7.707a.907.907 0 0 1 1.814 0v4.986zM14.2 25.387c6.51 0 11.787-5.277 11.787-11.787 0-6.51-5.277-11.787-11.787-11.787C7.69 1.813 2.413 7.09 2.413 13.6c0 6.51 5.277 11.787 11.787 11.787zm0 1.813C6.689 27.2.6 21.111.6 13.6.6 6.089 6.689 0 14.2 0c7.511 0 13.6 6.089 13.6 13.6 0 7.511-6.089 13.6-13.6 13.6z"/>
</svg>
