<svg xmlns="http://www.w3.org/2000/svg" width="33" height="33" viewBox="0 0 33 33">
    <g id="prefix__add_request" data-name="add request" transform="translate(-1348 -188)">
        <circle id="prefix__Ellipse_62" cx="16.5" cy="16.5" r="16.5" data-name="Ellipse 62" transform="translate(1348 188)" style="fill:#dbf4e5"/>
        <path id="prefix__Path_471" d="M30.883 977.362a1.177 1.177 0 0 0-1.177 1.177v3.53h-3.53a1.177 1.177 0 0 0 0 2.353h3.53v3.53a1.177 1.177 0 1 0 2.353 0v-3.53h3.53a1.177 1.177 0 0 0 0-2.353H32.06v-3.53a1.177 1.177 0 0 0-1.177-1.177z" data-name="Path 471" transform="translate(1333.725 -778.637)" style="fill:#00d95c"/>
    </g>
</svg>
