<svg xmlns="http://www.w3.org/2000/svg" width="34" height="34" viewBox="0 0 34 34">
    <g fill="none" fillRule="evenodd" transform="translate(1 1)">
        <circle cx="16" cy="16" r="16" stroke="#6D6DC9"/>
        <path fill="#6D6DC9" d="M21 22.291l-6.18-6.194L21 9.903 19.097 8 11 16.097l8.097 8.097L21 22.291"/>
    </g>
</svg>
