<svg xmlns="http://www.w3.org/2000/svg" width="304" height="328" viewBox="0 0 304 328">
    <defs>
        <radialGradient id="a" cx="0%" cy="0%" r="345.09%" fx="0%" fy="0%" gradientTransform="scale(1 .97917) rotate(46.004)">
            <stop offset="0%" stop-color="#3B3B98"/>
            <stop offset="7.548%" stop-color="#3D3C99"/>
            <stop offset="100%" stop-color="#C86DD7"/>
        </radialGradient>
        <radialGradient id="b" cx="0%" cy="0%" r="341.388%" fx="0%" fy="0%">
            <stop offset="0%" stop-color="#3B3B98"/>
            <stop offset="7.548%" stop-color="#3D3C99"/>
            <stop offset="100%" stop-color="#C86DD7"/>
        </radialGradient>
        <radialGradient id="c" cx="0%" cy="0%" r="355.698%" fx="0%" fy="0%" gradientTransform="matrix(.67389 .6834 -.63083 .73005 0 0)">
            <stop offset="0%" stop-color="#3B3B98"/>
            <stop offset="7.548%" stop-color="#3D3C99"/>
            <stop offset="100%" stop-color="#C86DD7"/>
        </radialGradient>
    </defs>
    <g fill="none" fillRule="nonzero">
        <g fill="#6D6DC9">
            <path d="M160.703 12.6l-1.902-5.226 5.227-1.903a.625.625 0 1 0-.428-1.174l-5.226 1.902L156.47.972a.625.625 0 1 0-1.174.428l1.902 5.226-5.227 1.903a.625.625 0 1 0 .428 1.174l5.226-1.902 1.903 5.227a.625.625 0 1 0 1.174-.428zM91.087 28.143l-2.663-7.318 7.317-2.663a.875.875 0 1 0-.598-1.644l-7.318 2.663-2.663-7.317a.875.875 0 1 0-1.644.598l2.663 7.318-7.317 2.663a.875.875 0 1 0 .598 1.644l7.318-2.663 2.663 7.317a.875.875 0 1 0 1.644-.598zM253.325 33.537l-4.354 6.455-6.456-4.354a.875.875 0 1 0-.978 1.45l6.455 4.355-4.354 6.456a.875.875 0 1 0 1.45.979l4.355-6.456 6.456 4.354a.875.875 0 1 0 .979-1.45l-6.456-4.355 4.354-6.456a.875.875 0 1 0-1.45-.978zM170.942 38.521l-3.11 4.611-4.612-3.11a.625.625 0 1 0-.699 1.036l4.611 3.11-3.11 4.612a.625.625 0 1 0 1.036.699l3.11-4.611 4.612 3.11a.625.625 0 1 0 .699-1.036l-4.611-3.11 3.11-4.612a.625.625 0 1 0-1.036-.699zM55.325 50.744L50.971 57.2l-6.456-4.355a.875.875 0 1 0-.978 1.45l6.455 4.355-4.354 6.456a.875.875 0 1 0 1.45.979l4.355-6.456 6.456 4.354a.875.875 0 1 0 .979-1.45l-6.456-4.355 4.354-6.456a.875.875 0 1 0-1.45-.978zM86.942 39.521l-3.11 4.611-4.612-3.11a.625.625 0 1 0-.699 1.036l4.611 3.11-3.11 4.612a.625.625 0 1 0 1.036.699l3.11-4.611 4.612 3.11a.625.625 0 1 0 .699-1.036l-4.611-3.11 3.11-4.612a.625.625 0 1 0-1.036-.699zM127.622 25.36l-1.141-3.136 3.136-1.141a.375.375 0 1 0-.257-.705l-3.136 1.141-1.141-3.136a.375.375 0 1 0-.705.257l1.141 3.136-3.136 1.141a.375.375 0 1 0 .257.705l3.136-1.141 1.141 3.136a.375.375 0 1 0 .705-.257zM149.765 41.713l-1.866 2.766-2.767-1.866a.375.375 0 1 0-.42.622l2.767 1.866-1.866 2.767a.375.375 0 1 0 .622.42l1.866-2.767 2.767 1.866a.375.375 0 1 0 .42-.622l-2.767-1.866 1.866-2.767a.375.375 0 1 0-.622-.42zM85.765 68.713l-1.866 2.766-2.767-1.866a.375.375 0 1 0-.42.622l2.767 1.866-1.866 2.767a.375.375 0 1 0 .622.42l1.866-2.767 2.767 1.866a.375.375 0 1 0 .42-.622l-2.767-1.866 1.866-2.767a.375.375 0 1 0-.622-.42zM12.325 87.537l-4.354 6.455-6.456-4.354a.875.875 0 1 0-.978 1.45l6.455 4.355-4.354 6.456a.875.875 0 1 0 1.45.979l4.355-6.456 6.456 4.354a.875.875 0 1 0 .979-1.45L9.422 94.97l4.354-6.456a.875.875 0 1 0-1.45-.978z"/>
        </g>
        <g fill="#6D6DC9" transform="translate(70 27)">
            <ellipse cx="110.415" cy="64.472" opacity=".334" rx="24.415" ry="24.472"/>
            <ellipse cx="55.756" cy="29.798" opacity=".091" rx="17.756" ry="17.798"/>
            <ellipse cx="41.854" cy="114.951" opacity=".149" rx="41.854" ry="41.951"/>
            <ellipse cx="121.463" cy="10.488" opacity=".279" rx="10.463" ry="10.488"/>
            <ellipse cx="223.463" cy="84.488" opacity=".341" rx="10.463" ry="10.488"/>
            <ellipse cx="180.659" cy="51.674" opacity=".149" rx="6.659" ry="6.674"/>
            <ellipse cx="140.659" cy="107.674" opacity=".47" rx="6.659" ry="6.674"/>
        </g>
        <path fill="#D9D9D9" d="M75 203.508c15.367 15.61 25.386 34.43 31.424 48.725a81.37 81.37 0 0 1 6.504 8.767c.412-.04.828-.065 1.25-.065h26.565c.422 0 .836.025 1.248.065a81.407 81.407 0 0 1 6.505-8.767c6.679-15.81 18.24-37.15 36.504-53.56-14.852-1.377-26.522-13.87-26.522-29.042 0-1.735.152-3.45.454-5.135a29.354 29.354 0 0 1-2.523-1.8 29.089 29.089 0 0 1-12.1 2.648 29.217 29.217 0 0 1-16.85-5.344 29.217 29.217 0 0 1-22.845 4.722 29.205 29.205 0 0 1-5.917 4.944c.302 1.686.454 3.401.454 5.136.001 14.353-10.449 26.291-24.151 28.706z"/>
        <path fill="#6D6DC9" d="M127.934 295.026c-.14 0-.279-.004-.433-.01-.144.005-.288.01-.435.01l-6.347-.026c-2.055 8.162-5.229 14.835-8.719 20.216A33.702 33.702 0 0 0 127.5 319a33.687 33.687 0 0 0 15.5-3.784c-3.486-5.376-6.657-12.04-8.712-20.19h-6.354z"/>
        <path fill="url(#a)" d="M202.719 34c-7.386 0-13.911 3.595-17.955 9.104.034.572.087 1.14.087 1.72 0 9.449-4.604 18.106-12.017 23.483-.526.382-1.065.75-1.62 1.1.144.793.247 1.595.323 2.4.084.901.132 1.808.132 2.722 0 .262-.033.517-.04.779-.233 8.71-4.307 16.484-10.629 21.67a22.25 22.25 0 0 0 4.472 2.11 21.887 21.887 0 0 0-1.85 8.814c0 12.204 9.954 22.098 22.232 22.098 2.76 0 5.387-.524 7.822-1.439a22.284 22.284 0 0 0 9.045-6.286 22.193 22.193 0 0 0 6.592 5.185 22.121 22.121 0 0 0 10.273 2.54c12.278 0 22.232-9.894 22.232-22.098 0-3.135-.666-6.113-1.85-8.814C248.708 96.111 255 87.893 255 78.198c0-12.205-9.954-22.1-22.232-22.1-2.783 0-5.435.532-7.89 1.46.033-.485.075-.967.075-1.46C224.952 43.895 214.998 34 202.719 34zm25.583 51.803c0 11.592-7.851 21.376-18.54 24.426a25.468 25.468 0 0 1-3.52.733c-1.155.159-2.325.27-3.521.27-14.106 0-25.584-11.407-25.584-25.429a25.1 25.1 0 0 1 2.31-10.496 25.439 25.439 0 0 1 1.936-3.5 25.537 25.537 0 0 1 2.82-3.5c4.663-4.873 11.23-7.933 18.517-7.933 14.105 0 25.582 11.408 25.582 25.43z" transform="translate(1 62)"/>
        <path fill="#E5E5E5" d="M211.528 130.39a17.987 17.987 0 0 0-1.235-.453 18.451 18.451 0 0 0-5.791-.937c-2.024 0-3.967.336-5.791.937a18.602 18.602 0 0 0-9.406 7.026A18.404 18.404 0 0 0 186 147.5c0 10.217 8.283 18.5 18.5 18.5a18.58 18.58 0 0 0 3.514-.343 18.345 18.345 0 0 0 3.512-1.047C218.258 161.844 223 155.23 223 147.5c.002-7.729-4.741-14.343-11.472-17.11z"/>
        <path fill="url(#b)" d="M14.958 104.088a21.977 21.977 0 0 0-1.842 8.814c0 12.204 9.905 22.098 22.124 22.098 5.016 0 9.634-1.676 13.342-4.49.98-.744 1.877-1.586 2.72-2.48.239-.253.493-.49.72-.755a22.073 22.073 0 0 0 14.731 7.61c.677.063 1.358.114 2.052.114 12.218 0 22.123-9.893 22.123-22.097 0-3.135-.663-6.113-1.84-8.814A22.133 22.133 0 0 0 96 100.205c-9.14-4.732-15.45-14.149-15.74-25.053-.008-.262-.04-.516-.04-.78 0-.913.047-1.82.132-2.72.075-.806.178-1.607.32-2.402a29.221 29.221 0 0 1-1.611-1.099 29.065 29.065 0 0 1-11.948-23.18C63.158 41.276 57.863 39 52.023 39 39.804 39 29.9 48.894 29.9 61.098c0 .493.042.974.074 1.459a22.05 22.05 0 0 0-7.85-1.459C9.904 61.098 0 70.993 0 83.197c-.001 9.696 6.26 17.914 14.958 20.89zm37.065-38.713a25.29 25.29 0 0 1 11.51 2.777 25.614 25.614 0 0 1 8.512 7c3.392 4.32 5.435 9.746 5.435 15.65 0 14.022-11.42 25.43-25.457 25.43-.913 0-1.812-.053-2.7-.148a25.135 25.135 0 0 1-3.503-.648 25.374 25.374 0 0 1-3.504-1.135c-9.234-3.82-15.75-12.91-15.75-23.498 0-14.021 11.419-25.428 25.457-25.428z" transform="translate(1 62)"/>
        <path fill="#E5E5E5" d="M43.767 168.212a18.34 18.34 0 0 0 7.026 2.568c.886.13 1.785.22 2.707.22 10.217 0 18.5-8.283 18.5-18.5 0-6.642-3.512-12.449-8.768-15.712A18.387 18.387 0 0 0 53.5 134c-2.185 0-4.273.399-6.22 1.094a18.436 18.436 0 0 0-3.513 1.694C38.511 140.051 35 145.858 35 152.5c0 6.642 3.512 12.448 8.767 15.712z"/>
        <path fill="url(#c)" d="M87.297 71.18a21.983 21.983 0 0 0-.186 2.721c0 .263.03.518.04.78.308 8.828 5.776 16.346 13.504 19.596 1.09.459 2.233.81 3.403 1.091 1.192.286 2.42.473 3.68.557.493.033.985.075 1.487.075 6.715 0 12.72-3.002 16.775-7.724C130.056 92.998 136.06 96 142.776 96c2.362 0 4.635-.378 6.77-1.064a22.029 22.029 0 0 0 6.34-3.267c5.255-3.88 8.72-10.017 8.964-16.988.01-.261.04-.516.04-.779 0-.923-.075-1.828-.186-2.72a21.92 21.92 0 0 0-.733-3.5 22.399 22.399 0 0 0-.923-2.594 22.2 22.2 0 0 0 11.788-9.523 21.953 21.953 0 0 0 1.63-3.313A21.945 21.945 0 0 0 178 44.197c0-1.18-.12-2.329-.298-3.458-1.664-10.558-10.783-18.64-21.816-18.64-2.767 0-5.405.53-7.847 1.458.032-.485.074-.966.074-1.458C148.113 9.894 138.212 0 126 0c-12.213 0-22.113 9.894-22.113 22.099 0 .492.042.973.073 1.458a22.03 22.03 0 0 0-7.847-1.458c-11.422 0-20.82 8.656-21.987 19.761A22.263 22.263 0 0 0 74 44.196c0 1.448.155 2.857.422 4.227a21.847 21.847 0 0 0 2.536 6.777c.438.757.913 1.488 1.435 2.185a22.226 22.226 0 0 0 2.995 3.262 22.13 22.13 0 0 0 7.564 4.44c-.365.836-.66 1.708-.922 2.593a21.866 21.866 0 0 0-.733 3.5zM126 26.375c14.032 0 25.447 11.407 25.447 25.429a25.308 25.308 0 0 1-6.143 16.522 25.558 25.558 0 0 1-2.866 2.856 25.489 25.489 0 0 1-5.402 3.5c-3.343 1.617-7.078 2.55-11.036 2.55-3.957 0-7.692-.933-11.035-2.55a25.506 25.506 0 0 1-5.402-3.5 25.676 25.676 0 0 1-1.91-1.804 25.299 25.299 0 0 1-1.496-1.696 25.47 25.47 0 0 1-2.927-4.596c-1.696-3.405-2.675-7.227-2.675-11.282-.001-14.022 11.414-25.429 25.445-25.429z" transform="translate(1 62)"/>
        <path fill="#E5E5E5" d="M118.14 130.439A18.386 18.386 0 0 0 127.5 133c3.42 0 6.61-.944 9.359-2.561 5.463-3.215 9.141-9.14 9.141-15.939 0-10.217-8.283-18.5-18.5-18.5s-18.5 8.283-18.5 18.5c0 6.798 3.677 12.724 9.14 15.939z"/>
        <path fill="#D9D9D9" d="M50.913 243.211c-3.958 4.37-5.406 9.306-5.825 13.327-.489 4.702 1.075 9.36 4.07 13.027C59.602 282.354 72.07 286 82.886 286c6.409 0 12.226-1.28 16.712-2.694.29-.448.552-.873.787-1.274a12.678 12.678 0 0 1-.233-5.935l.303-1.51a57.82 57.82 0 0 1-3.532.12c-21.275 0-30.358-12.523-33.604-18.905a29.296 29.296 0 0 1 3.04-.157c13.68 0 26.726 9.305 34.623 16.318l.322-1.599a12.643 12.643 0 0 1 2.556-5.434 12.882 12.882 0 0 1 2.14-2.106 72.794 72.794 0 0 0-5.871-7.61c-7.738-8.755-16.16-13.988-22.626-17.004a23.62 23.62 0 0 0-9.976-2.21c-6.206-.002-12.303 2.452-16.614 7.211zM84.246 327.066a6.87 6.87 0 0 0 3.45.934 6.69 6.69 0 0 0 3.737-1.135c2.743-1.842 6.727-5.016 10.698-9.805.747-.9 1.49-1.857 2.227-2.875a55.305 55.305 0 0 0 2.112-3.127c3.026-4.833 5.75-10.782 7.53-18.05a54.894 54.894 0 0 1-5.812-2c-.12-.05-.233-.111-.351-.164a12.74 12.74 0 0 1-2.476-1.451c-.167-.126-.325-.26-.484-.393a46.848 46.848 0 0 1-.543.763 49.239 49.239 0 0 1-4.764 5.644c-4.867 4.962-11.907 10.055-21.795 13.028-4.756 1.43-6.351 7.449-2.983 11.116 2.276 2.478 5.35 5.131 9.454 7.515zM154.395 283.303c4.487 1.415 10.308 2.697 16.72 2.697 10.815 0 23.282-3.646 33.727-16.435 2.995-3.667 4.56-8.324 4.07-13.027-.42-4.02-1.867-8.956-5.825-13.327-4.311-4.759-10.407-7.211-16.614-7.211-3.383 0-6.8.73-9.976 2.21-6.466 3.016-14.89 8.25-22.625 17.005a72.89 72.89 0 0 0-5.872 7.61c.792.614 1.51 1.32 2.14 2.105a12.623 12.623 0 0 1 2.557 5.434l.321 1.6c7.898-7.014 20.944-16.319 34.622-16.319 1.011 0 2.026.051 3.04.157-3.246 6.382-12.328 18.904-33.603 18.904-1.14 0-2.321-.044-3.532-.119l.304 1.51a12.675 12.675 0 0 1-.235 5.942c.234.396.494.818.78 1.264zM170.754 327.065c4.104-2.384 7.178-5.037 9.454-7.514 3.368-3.667 1.774-9.685-2.983-11.116-9.888-2.973-16.928-8.066-21.796-13.029a49.154 49.154 0 0 1-4.762-5.643l-.246-.343-.297-.42c-.16.133-.317.267-.484.393a12.77 12.77 0 0 1-2.476 1.451c-.118.053-.231.113-.351.163a54.504 54.504 0 0 1-5.813 2c1.779 7.27 4.505 13.216 7.53 18.05a56.875 56.875 0 0 0 4.34 6.004c3.971 4.788 7.955 7.962 10.699 9.804a6.694 6.694 0 0 0 3.736 1.135 6.894 6.894 0 0 0 3.449-.935zM143.465 284.616c.328-.132.637-.294.926-.479.107-.069.198-.153.3-.227a5.639 5.639 0 0 0 1.057-.994c.44-.546.774-1.167.987-1.834.04-.124.06-.256.092-.385a5.647 5.647 0 0 0 .068-2.463l-.134-.665-.689-3.4-.32-1.583a5.635 5.635 0 0 0-.914-2.096 5.778 5.778 0 0 0-2.942-2.192 5.645 5.645 0 0 0-.694-.183 5.751 5.751 0 0 0-1.113-.115h-26.177a5.825 5.825 0 0 0-1.806.299 5.78 5.78 0 0 0-2.943 2.191 5.64 5.64 0 0 0-.914 2.096l-.32 1.584-.691 3.409-.133.655a5.64 5.64 0 0 0 .068 2.464c.031.128.052.259.092.384.213.667.547 1.287.987 1.833.302.376.662.703 1.057.994.102.075.193.16.3.228.29.184.597.346.925.48a47.534 47.534 0 0 0 7.792 2.366c1.09.233 2.22.446 3.411.607a42.76 42.76 0 0 0 4.83.382V288c.147 0 .286-.012.431-.013.146.001.284.013.43.013v-.028a42.482 42.482 0 0 0 8.242-.99 47.765 47.765 0 0 0 4.978-1.34 45.48 45.48 0 0 0 2.817-1.026z"/>
    </g>
</svg>
