<svg xmlns="http://www.w3.org/2000/svg" width="14.352" height="14.352" viewBox="0 0 14.352 14.352">
    <path id="prefix__iconmonstr-calendar-4" d="M11.96 11.96H9.568V9.568h2.392zM8.372 5.98H5.98v2.392h2.392zm3.588 0H9.568v2.392h2.392zM4.784 9.568H2.392v2.392h2.392zm3.588 0H5.98v2.392h2.392zM4.784 5.98H2.392v2.392h2.392zm9.568-4.78v13.152H0V1.2h1.794v.6a1.2 1.2 0 0 0 2.392 0v-.6h5.98v.6a1.2 1.2 0 1 0 2.392 0v-.6zm-1.2 3.588H1.2v8.372h11.96zM11.96.6a.6.6 0 0 0-1.2 0v1.2a.6.6 0 0 0 1.2 0zM3.588 1.8a.6.6 0 0 1-1.2 0V.6a.6.6 0 0 1 1.2 0z" style="fill:#b7acfc"/>
</svg>
