<svg xmlns="http://www.w3.org/2000/svg" width="27" height="21" viewBox="0 0 27 21">
    <g fill="#565656" fill-rule="evenodd">
        <path d="M7.313 5.676c.31 0 .562-.255.562-.568V.568A.565.565 0 0 0 7.312 0a.565.565 0 0 0-.562.568v4.54c0 .313.252.568.563.568zM19.688 5.676c.309 0 .562-.255.562-.568V.568A.566.566 0 0 0 19.687 0a.566.566 0 0 0-.562.568v4.54c0 .313.253.568.563.568z"/>
        <path fill-rule="nonzero" d="M24.188 2.838h-2.813v2.27c0 .939-.757 1.703-1.688 1.703-.93 0-1.687-.764-1.687-1.703v-2.27H9v2.27c0 .939-.757 1.703-1.688 1.703-.93 0-1.687-.764-1.687-1.703v-2.27H2.812C1.262 2.838 0 4.11 0 5.676v12.486C0 19.726 1.262 21 2.813 21h21.375C25.738 21 27 19.726 27 18.162V5.676c0-1.565-1.262-2.838-2.813-2.838zM5.6 15.324h-2.25v-2.27h2.25v2.27zm0-4.54h-2.25v-2.27h2.25v2.27zm4.5 4.54h-2.25v-2.27h2.25v2.27zm0-4.54h-2.25v-2.27h2.25v2.27zm4.5 4.54h-2.25v-2.27h2.25v2.27zm0-4.54h-2.25v-2.27h2.25v2.27zm4.5 4.54h-2.25v-2.27h2.25v2.27zm0-4.54h-2.25v-2.27h2.25v2.27zm4.5 4.54h-2.25v-2.27h2.25v2.27zm0-4.54h-2.25v-2.27h2.25v2.27z"/>
    </g>
</svg>
