<svg xmlns="http://www.w3.org/2000/svg" width="12.478" height="8.203" viewBox="0 0 12.478 8.203">
    <path d="M11.877.005a.534.534 0 0 0-.317.161L4.774 6.952l-3.9-3.09a.537.537 0 0 0-.668.841l4.275 3.385a.534.534 0 0 0 .713-.045L12.32.917a.534.534 0 0 0-.44-.913z" data-name="Path 2"/>
</svg>
