<svg xmlns="http://www.w3.org/2000/svg" width="45.82" height="45.88" viewBox="0 0 45.82 45.88">
    <defs>
        <style>
            .cls-3{fill:#fff}
        </style>
    </defs>
    <g id="checked" transform="translate(-.301)">
        <path id="Path_998" fill="#50d388" d="M41.12 42.189c-7.02 5.731-28.941 5.731-35.82 0-7.019-5.731-6.3-30.231 0-36.678s29.515-6.447 35.819 0 7.022 30.947.001 36.678z" transform="translate(0 -.607)"/>
        <g id="Group_3189" opacity="0.2" transform="translate(.322)">
            <path id="Path_999" d="M23.542 31.553c-6.3 5.015-13.325 7.594-19.915 7.737C-1.245 30.98-.242 10.778 5.489 4.9c5.158-5.3 21.348-6.3 30.661-3 2.292 9.451-2.436 21.486-12.608 29.653z" class="cls-3" transform="translate(-.509)"/>
        </g>
        <path id="Path_1000" d="M94.049 126.882a3.064 3.064 0 0 1-2.579-1.289l-8.023-10.316a3.267 3.267 0 1 1 5.158-4.012l5.444 7.021 12.035-15.617a3.267 3.267 0 1 1 5.158 4.012l-14.614 18.912a3.747 3.747 0 0 1-2.579 1.289z" class="cls-3" transform="translate(-74.133 -91.174)"/>
    </g>
</svg>
