<svg xmlns="http://www.w3.org/2000/svg" width="18" height="18" viewBox="0 0 18 18">
    <defs>
        <style>
            .prefix__cls-2{stroke-width:2px;fill:none;stroke:#fff;stroke-linecap:round}
        </style>
    </defs>
    <g id="prefix__checkbox" transform="translate(-148 -418)">
        <g id="prefix__Rectangle_234" data-name="Rectangle 234" transform="translate(148 418)" style="stroke-width:2px;fill:#dce6f0;stroke:#dce6f0">
            <rect width="18" height="18" rx="4" style="stroke:none"/>
            <rect width="16" height="16" x="1" y="1" rx="3" style="fill:none"/>
        </g>
        <g id="prefix__right" transform="translate(153.165 424.313)">
            <path id="prefix__Line_7" d="M0 0L2.766 3.687" class="prefix__cls-2" data-name="Line 7" transform="translate(0 1.844)"/>
            <path id="prefix__Line_8" d="M5.531 0L0 5.531" class="prefix__cls-2" data-name="Line 8" transform="translate(2.766)"/>
        </g>
    </g>
</svg>
