<svg xmlns="http://www.w3.org/2000/svg" width="10.514" height="10.514" viewBox="0 0 10.514 10.514">
    <defs>
        <style>
            .prefix__cls-1{fill:#12203c}
        </style>
    </defs>
    <g id="prefix__Group_2093" data-name="Group 2093" transform="rotate(45 7.32 4.403)">
        <rect id="prefix__Rectangle_304" width="1.939" height="12.93" class="prefix__cls-1" data-name="Rectangle 304" rx=".97" transform="translate(5.495)"/>
        <rect id="prefix__Rectangle_305" width="1.939" height="12.93" class="prefix__cls-1" data-name="Rectangle 305" rx=".97" transform="rotate(90 3.717 9.213)"/>
    </g>
</svg>
