<svg xmlns="http://www.w3.org/2000/svg" width="55" height="55" viewBox="0 0 55 55">
    <defs>
        <style>
            .cls-1{fill:#fff}.cls-2{fill:#010101}.cls-3{filter:url(#Ellipse_22)}
        </style>
        <filter id="Ellipse_22" width="55" height="55" x="0" y="0" filterUnits="userSpaceOnUse">
            <feOffset/>
            <feGaussianBlur result="blur" stdDeviation="3"/>
            <feFlood flood-color="#b9b9b9" flood-opacity=".161"/>
            <feComposite in2="blur" operator="in"/>
            <feComposite in="SourceGraphic"/>
        </filter>
    </defs>
    <g id="close" transform="translate(-2 -1.9)">
        <g class="cls-3" transform="translate(2 1.9)">
            <circle id="Ellipse_22-2" cx="18.5" cy="18.5" r="18.5" class="cls-1" data-name="Ellipse 22" transform="translate(9 9)"/>
        </g>
        <path id="Path_154" d="M33.435 27.481l6.153-6.18a.816.816 0 0 0-1.154-1.154l-6.153 6.18-6.18-6.18a.816.816 0 0 0-1.154 1.153l6.153 6.18-6.153 6.18a.8.8 0 0 0 0 1.154.8.8 0 0 0 1.154 0l6.18-6.18 6.18 6.18a.8.8 0 0 0 1.154 0 .8.8 0 0 0 0-1.154z" class="cls-2" data-name="Path 154" transform="translate(-3 2)"/>
    </g>
</svg>
