<?xml version="1.0" encoding="UTF-8"?>
<svg width="28px" height="21px" viewBox="0 0 28 21" version="1.1" xmlns="http://www.w3.org/2000/svg" xmlns:xlink="http://www.w3.org/1999/xlink">
    <!-- Generator: sketchtool 52.4 (67378) - http://www.bohemiancoding.com/sketch -->
    <title>6EDAC550-B2DA-4B92-9FBC-374CB14DA1C3</title>
    <desc>Created with sketchtool.</desc>
    <g id="Post-Login" stroke="none" stroke-width="1" fill="none" fill-rule="evenodd">
        <g id="MASTER---(SKECHERS)" transform="translate(-751.000000, -433.000000)" fill="#6D6DC9" fill-rule="nonzero">
            <g id="Name-field" transform="translate(647.000000, 401.000000)">
                <g id="Upload-icon" transform="translate(104.000000, 32.000000)">
                    <g id="Group" transform="translate(0.000000, 0.191346)">
                        <path d="M14,0.108651 C11.8214783,0.108651 9.63111739,0.927642 7.9701087,2.564901 C6.73485217,3.782502 5.98600435,5.29296 5.66847826,6.86802 C2.44516087,7.4844 -3.00000004e-08,10.25919 -3.00000004e-08,13.60866 C-3.00000004e-08,17.40873 3.14482609,20.50866 7,20.50866 L21.9130435,20.50866 C25.2694217,20.50866 28,17.81709 28,14.50866 C28,11.3862 25.5596783,8.84433 22.4646739,8.56491 C22.4789783,6.39318 21.6964391,4.21701 20.0203652,2.564901 C18.3608174,0.928977 16.1785217,0.108651 14,0.108651 Z M14,1.908651 C15.7159739,1.908651 17.4152391,2.53755 18.726887,3.830526 C20.2426609,5.32461 20.8840739,7.35456 20.648113,9.29616 C20.6154387,9.55202581 20.6956724,9.80941643 20.8684648,10.0030511 C21.0412572,10.1966858 21.290009,10.307963 21.5516304,10.30866 L21.9130435,10.30866 C24.2893609,10.30866 26.173913,12.16629 26.173913,14.50866 C26.173913,16.85103 24.2893609,18.70866 21.9130435,18.70866 L7,18.70866 C4.13176522,18.70866 1.82608696,16.43592 1.82608696,13.60866 C1.82608696,10.93869 3.88606522,8.76351 6.52445652,8.52741 C6.95071855,8.48646658 7.29083769,8.15900304 7.3423913,7.73991 C7.5103913,6.31338 8.15076957,4.92744 9.26358696,3.830526 C10.573987,2.538885 12.2840261,1.908651 14,1.908651 Z M14,7.30866 C13.6955913,7.30866 13.5346522,7.4052 13.3818087,7.54302 L10.0339826,10.54302 C9.64743044,10.89666 9.65415652,11.47059 9.97688696,11.81802 C10.2996478,12.16545 10.9162565,12.19059 11.2703652,11.87427 L13.0869565,10.24302 L13.0869565,16.00866 C13.0869565,16.5057 13.4956652,16.90866 14,16.90866 C14.5043652,16.90866 14.9130435,16.5057 14.9130435,16.00866 L14.9130435,10.24302 L16.7296348,11.87427 C17.0837435,12.19059 17.6817565,12.14772 18.023113,11.81802 C18.3828217,11.47059 18.3169609,10.86279 17.9660174,10.54302 L14.6181913,7.54302 C14.4373478,7.37979 14.3044087,7.30866 14,7.30866 Z" id="Shape"></path>
                    </g>
                </g>
            </g>
        </g>
    </g>
</svg>