<svg xmlns="http://www.w3.org/2000/svg" width="19" height="19" viewBox="0 0 19 19">
    <path fill="#9B9B9B" fill-rule="nonzero" d="M1.39.226C.628.226 0 .84 0 1.583v11.762c0 .744.628 1.357 1.39 1.357h2.78v2.715c0 .744.629 1.357 1.391 1.357H17.61c.762 0 1.39-.613 1.39-1.357V5.655c0-.744-.628-1.357-1.39-1.357h-2.78V1.583C14.83.84 14.2.226 13.438.226H1.39zm0 .905H13.44c.265 0 .463.194.463.452v2.715H5.561c-.762 0-1.39.613-1.39 1.357v8.143H1.39a.447.447 0 0 1-.464-.453V1.583c0-.258.198-.452.463-.452zm4.171 4.071H17.61c.265 0 .463.194.463.453v11.762a.447.447 0 0 1-.463.452H5.56a.447.447 0 0 1-.463-.452V5.655c0-.259.198-.453.463-.453zm2.042 2.715a.465.465 0 0 0-.39.244.444.444 0 0 0 .021.453c.09.136.247.215.412.207h7.878a.466.466 0 0 0 .407-.224.443.443 0 0 0 0-.456.466.466 0 0 0-.407-.224H7.603zm0 3.166a.465.465 0 0 0-.39.245.444.444 0 0 0 .021.452c.09.136.247.216.412.208h7.878a.466.466 0 0 0 .407-.224.443.443 0 0 0 0-.456.466.466 0 0 0-.407-.225H7.603zm0 3.167a.465.465 0 0 0-.39.245.444.444 0 0 0 .021.452c.09.136.247.215.412.208h7.878a.466.466 0 0 0 .407-.225.443.443 0 0 0 0-.456.466.466 0 0 0-.407-.224H7.603z"/>
</svg>
