<svg xmlns="http://www.w3.org/2000/svg" width="48" height="48" viewBox="0 0 48 48">
    <g fill="#9100FF" fill-rule="evenodd">
        <path fill-rule="nonzero" d="M24 47.652c-13.255 0-24-10.667-24-23.826S10.745 0 24 0s24 10.667 24 23.826c-.015 13.153-10.751 23.811-24 23.826zm0-43.986c-11.216 0-20.308 9.026-20.308 20.16 0 11.135 9.092 20.16 20.308 20.16s20.308-9.025 20.308-20.16C44.294 12.697 35.21 3.68 24 3.666z"/>
        <path d="M24 32.99a1.84 1.84 0 0 1-1.846-1.833V16.495A1.84 1.84 0 0 1 24 14.662c1.02 0 1.846.82 1.846 1.833v14.662A1.84 1.84 0 0 1 24 32.99z"/>
        <path d="M31.385 25.659h-14.77a1.84 1.84 0 0 1-1.846-1.833 1.84 1.84 0 0 1 1.846-1.833h14.77c1.02 0 1.846.82 1.846 1.833a1.84 1.84 0 0 1-1.846 1.833z"/>
    </g>
</svg>
