<svg xmlns="http://www.w3.org/2000/svg" width="15.932" height="15.932" viewBox="0 0 15.932 15.932">
    <path id="prefix__iconmonstr-calendar-4" d="M13.277 13.277h-2.656v-2.656h2.655zM9.294 6.638H6.638v2.656h2.656zm3.983 0h-2.656v2.656h2.655zm-7.966 3.983H2.655v2.655h2.656zm3.983 0H6.638v2.655h2.656zM5.311 6.638H2.655v2.656h2.656zm10.621-5.31v14.6H0v-14.6h1.992v.664a1.328 1.328 0 0 0 2.655 0v-.664h6.638v.664a1.328 1.328 0 0 0 2.655 0v-.664zM14.6 5.311H1.328V14.6H14.6zM13.277.664a.664.664 0 1 0-1.328 0v1.328a.664.664 0 1 0 1.328 0zM3.983 1.992a.664.664 0 0 1-1.328 0V.664a.664.664 0 0 1 1.328 0z" style="fill:#a4b9dd"/>
</svg>
