<svg xmlns="http://www.w3.org/2000/svg" width="18" height="18" viewBox="0 0 18 18">
    <g fill="#9B9B9B" fill-rule="evenodd">
        <path fill-rule="nonzero" d="M15.237 2.202h-2.43A2.766 2.766 0 0 0 10.107 0h-2.94a2.763 2.763 0 0 0-2.7 2.202H2.763A2.757 2.757 0 0 0 0 4.8h1.128c.035-.377.202-.73.471-.996.307-.308.723-.48 1.158-.48h12.48c.435 0 .851.172 1.158.48.269.266.436.619.471.996H18a2.757 2.757 0 0 0-2.763-2.598zm-9.6 0c.082-.224.211-.429.378-.6.308-.308.726-.48 1.161-.48h2.934a1.629 1.629 0 0 1 1.536 1.077l-6.009.003z"/>
        <path d="M14.673 16.875H3.327V4.83H2.202v12.6a.564.564 0 0 0 .561.57h12.474a.564.564 0 0 0 .561-.564v-12.6h-1.125v12.039z"/>
        <path d="M5.07 6.432h1.125v8.805H5.07zM8.439 6.432h1.125v8.805H8.439zM11.805 6.432h1.125v8.805h-1.125z"/>
    </g>
</svg>
