<svg xmlns="http://www.w3.org/2000/svg" width="36.328" height="28.971" viewBox="0 0 36.328 28.971">
    <defs>
        <clipPath id="clip-path">
            <path fill="#12203c" id="Rectangle_68" d="M0 0h24v22H0z" class="cls-1" data-name="Rectangle 68" transform="translate(-.128 .367)"/>
        </clipPath>
        <clipPath id="clip-path-2">
            <path fill="#12203c" id="Path_256" d="M7.44-18.027l-1.25-1.221-.991.966L7.44-16.1l2.723-2.656-.99-.962z" class="cls-1" data-name="Path 256" transform="translate(-5.199 19.716)"/>
        </clipPath>
        <clipPath id="clip-path-3">
            <path fill="#12203c" id="Path_255" d="M0-30.609h23.813V-53H0z" class="cls-1" data-name="Path 255" transform="translate(0 53)"/>
        </clipPath>
        <clipPath id="clip-path-4">
            <path fill="#12203c" id="Path_259" d="M12.873-52.85L1.932-48.043v7.05A4.573 4.573 0 0 0 0-37.284a4.679 4.679 0 0 0 4.732 4.61 4.79 4.79 0 0 0 2.506-.705l5.635 2.479 10.94-4.81v-12.333zM4.732-34.039A3.292 3.292 0 0 1 1.4-37.284a3.293 3.293 0 0 1 3.33-3.247 3.294 3.294 0 0 1 3.332 3.247 3.292 3.292 0 0 1-3.33 3.245zm8.141-10.691l-7.535-3.313 7.535-3.309 7.534 3.309z" class="cls-1" data-name="Path 259" transform="translate(0 52.85)"/>
        </clipPath>
    </defs>
    <g id="icon" transform="translate(-9.859 -14.279)">
        <g id="Group_244" data-name="Group 244" transform="translate(9.859 14.279)">
            <path fill="#12203c" id="Path_252" d="M55.386 45.776l-3.34 3.524.789.749 2.008-2.117v.027c0 3.436-3.4 6.231-7.571 6.231H47v1.087h.272c4.774 0 8.658-3.283 8.658-7.318v-.027l2.007 2.117.79-.748z" class="cls-1" data-name="Path 252" transform="translate(-22.397 -26.304)"/>
            <path fill="#12203c" id="Path_253" d="M9.743 22.624V22.6c0-3.436 3.4-6.231 7.571-6.231h.272v-1.09h-.272c-4.774 0-8.658 3.283-8.658 7.318v.027l-2.008-2.116-.789.748L9.2 24.778l3.34-3.522-.789-.748z" class="cls-1" data-name="Path 253" transform="translate(-5.859 -15.279)"/>
            <g id="Group_245" data-name="Group 245" transform="translate(6.269 2.634)">
                <g id="Group_1764" data-name="Group 1764">
                    <g id="Group_250" data-name="Group 250">
                        <g clip-path="url(#clip-path)" id="Group_249" class="cls-2" data-name="Group 249">
                            <g clip-path="url(#clip-path-2)" id="Group_246" class="cls-3" data-name="Group 246" transform="translate(2.051 14.384)">
                                <g clip-path="url(#clip-path-3)" id="Group_245-2" class="cls-4" data-name="Group 245" transform="translate(-2.251 -14.062)">
                                    <path fill="#12203c" id="Path_254" d="M.2-24.716h9.293v7.843H.2z" class="cls-1" data-name="Path 254" transform="translate(-.113 36.665)"/>
                                </g>
                            </g>
                            <g clip-path="url(#clip-path-4)" id="Group_248" class="cls-5" data-name="Group 248" transform="translate(-.2 .385)">
                                <g clip-path="url(#clip-path-3)" id="Group_247" class="cls-4" data-name="Group 247" transform="translate(0 -.063)">
                                    <path fill="#12203c" id="Path_257" d="M-5-57.85h28.143v26.173H-5z" class="cls-1" data-name="Path 257" transform="translate(2.835 55.801)"/>
                                </g>
                            </g>
                        </g>
                    </g>
                </g>
            </g>
        </g>
    </g>
</svg>