<svg xmlns="http://www.w3.org/2000/svg" width="29.87" height="31.1" viewBox="0 0 29.87 31.1">
    <defs>
        <style>
            .prefix__cls-1{fill:#12203c}
        </style>
    </defs>
    <g id="prefix__Vendor" transform="translate(-779 -192.49)">
        <g id="prefix__procurement" transform="translate(779 192.49)">
            <g id="prefix__Group_312" data-name="Group 312">
                <path id="prefix__Path_348" d="M71.357 270.23c-.014-.021-.028-.035-.042-.056a2.412 2.412 0 0 0-3.369-.349c-1.2.97-2.978 2.413-4.262 3.446a4.9 4.9 0 0 1-2.888 1.074l-3.2.1a.266.266 0 0 1-.251-.139l-.356-.607a.283.283 0 0 1-.014-.258.264.264 0 0 1 .2-.16l3.306-.628a2.366 2.366 0 0 0 1.9-2.595 2.338 2.338 0 0 0-2.441-2.078l-4.429-.181a10.215 10.215 0 0 0-5.085 1.137l-2.126 1.036a2.014 2.014 0 0 0-1.758-1.046h-2.568A2 2 0 0 0 42 270.949v9.534a2.008 2.008 0 0 0 1.974 2.037h2.56a2.044 2.044 0 0 0 2.016-2.037v-.607l2.26-.418a9.69 9.69 0 0 1 2.12-.126l6.731.314c.14.007.279.007.418.007a9.819 9.819 0 0 0 6.291-2.274l4.659-3.871c.007 0 .007-.007.014-.007a2.362 2.362 0 0 0 .314-3.264zm-24.2 10.218a.615.615 0 0 1-.614.614h-2.534a.615.615 0 0 1-.614-.614v-9.514a.615.615 0 0 1 .614-.614h2.546a.615.615 0 0 1 .614.614v9.514zm22.982-8l-4.652 3.864a8.441 8.441 0 0 1-5.754 1.939L53 277.938a10.819 10.819 0 0 0-2.406.146c-.007 0-.007 0-.014.007l-2.023.37v-7.044l2.5-1.214a8.746 8.746 0 0 1 4.422-1l4.457.181H60a.952.952 0 0 1 1 .837.973.973 0 0 1-.774 1.067l-3.313.628a1.678 1.678 0 0 0-1.137 2.5l.356.607a1.672 1.672 0 0 0 1.5.823l3.2-.1a6.283 6.283 0 0 0 3.718-1.381c1.283-1.039 3.062-2.476 4.262-3.452a.965.965 0 0 1 .725-.209.993.993 0 0 1 .656.342l.007.007c.014.021.028.035.042.056a.94.94 0 0 1-.099 1.339z" class="prefix__cls-1" data-name="Path 348" transform="translate(-42 -251.42)"/>
                <path id="prefix__Path_349" d="M197.66 48.344h11.976a1.709 1.709 0 0 0 1.709-1.695v-8.613a.856.856 0 0 0-.056-.265l-1.5-3.7A1.724 1.724 0 0 0 208.213 33h-9.13a1.71 1.71 0 0 0-1.569 1.074l-1.479 3.7a.713.713 0 0 0-.035.272v8.614a1.666 1.666 0 0 0 1.66 1.684zm11.976-1.395H197.66a.27.27 0 0 1-.265-.3v-7.93h3.766v2.964a.7.7 0 0 0 .7.7.688.688 0 0 0 .265-.049l3.627-1.479a.691.691 0 0 0 .432-.649v-1.487h3.766v7.93a.31.31 0 0 1-.315.301zm-4.847-8.23v1.018l-2.232.907v-1.925zm-2.12-1.395l.425-2.929h1.13l.453 2.929zm5.824-2.734l1.1 2.734h-3.515l-.453-2.929h2.581a.321.321 0 0 1 .286.195zm-9.681 0a.311.311 0 0 1 .279-.2h2.595l-.425 2.929H197.7z" class="prefix__cls-1" data-name="Path 349" transform="translate(-185.259 -33)"/>
            </g>
        </g>
    </g>
</svg>
