<svg xmlns="http://www.w3.org/2000/svg" width="24" height="24" viewBox="0 0 24 24">
    <g id="prefix__Group_2100" data-name="Group 2100" transform="translate(-1102 -169)">
        <path id="prefix__Path_424" d="M12 0A12 12 0 110 12 12 12 0 0112 0z" data-name="Path 424" transform="translate(1102 169)" style="fill:#ccd8ed"/>
        <path id="prefix__iconmonstr-download-19" d="M5.965 9.479L2.354 5.417h2.708V0h1.806v5.417h2.708zm4.062-.451v.9H1.9v-.9H1v1.806h9.93V9.028z" transform="translate(1108.378 175.475)" style="fill:#5677b1"/>
    </g>
</svg>
