<svg xmlns="http://www.w3.org/2000/svg" width="14.293" height="8.146" viewBox="0 0 14.293 8.146">
    <defs>
        <style>
            .cls-1{fill:none;stroke:#9803f5;stroke-linecap:round;stroke-linejoin:round;stroke-width:2px}
        </style>
    </defs>
    <path id="Path_377" d="M6 14.732L11.732 9l5.732 5.732" class="cls-1" data-name="Path 377" transform="translate(-4.586 -8)"/>
</svg>
