<?xml version="1.0" encoding="UTF-8"?>
<svg width="18px" height="18px" viewBox="0 0 18 18" version="1.1" xmlns="http://www.w3.org/2000/svg" xmlns:xlink="http://www.w3.org/1999/xlink">
    <!-- Generator: sketchtool 52.5 (67469) - http://www.bohemiancoding.com/sketch -->
    <title>E2AB775F-D0FC-4DDC-AD6D-5997E61AEC12</title>
    <desc>Created with sketchtool.</desc>
    <g id="Post-Login" stroke="none" stroke-width="1" fill="none" fill-rule="evenodd">
        <g id="FORECASTING(Monthly)---CUSTOM---Part2" transform="translate(-1401.000000, -453.000000)">
            <g id="basic-table" transform="translate(72.000000, 225.000000)">
                <g id="BASIC-TABLE">
                    <g id="download-icon" transform="translate(1329.000000, 228.000000)">
                        <g id="Group">
                            <g>
                                <rect id="Rectangle" x="0" y="0" width="18" height="18"></rect>
                                <rect id="Rectangle" fill="#ffffff" x="0" y="15.6" width="18" height="2.4" rx="1.2"></rect>
                                <path d="M8.56277226,3.78169946 C9.06098384,3.28215888 9.06057074,2.4734103 8.56282206,1.97433386 C8.06496394,1.47514768 7.25804102,1.47527977 6.76026484,1.97438379 L2.24909912,6.49690024 C1.91688607,6.8299492 1.91704785,7.37009042 2.24909912,7.70297718 L6.76026484,12.2254936 C7.25847642,12.7250342 8.06507338,12.72462 8.56282206,12.2255436 C9.06068018,11.7263574 9.06054844,10.917282 8.56277226,10.418178 L6.51550596,8.36622456 L14.7259743,8.36622456 C15.4291319,8.36622456 16,7.79406006 16,7.0882594 C16,6.38230354 15.4295993,5.81029422 14.7259743,5.81029422 L6.53880248,5.81029422 L8.56277226,3.78169946 Z" id="Path" fill="#ffffff" transform="translate(9.000000, 7.100000) rotate(-90.000000) translate(-9.000000, -7.100000) "></path>
                            </g>
                        </g>
                    </g>
                </g>
            </g>
        </g>
    </g>
</svg>