<svg xmlns="http://www.w3.org/2000/svg" width="21.56" height="16.171" viewBox="0 0 21.56 16.171">
    <g>
        <g>
            <g>
                <path d="M205.278 228.224l-4.042-4.044a.675.675 0 0 0-1.151.477v2.021h-2.021a6.071 6.071 0 0 0-6.064 6.064.675.675 0 0 0 1.151.477l.323-.323a7.372 7.372 0 0 1 5.25-2.175h1.361v2.021a.674.674 0 0 0 .416.623.66.66 0 0 0 .257.051.679.679 0 0 0 .477-.2l4.042-4.042a.674.674 0 0 0 .001-.95zm-3.846 2.892v-1.069a.674.674 0 0 0-.674-.674h-2.035a8.715 8.715 0 0 0-5.023 1.577 4.726 4.726 0 0 1 4.363-2.924h2.695a.674.674 0 0 0 .674-.674v-1.069l2.416 2.416z" transform="translate(0 -63.997) translate(8.085 70.734) translate(-192 -223.983)"/>
            </g>
        </g>
        <g>
            <g>
                <path d="M17.5 65.268a.663.663 0 0 0-.027-.135A1.331 1.331 0 0 0 16.17 64H1.347a1.331 1.331 0 0 0-1.3 1.136.663.663 0 0 0-.027.135.78.78 0 0 0-.02.073v9.432a.779.779 0 0 0 .016.077.7.7 0 0 0 .027.136 1.331 1.331 0 0 0 1.3 1.135h6.068a.674.674 0 1 0 0-1.347H1.792l5.153-3.888 1.409 1.058a.674.674 0 0 0 .808 0l1.409-1.058 1.7 1.287a.673.673 0 1 0 .81-1.075l-1.393-1.052 4.476-3.357v2.021a.674.674 0 1 0 1.347 0v-3.369a.78.78 0 0 0-.011-.076zM1.347 73.425v-6.733l4.476 3.357zm7.411-2.859L1.8 65.344h13.921z" transform="translate(0 -63.997) translate(0 63.997) translate(0 -63.997)"/>
            </g>
        </g>
    </g>
</svg>
