<svg xmlns="http://www.w3.org/2000/svg" width="92.321" height="69.985" viewBox="0 0 92.321 69.985">
    <defs>
        <style>
            .prefix__cls-2{fill:#85a2db}
        </style>
    </defs>
    <g id="prefix__empty-box" transform="translate(0 -.5)">
        <path id="prefix__Path_641" fill="#ccd8ed" d="M52.671 197.347A20.847 20.847 0 0 1 31.825 176.5H8v35.737h89.342V176.5H73.518a20.847 20.847 0 0 1-20.847 20.847zm-29.781 8.934" data-name="Path 641" transform="translate(-6.511 -143.241)"/>
        <g id="prefix__Group_2564" data-name="Group 2564" transform="translate(0 .5)">
            <path id="prefix__Path_642" d="M92.224 32.729L80.312 1.459A1.49 1.49 0 0 0 78.919.5H13.4a1.489 1.489 0 0 0-1.392.959L.1 32.729a1.5 1.5 0 0 0-.087.476c0 .02-.01.034-.01.054V69a1.489 1.489 0 0 0 1.489 1.489h89.34A1.489 1.489 0 0 0 92.321 69V33.259c0-.02-.01-.034-.01-.054a1.5 1.5 0 0 0-.087-.476zM14.427 3.478h63.466L88.671 31.77H67.007a1.489 1.489 0 0 0-1.489 1.489 19.358 19.358 0 1 1-38.715 0 1.489 1.489 0 0 0-1.489-1.489H3.65zm74.915 64.029H2.978V34.748h20.9a22.335 22.335 0 0 0 44.572 0h20.9zm0 0" class="prefix__cls-2" data-name="Path 642" transform="translate(0 -.5)"/>
            <path id="prefix__Path_643" d="M36.467 302.456h-1.489v-4.467a1.489 1.489 0 0 0-2.978 0v5.956a1.489 1.489 0 0 0 1.489 1.489h2.978a1.489 1.489 0 1 0 0-2.978zm0 0" class="prefix__cls-2" data-name="Path 643" transform="translate(-26.044 -241.405)"/>
            <path id="prefix__Path_644" d="M84.467 328.5h-2.978a1.489 1.489 0 1 0 0 2.978h2.978a1.489 1.489 0 1 0 0-2.978zm0 0" class="prefix__cls-2" data-name="Path 644" transform="translate(-65.11 -267.449)"/>
        </g>
    </g>
</svg>
