<svg xmlns="http://www.w3.org/2000/svg" width="17.849" height="14.75" viewBox="0 0 17.849 14.75">
    <defs>
        <style>
            .cls-1{fill:#fff}
        </style>
    </defs>
    <g id="exchange" transform="translate(-4.639 -18.001)">
        <g id="Group_23" data-name="Group 23" transform="translate(4.639 18.001)">
            <path id="Path_5" d="M24.767 15.069a.462.462 0 0 0-.652 0l-.7.7c.007-.129.021-.258.021-.387A7.376 7.376 0 0 0 9.144 12.8a.461.461 0 0 0 .864.323 6.454 6.454 0 0 1 12.5 2.254c0 .218-.013.436-.035.652l-.967-.977a.461.461 0 1 0-.655.649l1.621 1.638a.462.462 0 0 0 .652 0l1.638-1.621a.461.461 0 0 0 .005-.649z" class="cls-1" data-name="Path 5" transform="translate(-7.052 -8.001)"/>
            <path id="Path_6" d="M18.927 27.168a6.452 6.452 0 0 1-11.615-2.473l.723.715a.461.461 0 1 0 .649-.655l-1.611-1.594A.456.456 0 0 0 6.729 23h-.006a.461.461 0 0 0-.33.136l-1.621 1.639a.461.461 0 0 0 .655.649l.922-.932A7.369 7.369 0 0 0 19.681 27.7a.461.461 0 1 0-.754-.53z" class="cls-1" data-name="Path 6" transform="translate(-4.639 -16.086)"/>
        </g>
    </g>
</svg>
