<?xml version="1.0" encoding="UTF-8"?>
<svg width="17px" height="17px" viewBox="0 0 17 17" version="1.1" xmlns="http://www.w3.org/2000/svg" xmlns:xlink="http://www.w3.org/1999/xlink">
    <!-- Generator: sketchtool 52.5 (67469) - http://www.bohemiancoding.com/sketch -->
    <title>343D3457-2736-4E7B-A25E-B7809CAC7635</title>
    <desc>Created with sketchtool.</desc>
    <g id="Post-Login" stroke="none" stroke-width="1" fill="none" fill-rule="evenodd">
        <g id="REPLENISHMENT---SUMMARY" transform="translate(-306.000000, -622.000000)" fill="#F5A623" fill-rule="nonzero">
            <g id="breadcrumb" transform="translate(38.000000, 155.000000)">
                <g id="donwload-TO" transform="translate(37.000000, 459.000000)">
                    <path d="M239.5,8 C234.812291,8 231,11.812319 231,16.5000019 C231,21.1876942 234.812291,25 239.5,25 C244.187708,25 248,21.1876942 248,16.5000019 C248,11.812319 244.187708,8 239.5,8 Z M239.5,9.13333308 C243.575206,9.13333308 246.866667,12.4248214 246.866667,16.5000019 C246.866667,20.5752032 243.575206,23.8666669 239.5,23.8666669 C235.424794,23.8666669 232.133333,20.5752032 232.133333,16.5000019 C232.133333,12.4248214 235.424794,9.13333308 239.5,9.13333308 Z M239.5,10.2666662 C238.874077,10.2666662 238.366667,10.7740783 238.366667,11.3999992 L238.555555,18.7666681 C238.555555,19.2882657 238.978396,19.7111123 239.5,19.7111123 C240.021603,19.7111123 240.444444,19.2882657 240.444444,18.7666681 L240.633333,11.3999992 C240.633333,10.7740783 240.125923,10.2666662 239.5,10.2666662 Z M239.5,20.4666677 C238.874079,20.4666677 238.366667,20.9740798 238.366667,21.6000008 C238.366667,22.2259028 238.874079,22.7333338 239.5,22.7333338 C240.125921,22.7333338 240.633333,22.2259028 240.633333,21.6000008 C240.633333,20.9740798 240.125921,20.4666677 239.5,20.4666677 Z" id="Shape"></path>
                </g>
            </g>
        </g>
    </g>
</svg>