<svg xmlns="http://www.w3.org/2000/svg" width="36" height="36" viewBox="0 0 36 36">
    <g id="prefix__files" transform="translate(9.235 8.586)">
        <g id="prefix__Group_2456" data-name="Group 2456">
            <circle id="prefix__Ellipse_73" cx="18" cy="18" r="18" data-name="Ellipse 73" transform="translate(-9.235 -8.586)" style="opacity:.058;fill:#049d4b"/>
            <g id="prefix__Group_2455" data-name="Group 2455" transform="translate(0 -2)">
                <path id="prefix__Path_606" d="M1.421 20.609V2.132a.711.711 0 0 1 .711-.711h10.66v2.843a1.421 1.421 0 0 0 1.421 1.421h2.843v2.132h1.421V4.974a.711.711 0 0 0-.206-.5L14.007.206A.711.711 0 0 0 13.5 0H2.132A2.132 2.132 0 0 0 0 2.132v18.477a2.132 2.132 0 0 0 2.132 2.132h4.975V21.32H2.132a.711.711 0 0 1-.711-.711z" data-name="Path 606" style="fill:#049d4b"/>
                <text id="prefix__XLS" transform="translate(7.765 16.414)" style="font-size:7px;font-family:ProximaNova-Bold,Proxima Nova;font-weight:700;fill:#049d4b">
                    <tspan x="0" y="0">XLS</tspan>
                </text>
            </g>
        </g>
    </g>
</svg>
