<svg xmlns="http://www.w3.org/2000/svg" width="13" height="14" viewBox="0 0 13 14">
    <path fill="#FFF" fill-rule="nonzero" d="M7.007.218l3.446 3.518c.556.562-.278 1.405-.834.843L7.297 2.23c-.114-.115-.207-.075-.207.09v6.478c0 .33-.264.597-.59.597a.592.592 0 0 1-.59-.597V2.32c0-.164-.092-.204-.207-.089L3.381 4.58c-.556.562-1.39-.28-.834-.843L5.97.222A.721.721 0 0 1 7.007.218zm4.811 12.157v-2.086c0-.33.265-.596.591-.596.326 0 .591.267.591.596v2.682a.89.89 0 0 1-.889.892H.889c-.49 0-.889-.4-.889-.892V10.29c0-.33.265-.596.59-.596.327 0 .592.267.592.596v2.086c0 .162.132.297.295.297h10.046a.298.298 0 0 0 .295-.297z"/>
</svg>
