<svg xmlns="http://www.w3.org/2000/svg" width="12.317" height="8.308" viewBox="0 0 12.317 8.308">
    <defs>
        <style>
            .prefix__cls-1{fill:#ccd8ed}
        </style>
    </defs>
    <g id="prefix__eye" transform="translate(-4.736 -19.47)">
        <path id="prefix__Path_416" d="M16.674 22.628c-1.057-1.181-3.211-3.158-5.779-3.158s-4.723 1.977-5.779 3.158a1.5 1.5 0 000 1.993c1.057 1.18 3.211 3.157 5.779 3.157s4.722-1.977 5.779-3.158a1.5 1.5 0 000-1.992zm-.816 1.267C13.6 26.418 11.636 26.69 10.9 26.69s-2.712-.272-4.973-2.79a.408.408 0 010-.544c2.26-2.521 4.226-2.793 4.968-2.793s2.708.272 4.968 2.795a.408.408 0 010 .543z" class="prefix__cls-1" data-name="Path 416"/>
        <path id="prefix__Path_417" d="M31.754 28.24a2.962 2.962 0 102.874 2.96 2.921 2.921 0 00-2.874-2.96zm0 4.835a1.875 1.875 0 111.785-1.875 1.832 1.832 0 01-1.785 1.874z" class="prefix__cls-1" data-name="Path 417" transform="translate(-20.858 -7.577)"/>
    </g>
</svg>
