<svg xmlns="http://www.w3.org/2000/svg" width="20.88" height="14.084" viewBox="0 0 20.88 14.084">
    <defs>
        <style>
            .cls-1{fill:#9803f5}
        </style>
    </defs>
    <g id="eye" transform="translate(-4.736 -19.47)">
        <path id="Path_416" d="M24.973 24.824c-1.792-2-5.444-5.354-9.8-5.354s-8.006 3.352-9.8 5.354a2.537 2.537 0 0 0 0 3.379c1.792 2 5.444 5.351 9.8 5.351s8-3.352 9.8-5.354a2.537 2.537 0 0 0 0-3.377zm-1.384 2.147c-3.822 4.276-7.157 4.738-8.412 4.738s-4.59-.461-8.421-4.735a.692.692 0 0 1 0-.923c3.831-4.274 7.164-4.735 8.421-4.735s4.59.461 8.421 4.738a.692.692 0 0 1 0 .92z" class="cls-1" data-name="Path 416"/>
        <path id="Path_417" d="M33.752 28.24a5.021 5.021 0 1 0 4.872 5.019 4.952 4.952 0 0 0-4.872-5.019zm0 8.2a3.179 3.179 0 1 1 3.026-3.176 3.1 3.1 0 0 1-3.026 3.176z" class="cls-1" data-name="Path 417" transform="translate(-18.575 -6.747)"/>
    </g>
</svg>
