<svg xmlns="http://www.w3.org/2000/svg" width="60" height="60" viewBox="0 0 60 60">
    <defs>
        <linearGradient id="a" x1="50%" x2="50%" y1="0%" y2="100%">
            <stop offset="0%" stop-color="#F5515F"/>
            <stop offset="100%" stop-color="#9F041B"/>
        </linearGradient>
        <linearGradient id="b" x1="50%" x2="50%" y1="0%" y2="100%">
            <stop offset="0%" stop-color="#EA053B"/>
            <stop offset="100%" stop-color="#D0021B"/>
        </linearGradient>
    </defs>
    <g fill="none" fill-rule="evenodd" transform="translate(3 3)">
        <circle cx="27" cy="27" r="27" fill="#FFF" stroke="url(#a)" stroke-width="5"/>
        <path fill="url(#b)" d="M16.326 3.777c.87-.87.87-2.272 0-3.143a2.211 2.211 0 0 0-3.122.022L8.489 5.348 3.775.656a2.192 2.192 0 0 0-3.122 0c-.85.87-.87 2.272 0 3.142l4.693 4.693-4.693 4.714c-.87.849-.87 2.272 0 3.12.87.871 2.272.871 3.143 0l4.693-4.692 4.715 4.714c.87.87 2.272.87 3.143 0 .87-.87.87-2.272 0-3.142L11.632 8.49l4.694-4.714z" transform="translate(19 19)"/>
    </g>
</svg>
