<svg xmlns="http://www.w3.org/2000/svg" width="20" height="18" viewBox="0 0 20 18">
    <path fill="#000" fill-rule="evenodd" d="M3.867.069c-.943 0-1.89.379-2.63 1.135C-.286 2.76-.375 5.017 1.03 6.453l9.677 9.886c1.02 1.044 2.37 1.616 3.81 1.592 1.422-.018 2.771-.604 3.796-1.651 1.028-1.05 1.614-2.399 1.651-3.797a5.241 5.241 0 0 0-1.522-3.827L10.505.618l-.812.837L17.63 9.49c1.624 1.66 1.568 4.221-.132 5.957-.81.829-1.874 1.292-2.994 1.306a4.06 4.06 0 0 1-2.981-1.247L1.846 5.62a2.27 2.27 0 0 1-.649-1.739c.038-.665.342-1.32.855-1.845C3.062 1.005 4.628.99 5.62 2l8.059 8.236c.174.177.265.39.264.615a.902.902 0 0 1-.272.622.946.946 0 0 1-.642.297.795.795 0 0 1-.606-.25L6.706 5.68l-.815.834 5.716 5.839c.391.4.9.616 1.457.595a2.083 2.083 0 0 0 1.422-.642c.39-.399.607-.913.61-1.449a2.056 2.056 0 0 0-.602-1.454L6.435 1.167A3.58 3.58 0 0 0 3.867.07z"/>
</svg>
