<svg xmlns="http://www.w3.org/2000/svg" width="18" height="20" viewBox="0 0 18 20">
    <path fill="#ffffff" fill-rule="evenodd" d="M4.854 20c-1.29 0-2.53-.512-3.43-1.439a4.896 4.896 0 0 1 0-6.902L12.202.976A3.405 3.405 0 0 1 16.996 1a3.406 3.406 0 0 1 0 4.83L6.217 16.511a1.911 1.911 0 0 1-1.363.561 2.01 2.01 0 0 1-1.387-.56c-.754-.757-.754-2 0-2.757L8.894 8.44c.194-.195.51-.195.68 0 .196.195.196.512 0 .683l-5.401 5.317a.989.989 0 0 0 0 1.366.96.96 0 0 0 .681.293.883.883 0 0 0 .682-.293L16.315 5.122a2.433 2.433 0 0 0 0-3.44 2.405 2.405 0 0 0-1.728-.706c-.657 0-1.265.244-1.727.707L2.105 12.366c-1.509 1.512-1.509 4 0 5.512a3.86 3.86 0 0 0 2.75 1.146 3.86 3.86 0 0 0 2.749-1.146l9.32-9.22c.194-.195.51-.195.68 0 .195.196.195.513 0 .683l-9.319 9.244A4.856 4.856 0 0 1 4.855 20z"/>
</svg>
