<svg xmlns="http://www.w3.org/2000/svg" width="6.987" height="9.115" viewBox="0 0 6.987 9.115">
    <g id="prefix__flash" transform="translate(-65.391)">
        <g id="prefix__Group_2760" data-name="Group 2760" transform="translate(65.391)">
            <path id="prefix__Path_789" fill="#5677b1" d="M72.378 3.1h-2.7L71.223 0h-3.491l-2.341 5.49h2.879l-.69 3.625zm-5.889 1.677L68.222.713h1.831l-1.541 3.1h2.368l-2.029 2.544.3-1.58h-2.662z" data-name="Path 789" transform="translate(-65.391)"/>
        </g>
    </g>
</svg>
