<svg xmlns="http://www.w3.org/2000/svg" width="11.84" height="7.088" viewBox="0 0 11.84 7.088">
    <g id="prefix__filter" transform="translate(-3.4 -22.9)">
        <path id="prefix__Path_412" d="M14.649 24.081H3.991a.591.591 0 010-1.181h10.658a.591.591 0 010 1.181zm-8.873 1.772h7.1a.591.591 0 110 1.181h-7.1a.6.6 0 01-.591-.591.581.581 0 01.591-.59zm1.772 2.953h3.544a.591.591 0 110 1.181H7.548a.6.6 0 01-.591-.591.589.589 0 01.591-.589z" data-name="Path 412" style="fill:#a4b9dd;fill-rule:evenodd"/>
    </g>
</svg>
