<svg xmlns="http://www.w3.org/2000/svg" id="help" width="17.249" height="17.249" viewBox="0 0 17.249 17.249">
    <defs>
        <style>
            .cls-1{fill:#12203c}
        </style>
    </defs>
    <path id="Path_406" d="M8.624 1.207a7.417 7.417 0 1 1-7.417 7.417 7.417 7.417 0 0 1 7.417-7.417m0-1.207a8.624 8.624 0 1 0 8.624 8.624A8.624 8.624 0 0 0 8.624 0z" class="cls-1" data-name="Path 406"/>
    <path id="Path_407" d="M37.73 25a7.85 7.85 0 0 1 .912.15 2.082 2.082 0 0 1 1.535 1.972 1.794 1.794 0 0 1-.726 1.639c-.245.19-.5.362-.749.549a1.218 1.218 0 0 0-.549 1.087.69.69 0 0 1-.5.69.762.762 0 0 1-.893-.267.723.723 0 0 1-.1-.357 2.4 2.4 0 0 1 .983-2.011 7.167 7.167 0 0 0 .781-.69.862.862 0 0 0 .2-.485.746.746 0 0 0-.78-.835 1.508 1.508 0 0 0-1.483.659.723.723 0 0 1-.75.345.662.662 0 0 1-.528-.992 2.215 2.215 0 0 1 1.078-1.069A3.745 3.745 0 0 1 37.73 25z" class="cls-1" data-name="Path 407" transform="translate(-28.969 -20.688)"/>
    <path id="Path_408" d="M45.348 65.657a.79.79 0 0 1-.85.883.808.808 0 0 1-.907-.781c0-.643.288-.964.862-.981a.8.8 0 0 1 .895.879z" class="cls-1" data-name="Path 408" transform="translate(-36.071 -53.604)"/>
</svg>
