<?xml version="1.0" encoding="UTF-8"?>
<svg width="34px" height="56px" viewBox="0 0 34 56" version="1.1" xmlns="http://www.w3.org/2000/svg" xmlns:xlink="http://www.w3.org/1999/xlink">
    <!-- Generator: sketchtool 52.3 (67297) - http://www.bohemiancoding.com/sketch -->
    <title>9D4B86E3-C093-4404-AF0C-5040A48B2939</title>
    <desc>Created with sketchtool.</desc>
    <defs>
        <radialGradient cx="0%" cy="0%" fx="0%" fy="0%" r="471.0553%" gradientTransform="translate(0.000000,0.000000),scale(1.000000,0.599453),rotate(59.412167),translate(-0.000000,-0.000000)" id="radialGradient-1">
            <stop stop-color="#3B3B98" offset="0%"></stop>
            <stop stop-color="#3D3C99" offset="7.54820498%"></stop>
            <stop stop-color="#C86DD7" offset="100%"></stop>
        </radialGradient>
    </defs>
    <g id="Post-Login" stroke="none" stroke-width="1" fill="none" fill-rule="evenodd">
        <g id="APPLYING-FILTER" transform="translate(-828.000000, -434.000000)" fill="url(#radialGradient-1)" fill-rule="nonzero">
            <g id="loader" transform="translate(754.000000, 396.000000)">
                <g id="loading-circle">
                    <g id="Group-2" transform="translate(25.000000, 0.000000)">
                        <g id="hourglass2" transform="translate(49.000000, 38.000000)">
                            <path d="M30.43,17.4 C32.6590304,15.1829454 33.8715753,12.1425342 33.78,9 C33.5804353,3.94679499 29.4070137,-0.0363221318 24.35,-8.20077513e-14 L9.65,-8.20077513e-14 C4.59298629,-0.0363221318 0.419564686,3.94679499 0.22,9 C0.133991598,12.1356544 1.34610796,15.1677545 3.57,17.38 L11.22,25.03 C12.8436452,26.6576512 12.8436452,29.2923488 11.22,30.92 L3.57,38.6 C1.34096961,40.8170546 0.128424667,43.8574658 0.22,47 C0.419564686,52.053205 4.59298629,56.0363221 9.65,56 L24.35,56 C29.4070137,56.0363221 33.5804353,52.053205 33.78,47 C33.8660084,43.8643456 32.653892,40.8322455 30.43,38.62 L22.78,30.97 C21.1563548,29.3423488 21.1563548,26.7076512 22.78,25.08 L30.43,17.4 Z M9.43,44.1 L9.36,44.17 C8.96485816,44.5654405 8.42224859,44.7774554 7.86368747,44.754657 C7.30512635,44.7318586 6.78160027,44.476328 6.42,44.05 C5.74929153,43.2081028 5.83170613,41.993572 6.61,41.25 L6.67,41.19 C7.08587017,40.7900613 7.65419859,40.5892075 8.22901781,40.6390252 C8.80383704,40.6888429 9.32913644,40.9844777 9.67,41.45 C10.2332286,42.2839607 10.115079,43.4021624 9.39,44.1 L9.43,44.1 Z M16.43,37.1 L14,39.49 C13.6048582,39.8854405 13.0622486,40.0974554 12.5036875,40.074657 C11.9451263,40.0518586 11.4216003,39.796328 11.06,39.37 C10.3892915,38.5281028 10.4717061,37.313572 11.25,36.57 L13.58,34.24 C13.9958702,33.8400613 14.5641986,33.6392075 15.1390178,33.6890252 C15.713837,33.7388429 16.2391364,34.0344777 16.58,34.5 C17.1535159,35.324575 17.0523262,36.4418786 16.34,37.15 L16.43,37.1 Z M20.77,21.4 C18.689396,23.4763276 15.320604,23.4763276 13.24,21.4 L6.4,14.57 C5.03007241,13.207035 4.24765608,11.3622552 4.22,9.43 C4.21733898,7.98906034 4.78857206,6.60637195 5.807472,5.587472 C6.82637195,4.56857206 8.20906034,3.99733898 9.65,4 L24.35,4 C25.7909397,3.99733898 27.1736281,4.56857206 28.192528,5.587472 C29.2114279,6.60637195 29.782661,7.98906034 29.78,9.43 C29.7523439,11.3622552 28.9699276,13.207035 27.6,14.57 L20.77,21.4 Z" id="Shape"></path>
                        </g>
                    </g>
                </g>
            </g>
        </g>
    </g>
</svg>