<svg xmlns="http://www.w3.org/2000/svg" width="25" height="25" viewBox="0 0 25 25">
    <g fill="#6D6DC9" fillRule="nonzero">
        <path d="M4.77 13.308l.653-1c.039-.077.154-.116.23-.116.116 0 .193.039.232.116l.961 1.461.962-1.461c.038-.077.154-.116.23-.116.116 0 .193.039.231.116l.654 1v-2.885H4.77v2.885z"/>
        <path d="M11.538 10.423h-2v3.846a.303.303 0 0 1-.307.308c-.077 0-.193-.039-.231-.115L8.038 13l-.961 1.462c-.115.153-.385.153-.5 0L5.615 13l-.961 1.462c-.154.23-.539.115-.539-.154v-3.846H2.192a.303.303 0 0 0-.307.307v9c0 .154.115.308.307.308h9.346a.303.303 0 0 0 .308-.308v-9.077c-.038-.154-.154-.269-.308-.269zM15.654 13.27l.654-1.04c.038-.076.154-.115.23-.115.116 0 .193.039.231.116l.962 1.5.961-1.5c.039-.077.154-.116.231-.116.115 0 .192.039.23.116l.655 1.038v-2.846h-4.154v2.846z"/>
        <path d="M22.423 10.423h-2v3.846c0 .27-.385.385-.538.154l-.962-1.5-.961 1.5c-.116.154-.385.154-.5 0l-.924-1.5-.961 1.5c-.154.23-.539.115-.539-.154v-3.846h-1.961a.303.303 0 0 0-.308.308v9c0 .154.116.307.308.307h9.346a.303.303 0 0 0 .308-.307v-9.039c-.039-.154-.154-.269-.308-.269zM10.192 3.27l.654-.885c.039-.077.154-.116.23-.116.078 0 .193.039.232.116l.961 1.269.962-1.27c.038-.076.154-.115.23-.115.077 0 .193.039.231.116l.693.884v-3h-4.193v3z"/>
        <path d="M16.962.27h-2v3.845c0 .27-.347.385-.5.193l-.962-1.27-.962 1.27a.288.288 0 0 1-.461 0l-.962-1.27-.961 1.27c-.154.23-.539.115-.539-.193V.27h-2a.303.303 0 0 0-.307.308v9c0 .154.115.308.307.308h9.347a.303.303 0 0 0 .307-.308v-9a.303.303 0 0 0-.307-.308zM24.346 21.154H.308A.303.303 0 0 1 0 20.846c0-.154.115-.308.308-.308h24.038c.154 0 .308.116.308.308-.039.154-.154.308-.308.308z"/>
        <g>
            <path d="M23.308 21.73v2.308a.303.303 0 0 1-.308.308h-2.885a.303.303 0 0 1-.307-.308v-2.307h3.5zM4.77 21.73v2.347a.303.303 0 0 1-.308.308H1.577a.303.303 0 0 1-.308-.308V21.73h3.5zM14.038 21.73v2.347a.303.303 0 0 1-.307.308h-2.885a.303.303 0 0 1-.308-.308V21.73h3.5z"/>
        </g>
    </g>
</svg>
