<svg xmlns="http://www.w3.org/2000/svg" width="27" height="31" viewBox="0 0 27 31">
    <defs>
        <style>
            .cls-1{fill:#12203c}.cls-2{clip-path:url(#clip-path)}.cls-3{clip-path:url(#clip-path-2)}.cls-4{clip-path:url(#clip-path-3)}
        </style>
        <clipPath id="clip-path">
            <path id="Rectangle_66" d="M0 0h27v31H0z" class="cls-1" data-name="Rectangle 66" transform="translate(0 .348)"/>
        </clipPath>
        <clipPath id="clip-path-2">
            <path id="Path_205" d="M5.156-21.048h17.675a3.873 3.873 0 0 0 3.869-3.873v-13.344a3.873 3.873 0 0 0-3.838-3.873h-2.953v-5.387a.7.7 0 0 0-.106-.352L17.691-51.4a.7.7 0 0 0-.6-.333.7.7 0 0 0-.6.333l-2.113 3.521a.7.7 0 0 0-.106.352v5.317H8.431v-4.084a.7.7 0 0 0-.7-.7H5.156A4.683 4.683 0 0 0 .474-42.49v16.759a4.683 4.683 0 0 0 4.682 4.683zm10.528-11.971H18.5v1.056a1.408 1.408 0 0 1-1.408 1.408 1.408 1.408 0 0 1-1.408-1.408zm1.408-16.654l1.408 2.359v12.886h-2.816v-12.921zM14.276-40.8v8.837a2.817 2.817 0 0 0 2.817 2.817 2.817 2.817 0 0 0 2.817-2.817v-8.8h2.922a2.465 2.465 0 0 1 2.429 2.463v13.379a2.465 2.465 0 0 1-2.461 2.464H5.156a3.292 3.292 0 0 1-3.292-3.292 3.292 3.292 0 0 1 3.292-3.292h2.57a.7.7 0 0 0 .7-.7v-11.13zm-9.12-4.789h1.867v15.14H5.156a4.683 4.683 0 0 0-3.274 1.338v-13.168a3.274 3.274 0 0 1 .947-2.338 3.274 3.274 0 0 1 2.327-.972z" class="cls-1" data-name="Path 205" transform="translate(-.474 51.731)"/>
        </clipPath>
        <clipPath id="clip-path-3">
            <path id="Path_204" d="M0-21.079h26.759V-52H0z" class="cls-1" data-name="Path 204" transform="translate(0 52)"/>
        </clipPath>
    </defs>
    <g id="Group_1784" data-name="Group 1784" transform="translate(97 632.652)">
        <g id="Group_1921" data-name="Group 1921" transform="translate(-97 -633)">
            <g id="Group_216" data-name="Group 216">
                <g id="Group_215" class="cls-2" data-name="Group 215">
                    <g id="Group_214" class="cls-3" data-name="Group 214" transform="translate(.282 .315)">
                        <g id="Group_213" class="cls-4" data-name="Group 213" transform="translate(-.282 -.16)">
                            <path id="Path_203" d="M-4.526-56.731h32.177V-20.1H-4.526z" class="cls-1" data-name="Path 203" transform="translate(1.835 53.918)"/>
                        </g>
                    </g>
                </g>
            </g>
        </g>
    </g>
</svg>
