<svg xmlns="http://www.w3.org/2000/svg" width="22.884" height="27.567" viewBox="0 0 22.884 27.567">
    <g>
        <g>
            <path d="M62.735 2.092L59.913.466l-2.822 1.626L54.269.466l-2.822 1.626L47.817 0v21.677h-4.336v2.913a2.98 2.98 0 0 0 2.976 2.976h16.931a2.98 2.98 0 0 0 2.976-2.976V0zM46.457 25.95a1.361 1.361 0 0 1-1.36-1.36v-1.3h15.315v1.3a2.959 2.959 0 0 0 .329 1.36zm16.931 0a1.361 1.361 0 0 1-1.36-1.36v-2.913H49.434V2.8l2.014 1.16 2.822-1.626 2.822 1.626 2.822-1.626 2.822 1.626 2.012-1.16v21.79a1.362 1.362 0 0 1-1.36 1.36z" transform="translate(-43.481)"/>
        </g>
    </g>
    <g>
        <g>
            <path d="M0 0H12.082V1.616H0z" transform="translate(7.569 7.295)"/>
        </g>
    </g>
    <g>
        <g>
            <path d="M0 0H12.082V1.616H0z" transform="translate(7.569 10.377)"/>
        </g>
    </g>
    <g>
        <g>
            <path d="M0 0H6.041V1.616H0z" transform="translate(7.569 13.46)"/>
        </g>
    </g>
</svg>
