<svg xmlns="http://www.w3.org/2000/svg" width="18.769" height="18.769" viewBox="0 0 18.769 18.769">
    <defs>
        <style>
            .cls-1{fill:#9e03ff}
        </style>
    </defs>
    <g id="invoice" transform="translate(-1 -1)">
        <g id="Group_2000" data-name="Group 2000" transform="translate(1 1)">
            <path id="Path_400" d="M19.559 20.944A2.559 2.559 0 0 1 17 18.385V9.853A.853.853 0 0 1 17.853 9h3.413a.853.853 0 0 1 .853.853v8.532a2.559 2.559 0 0 1-2.56 2.559zm-.853-10.238v7.678a.853.853 0 1 0 1.706 0v-7.678z" class="cls-1" data-name="Path 400" transform="translate(-3.349 -2.175)"/>
            <path id="Path_401" d="M17.21 19.769H3.559A2.559 2.559 0 0 1 1 17.21V1.853a.855.855 0 0 1 1.365-.683l1.758 1.323 1.766-1.322a.853.853 0 0 1 1.024 0l1.765 1.322 1.758-1.322a.853.853 0 0 1 1.024 0l1.766 1.322 1.766-1.322a.853.853 0 0 1 1.365.683V17.21a.853.853 0 0 0 .853.853.853.853 0 1 1 0 1.706zM2.706 3.559V17.21a.853.853 0 0 0 .853.853H14.8a2.56 2.56 0 0 1-.145-.853V3.559l-.913.683a.853.853 0 0 1-1.024 0l-1.77-1.322-1.766 1.322a.853.853 0 0 1-1.024 0L6.4 2.92 4.634 4.242a.853.853 0 0 1-1.024 0z" class="cls-1" data-name="Path 401" transform="translate(-1 -1)"/>
            <path id="Path_402" d="M8.413 9.706h-2.56a.853.853 0 0 1 0-1.706h2.56a.853.853 0 0 1 0 1.706z" class="cls-1" data-name="Path 402" transform="translate(-1.587 -2.028)"/>
            <path id="Path_403" d="M12.678 13.706H5.853a.853.853 0 1 1 0-1.706h6.825a.853.853 0 1 1 0 1.706z" class="cls-1" data-name="Path 403" transform="translate(-1.587 -2.615)"/>
            <path id="Path_404" d="M12.678 17.706H5.853a.853.853 0 1 1 0-1.706h6.825a.853.853 0 1 1 0 1.706z" class="cls-1" data-name="Path 404" transform="translate(-1.587 -3.203)"/>
        </g>
    </g>
</svg>
