<svg xmlns="http://www.w3.org/2000/svg" width="20.469" height="21.271" viewBox="0 0 20.469 21.271">
    <defs>
        <style>
            .cls-1{fill:none;stroke:#eb0000;stroke-linecap:round;stroke-linejoin:round;stroke-width:2px}
        </style>
    </defs>
    <g id="logout" transform="translate(-1.492 17)">
        <g id="Group_1970" data-name="Group 1970" transform="translate(2.62 -16)">
            <g id="Group_1966" data-name="Group 1966" transform="translate(0 1.752)">
                <path id="Path_392" d="M4.036 0A9.847 9.847 0 0 0 .4 10.763a9.1 9.1 0 0 0 8.71 6.756 9.1 9.1 0 0 0 8.71-6.756A9.847 9.847 0 0 0 14.178 0" class="cls-1" data-name="Path 392"/>
            </g>
            <g id="Group_1967" data-name="Group 1967" transform="translate(9.107)">
                <path id="Path_393" d="M0 0v9.635" class="cls-1" data-name="Path 393"/>
            </g>
        </g>
    </g>
</svg>
