<svg xmlns="http://www.w3.org/2000/svg" width="23.288" height="17.213" viewBox="0 0 23.288 17.213">
    <g data-name="mail (4)">
        <g data-name="Group 2116">
            <path d="M22.276 48H1.013a1 1 0 0 0-.2.021 1.014 1.014 0 0 0-.813.992V64.2a1.014 1.014 0 0 0 .809.992 1 1 0 0 0 .2.021h21.267a1 1 0 0 0 .2-.021 1.014 1.014 0 0 0 .809-.992V49.013A1.014 1.014 0 0 0 22.276 48zM1.013 51.019l8.03 5.84-8.03 5.841zM22.276 64.2H1.013v-.248L9.9 57.486l1.444 1.049a.506.506 0 0 0 .6 0l1.444-1.049 8.89 6.466zm0-1.5l-8.03-5.841 8.03-5.84zm0-12.933L11.644 57.5 1.013 49.767v-.755h21.263z" data-name="Path 426" transform="translate(0 -48)"/>
        </g>
    </g>
</svg>
