<svg xmlns="http://www.w3.org/2000/svg" width="258" height="166" viewBox="0 0 258 166">
    <defs>
        <radialGradient id="a" cx="0%" cy="0%" r="444.837%" fx="0%" fy="0%" gradientTransform="scale(.64341 1) rotate(33.124)">
            <stop offset="0%" stop-color="#3B3B98"/>
            <stop offset="7.548%" stop-color="#3D3C99"/>
            <stop offset="100%" stop-color="#C86DD7"/>
        </radialGradient>
    </defs>
    <path fill="url(#a)" fillRule="evenodd" d="M25.56 0h206.88c3.993 0 7.987 4.01 7.987 8.02v131.516h3.195c19.17 0 19.17 26.464 0 26.464H14.378c-19.17 0-19.17-26.464 0-26.464h3.195V8.02C17.573 4.01 21.567 0 25.56 0zM129.4 19.246c11.98 0 22.365 6.416 22.365 24.058 0 17.643-3.994 39.295-22.366 39.295-19.17 0-22.365-21.652-22.365-39.295 0-17.642 9.585-24.058 22.365-24.058zM76.68 97.034l38.34-13.633-6.39 6.415 9.586 37.691v4.812H71.09l5.591-35.285zm104.638 0L143.777 83.4l5.591 6.415-9.585 37.691v4.812h47.127l-5.591-35.285zm-48.725 8.821l3.195-8.821-6.39-3.208-7.188 3.208 3.195 8.821v26.464h7.987l-.799-26.464zm-104.637 41.7h11.182v10.426H27.957v-10.425zm0-8.019h202.086V10.426H27.957v129.11z"/>
</svg>
