<svg xmlns="http://www.w3.org/2000/svg" width="39" height="39" viewBox="0 0 39 39">
    <defs>
        <filter id="prefix__Ellipse_27" width="39" height="39" x="0" y="0" filterUnits="userSpaceOnUse">
            <feOffset/>
            <feGaussianBlur result="blur" stdDeviation="3"/>
            <feFlood flood-color="#ebe7f5"/>
            <feComposite in2="blur" operator="in"/>
            <feComposite in="SourceGraphic"/>
        </filter>
    </defs>
    <g id="prefix__close_button" data-name="close button" transform="translate(-1348 -21)">
        <g transform="translate(1348 21)">
            <circle id="prefix__Ellipse_27-2" cx="10.5" cy="10.5" r="10.5" data-name="Ellipse 27" transform="translate(9 9)" style="fill:#fff"/>
        </g>
        <path id="prefix__iconmonstr-resize-5" d="M8.894 0v4.076L7.641 2.824 6.019 4.447 4.447 2.875l1.622-1.623L4.817 0h4.077zm-4.4 5.98L2.921 4.408 1.252 6.069 0 4.818v4.076h4.076L2.824 7.641z" transform="translate(1362.712 36.395)" style="fill:#5677b1"/>
    </g>
</svg>
