<svg xmlns="http://www.w3.org/2000/svg" width="13.477" height="14.702" viewBox="0 0 13.477 14.702">
    <path id="iconmonstr-download-19" fill="#b4c5d6" d="M7.739 12.864l-4.9-5.513h3.674V0h2.45v7.351h3.676zm5.513-.613v1.225H2.225v-1.224H1V14.7h13.477v-2.45z" transform="translate(-1)"/>
</svg>
