<svg xmlns="http://www.w3.org/2000/svg" id="prefix__business-and-finance_1_" width="25.667" height="25.667" data-name="business-and-finance (1)" viewBox="0 0 25.667 25.667">
    <defs>
        <style>
            .prefix__cls-3{fill:#7d0}.prefix__cls-5{fill:#fff}
        </style>
    </defs>
    <g id="prefix__Layer_2">
        <path id="prefix__Path_811" fill="#eeffdb" d="M20.854 25.667H4.813A4.812 4.812 0 0 1 0 20.854V4.813A4.812 4.812 0 0 1 4.813 0h16.041a4.812 4.812 0 0 1 4.813 4.813v16.041a4.812 4.812 0 0 1-4.813 4.813z" data-name="Path 811"/>
    </g>
    <g id="prefix__bold_1_" transform="translate(8.201 7.201)">
        <g id="prefix__Group_2786" data-name="Group 2786" transform="translate(-2.186 -2.186)">
            <path id="prefix__Path_812" fill="#509101" d="M18.831 8h-8.583A2.247 2.247 0 0 0 8 10.248v12.67a2.247 2.247 0 0 0 2.248 2.249H16.7l.163-.941a1.868 1.868 0 0 1 .506-.972l3.712-3.712v-9.294A2.245 2.245 0 0 0 18.831 8zm-1.021 8.379a.614.614 0 0 1-.379.567.6.6 0 0 1-.234.047.618.618 0 0 1-.434-.179l-.645-.646-1.161 1.072a.613.613 0 0 1-.72.082l-1.024-.585-1.713 1.71a.613.613 0 0 1-.868-.867l2.044-2.044a.613.613 0 0 1 .738-.1l1.041.595.795-.735-.53-.528a.614.614 0 0 1 .434-1.047H17.2a.613.613 0 0 1 .613.613z" data-name="Path 812" transform="translate(-9.021 -9.653)"/>
            <path id="prefix__Path_813" d="M23.945 16.941l-.855-.855a1.055 1.055 0 0 0-1.588.122l-5.133 5.132a.527.527 0 0 0-.144.277l-.367 2.078a.513.513 0 0 0 .142.455.523.523 0 0 0 .367.151.661.661 0 0 0 .09-.007l2.077-.367a.512.512 0 0 0 .277-.144l5.132-5.132a1.211 1.211 0 0 0 .002-1.71z" class="prefix__cls-3" data-name="Path 813" transform="translate(-6.712 -6.714)"/>
            <g id="prefix__plus_1_" data-name="plus (1)" transform="translate(.633 2.136)">
                <path id="prefix__Path_817" d="M4.864 0a4.864 4.864 0 1 0 4.864 4.864A4.881 4.881 0 0 0 4.864 0z" class="prefix__cls-3" data-name="Path 817"/>
                <path id="prefix__Path_818" fill="#6b0" d="M260.864 4.864A4.881 4.881 0 0 1 256 9.728V0a4.881 4.881 0 0 1 4.864 4.864z" data-name="Path 818" transform="translate(-251.136)"/>
                <path id="prefix__Path_819" d="M111.7 108.28v1.14h-2.28v2.28h-1.14v-2.28H106v-1.14h2.28V106h1.14v2.28z" class="prefix__cls-5" data-name="Path 819" transform="translate(-103.986 -103.986)"/>
                <path id="prefix__Path_820" d="M258.85 108.28v1.14h-2.28v2.28H256V106h.57v2.28z" class="prefix__cls-5" data-name="Path 820" transform="translate(-251.136 -103.986)"/>
            </g>
        </g>
    </g>
</svg>
