<svg xmlns="http://www.w3.org/2000/svg" width="19" height="12" viewBox="0 0 19 12">
    <path fill="#000" fill-rule="nonzero" d="M18.318 6a.678.678 0 0 0-.161-.398L13.585.68a.567.567 0 0 0-.808-.023c-.222.203-.228.599-.022.819l3.67 3.944H1.175A.575.575 0 0 0 .604 6c0 .32.255.579.57.579h15.25l-3.67 3.944c-.205.22-.19.606.023.819a.567.567 0 0 0 .808-.023l4.572-4.921a.518.518 0 0 0 .16-.398z" opacity="0.15" />
</svg>
