<svg xmlns="http://www.w3.org/2000/svg" width="15.679" height="8.839" viewBox="0 0 15.679 8.839">
    <defs>
        <style>
            .cls-1{fill:none;stroke:#12203c;stroke-linecap:round;stroke-linejoin:round;stroke-width:2px}
        </style>
    </defs>
    <path id="Path_413" d="M0 0l6.425 6.425L12.85 0" class="cls-1" data-name="Path 413" transform="translate(1.414 1.414)"/>
</svg>
