<svg xmlns="http://www.w3.org/2000/svg" width="160.184" height="125.338" viewBox="0 0 160.184 125.338">
    <defs>
        <linearGradient id="linear-gradient" x2="1" y1=".5" y2=".5" gradientUnits="objectBoundingBox">
            <stop offset="0" stop-color="gray" stop-opacity=".251"/>
            <stop offset=".54" stop-color="gray" stop-opacity=".122"/>
            <stop offset="1" stop-color="gray" stop-opacity=".102"/>
        </linearGradient>
        <style>
            .cls-1,.cls-10{fill:#6c63ff}.cls-1,.cls-12,.cls-4,.cls-7{opacity:.1}.cls-3{fill:#efb7b9}.cls-5{fill:#dce6f2}.cls-6{fill:#965d7b}.cls-8{fill:#444053}.cls-9{fill:#a36468}.cls-11{opacity:.05}.cls-12{fill:#fff}
        </style>
    </defs>
    <g id="undraw_empty_xct9" transform="translate(.004 -.003)">
        <ellipse id="Ellipse_239" cx="27.942" cy="5.293" class="cls-1" rx="27.942" ry="5.293" transform="translate(28.245 112.327)"/>
        <path id="Path_1265" d="M188.294 72.709c-10.269-.355-20.05-3.672-29.389-7.3s-18.59-7.645-28.613-9.566c-6.447-1.236-13.82-1.412-19.013 2.041-5 3.332-6.615 9.068-7.483 14.395-.654 4.008-1.038 8.227.752 11.98 1.244 2.605 3.449 4.795 4.976 7.291 5.311 8.682 1.557 19.389-4.2 27.867-2.7 3.976-5.831 7.775-7.914 12s-3.046 9.09-1.223 13.416c1.806 4.284 6.11 7.5 10.774 9.757 9.471 4.594 20.627 5.907 31.513 6.653 24.091 1.647 48.309.935 72.463.219 8.939-.263 17.917-.532 26.711-1.914 4.884-.768 9.925-1.987 13.471-4.928a11.28 11.28 0 0 0 2.6-14.736c-5.058-7.854-19.04-9.8-22.58-18.231-1.945-4.64.052-9.806 2.881-14.107 6.068-9.23 16.237-17.327 16.771-27.875.368-7.245-4.521-14.5-12.08-17.93-7.922-3.594-18.91-3.142-24.753 2.807-6.019 6.12-16.596 8.476-25.664 8.161z" class="cls-1" transform="translate(-95.23 -55.03)"/>
        <path id="Path_1266" fill="url(#linear-gradient)" d="M367.636 193.291l-4.86-3.277 2.451-3.649-12.836-1.023-4.612 3.567-5.779-3.237-4.816.579-.057-1.269a35.818 35.818 0 0 0-.4-3.951c.021-.4.035-.852.033-1.347 0-2.087-.282-4.852-1.523-6.7l.286-2.567-2.317-2.737a17.5 17.5 0 0 1 1.269-2.136c.079-.114.159-.225.244-.333a5.761 5.761 0 0 0 5.381-5.711 3.655 3.655 0 0 0-.016-.417 1.51 1.51 0 0 0-.017-.168c.294.159.59.317.887.476.056.079.119.159.189.252l.014.017.089.109.029.033c.032.038.065.075.1.113l.022.025c.084.094.173.189.268.282a.288.288 0 0 1 .032.03l.119.111.033.03c.1.09.209.178.317.26l.035.025.136.094.044.029c.052.032.106.065.159.1l.019.011c.062.033.125.065.189.1l.032.013.159.067.049.017c.055.019.109.036.167.052l.035.01c.07.017.14.032.211.043h.008a1.724 1.724 0 0 0 .2.021h.046a1.742 1.742 0 0 0 .182 0h.04a1.876 1.876 0 0 0 .227-.027 2.5 2.5 0 0 0 1-.359.872.872 0 0 0 .2-.189.748.748 0 0 0-.032-.871c-.124-.3-.927-.5-.927-.5s-2.539-1.06-2.539-1.9-.635-5.223-7.186-6.225c0 0-4.262-.24-5.46 2.042l-.025.267c-.352.221-.644.663-.992.793a1.62 1.62 0 0 0-.43.159v-.03a.41.41 0 0 0-.1.125 1.27 1.27 0 0 0-.132.476 1.794 1.794 0 0 1-.208.576 1.286 1.286 0 0 1-.1.146l-.027.043a1.159 1.159 0 0 0 .539-.087 2.681 2.681 0 0 1-.159.635.527.527 0 0 0 .489-.292v-.013l.021-.029a1.34 1.34 0 0 0 .1-.23l-.017.019c.032-.1.06-.208.1-.309a.484.484 0 0 1 .078-.159.384.384 0 0 1 .328-.109l-.065 1.376h.029a1.877 1.877 0 0 1-.14.289c-.225.365-.635.614-.785 1.014a1.492 1.492 0 0 0-.073.6c0 .119.014.24.024.359v-.01a1.338 1.338 0 0 1-.143.874c-.117.175-.306.306-.371.5a.493.493 0 0 0-.024.171 1.925 1.925 0 0 0 .108.509.021.021 0 0 0 0-.01.774.774 0 0 1 .027.374c-.071.317-.457.582-.438.885a.341.341 0 0 0 .017.117.643.643 0 0 0 .359.317 1.4 1.4 0 0 0 .806.178 1.061 1.061 0 0 0 .3-.1c-.111.255-.225.508-.341.747-.017.038-.036.076-.056.114 0 0-.981-.655-1.537.681a2.965 2.965 0 0 0-.344.895 2.126 2.126 0 0 1-.117.368 2.369 2.369 0 0 1-1.06.952c-1.136.52-5.725 6.244-5.806 7.726a8.653 8.653 0 0 1-.292 1.71 10.177 10.177 0 0 0-.273 4.044 7.734 7.734 0 0 0 .281 1.29 28.9 28.9 0 0 1 .812 4.243l.527 4.795a13.65 13.65 0 0 0 .086 1.982c-.538.614-2.7 3.173-1.872 3.87a3.045 3.045 0 0 0 2.369.346 20.161 20.161 0 0 0-1.461 5.111c-.159 2.3.271 5.338.952 6.505s2.95 4.163 2.95 4.163-.106 4.11.7 5.6a16.333 16.333 0 0 1 1.138 4.59s.757 2.615.378 3.576.7 1.761-.433 2.4-2.59 15.051-2.59 15.051-.585 9.446 0 9.926a.6.6 0 0 0 .1.059v3.173s-.406.666 1.246.8c1.131.09 4.338.3 6.241.414l1.474.092s3.491.695 5.033 0 4.276-.679 3.87-2.515a5.221 5.221 0 0 0-.216-.735c-.446-1.139-1.2-1.269-2.6-1.587-.081-.017-.159-.033-.23-.046-1.469-.255-1.952.428-2.775-.462a12.716 12.716 0 0 0-3.77-1.9c.019-.057.043-.113.062-.171a1.161 1.161 0 0 1-.589-.287l2.1.133 1.252.078s2.967.592 4.284 0 3.634-.576 3.288-2.136a4.479 4.479 0 0 0-.182-.625c-.379-.968-1.023-1.074-2.209-1.342-.068-.014-.132-.029-.2-.04-1.249-.217-1.658.363-2.358-.392a10.849 10.849 0 0 0-3.173-1.612c0-.352-.476-.854-.776-1.357-.352-.587.3-2.642.3-2.642l.371-8.525a1.646 1.646 0 0 1 .444-.127s1.679-1.6 1.3-3.31a10.963 10.963 0 0 1-.121-1.56 8.013 8.013 0 0 0 1.528-1.736c.352-.76 0-4.443 0-4.443v-14.086l2.808.284 2.548.262.776.079 2.548.257 5.857.592 5.277-1 2.283-.432 4.7-.889v-11.487zm-38.654-38.067l-.327-.035c.108.006.222.026.327.036z" transform="translate(-282.732 -135.891)"/>
        <path id="Path_1267" d="M493.306 433.3c-1.587 2.271-7.291 1.068-7.291 1.068l-4.415-4.138-.6-.56 1-2.12s.317.087.862.243c2.855.83 11.784 3.597 10.444 5.507z" class="cls-3" transform="translate(-419.793 -368.439)"/>
        <path id="Path_1268" d="M482.856 427.793a9.308 9.308 0 0 1-1.261 2.437l-.6-.56 1-2.12s.324.087.861.243z" class="cls-4" transform="translate(-419.793 -368.439)"/>
        <path id="Path_1269" d="M376.567 278.066a6.782 6.782 0 0 0-3.875 6.245 73.163 73.163 0 0 0 .933 8.53s-.833 6.678 2.635 8.4 6.678 3.137 6.678 3.137 5.427.584 6.1.825 2.781-3.446 2.393-4.021-5.369-1.779-6-2.737a5.3 5.3 0 0 0-2.1-1.55s-1.515-.917-1.618-1.745a3.768 3.768 0 0 1 .4-1.809c.1-.363.359-3.872.359-3.872s1.703-12.486-5.905-11.403z" class="cls-5" transform="translate(-328.665 -242.618)"/>
        <path id="Path_1270" d="M387.133 370.39s-5.59.936-5.049 2.893a11.851 11.851 0 0 1 5.049-2.893z" class="cls-4" transform="translate(-336.542 -320.349)"/>
        <path id="Path_1271" d="M400.849 375.38s-3.073 2.509-2.472 2.637 2.472-2.637 2.472-2.637z" class="cls-4" transform="translate(-350.214 -324.547)"/>
        <path id="Path_1272" d="M421.125 380.89s-.823 1.687-.317 1.572.317-1.572.317-1.572z" class="cls-4" transform="translate(-369.013 -329.183)"/>
        <path id="Path_1273" d="M393.02 303.093l-.34-.1a.97.97 0 0 0 .044-.693c-.389-.574-5.366-1.777-6-2.737a5.27 5.27 0 0 0-2.1-1.55s-1.515-.917-1.618-1.745a3.767 3.767 0 0 1 .4-1.809c.1-.363.359-3.873.359-3.873s1.706-12.486-5.9-11.4a6.788 6.788 0 0 0-3.876 6.247 72.972 72.972 0 0 0 .935 8.53s-.833 6.678 2.635 8.4 6.678 3.137 6.678 3.137 5.425.582 6.1.825c.255.092.717-.382 1.169-1.035l.257.24 4.421 4.135s5.7 1.2 7.291-1.066c1.336-1.91-7.591-4.677-10.455-5.506z" class="cls-4" transform="translate(-329.751 -243.561)"/>
        <path id="Path_1274" d="M377.305 168.6a1.349 1.349 0 0 0-.44.17c-.159.132-.159.357-.2.554a1.822 1.822 0 0 1-.317.758 1.141 1.141 0 0 0 .528-.087 2.719 2.719 0 0 1-.159.635.514.514 0 0 0 .476-.29 3.058 3.058 0 0 0 .2-.557.459.459 0 0 1 .076-.159c.146-.173.417-.1.643-.073a1.055 1.055 0 0 0 .965-.463c.24-.363.254-1.293-.317-1.392-.596-.096-.968.724-1.455.904z" class="cls-6" transform="translate(-331.748 -149.81)"/>
        <g id="Group_3143" class="cls-7" transform="translate(44.626 18.919)">
            <path id="Path_1275" d="M378.171 174.486c.014-.078.024-.159.041-.236a.931.931 0 0 0-.2.554 1.745 1.745 0 0 1-.094.335 1.82 1.82 0 0 0 .253-.653z" transform="translate(-377.695 -174.25)"/>
            <path id="Path_1276" d="M377.027 180.635a2.641 2.641 0 0 0 .159-.635 1.136 1.136 0 0 1-.5.087 1.837 1.837 0 0 1-.182.317 1.13 1.13 0 0 0 .527-.086 2.635 2.635 0 0 1-.159.635.516.516 0 0 0 .476-.29 1.181 1.181 0 0 0 .1-.227.476.476 0 0 1-.421.199z" transform="translate(-376.5 -179.088)"/>
            <path id="Path_1277" d="M384.578 175.139c-.225-.022-.5-.1-.644.073a.491.491 0 0 0-.076.159c-.014.041-.027.084-.038.127.151-.119.4-.056.6-.035a1.06 1.06 0 0 0 .965-.463.877.877 0 0 0 .106-.249 1.057 1.057 0 0 1-.913.388z" transform="translate(-382.659 -174.671)"/>
        </g>
        <path id="Path_1278" d="M312.89 201l2.42 2.91-.316 2.937-2.924-4.578z" class="cls-5" transform="translate(-262.557 -169.104)"/>
        <path id="Path_1279" d="M315.308 203.91l-.3 2.762-.019.175-2.639-4.132-.284-.446.082-.129.736-1.141.163.2z" class="cls-4" transform="translate(-262.557 -169.104)"/>
        <path id="Path_1280" d="M382.483 208.526a4.851 4.851 0 0 0-2.282 2.02 17.236 17.236 0 0 0-1.231 2.117c-.224.447-.42.877-.584 1.252l-.114.267c-.276.652-.43 1.089-.43 1.089s-6.267-4.713-5.276-5.03c.333-.106.771-.82 1.2-1.72l.054-.114c.275-.578.544-1.222.784-1.828.49-1.246.854-2.328.854-2.328s9.524 3.561 7.025 4.275z" class="cls-3" transform="translate(-328.475 -180.57)"/>
        <path id="Path_1281" d="M459.26 202.58s1.447 2.618 3.391 2.261 1.144-1.406 1.144-1.406z" class="cls-8" transform="translate(-401.503 -179.165)"/>
        <path id="Path_1282" d="M379.786 740.969c-1.282.586-4.181 0-4.181 0l-1.222-.076c-1.587-.1-4.243-.273-5.182-.349-1.371-.113-1.035-.674-1.035-.674v-3.394l6.651-1.685a11.987 11.987 0 0 1 3.35 1.685c.684.749 1.084.173 2.3.389.06.011.124.024.19.04 1.158.265 1.787.37 2.158 1.33a4.461 4.461 0 0 1 .179.619c.348 1.546-1.927 1.532-3.208 2.115z" class="cls-9" transform="translate(-324.833 -626.93)"/>
        <path id="Path_1283" d="M382.82 749.229a4.982 4.982 0 0 1-.749.384c-.873.4-1.7.884-2.585 1.26a6.046 6.046 0 0 1-2.788.573 4.157 4.157 0 0 0-1.488-.016 3.441 3.441 0 0 0-.827.459c-1.587-.1-4.243-.273-5.182-.349-1.371-.113-1.035-.674-1.035-.674v-.4c.049 0 .1-.014.168-.019a2.993 2.993 0 0 1 .968.144c.689.187 1.374.371 2.063.555a1.63 1.63 0 0 1 .793-1.012 2.529 2.529 0 0 1 1.279-.294c1.068.014 2.079.521 3.145.571a1.734 1.734 0 0 0 .871-.146c.146-.073.274-.179.417-.26a3.045 3.045 0 0 1 .719-.243 15.831 15.831 0 0 0 2.055-.663c.19-.075.413-.209.387-.413-.033-.27-.457-.3-.568-.549a.317.317 0 0 1 .013-.281c.06.011.124.024.19.04 1.154.269 1.783.373 2.154 1.333z" class="cls-4" transform="translate(-324.833 -637.926)"/>
        <path id="Path_1284" d="M360.341 781.972c-1.507.689-4.919 0-4.919 0l-1.436-.084c-1.86-.119-4.992-.317-6.1-.411-1.614-.133-1.217-.793-1.217-.793v-4l7.831-1.984s3.094 1.058 3.941 1.983c.8.881 1.269.2 2.712.457.071.013.146.028.224.046 1.363.317 2.1.436 2.539 1.566a5.092 5.092 0 0 1 .211.728c.392 1.82-2.279 1.805-3.786 2.492z" class="cls-9" transform="translate(-306.742 -660.507)"/>
        <path id="Path_1285" d="M363.911 791.734a5.917 5.917 0 0 1-.881.452c-1.027.468-2 1.039-3.042 1.482a7.131 7.131 0 0 1-3.281.674 4.787 4.787 0 0 0-1.745-.019 4.045 4.045 0 0 0-.976.546c-1.86-.119-4.992-.317-6.1-.411-1.614-.133-1.217-.793-1.217-.793v-.465q.1-.016.2-.022a3.486 3.486 0 0 1 1.139.17l2.426.654a1.921 1.921 0 0 1 .941-1.192 2.961 2.961 0 0 1 1.506-.346c1.257.018 2.445.612 3.7.673a2.049 2.049 0 0 0 1.022-.17c.173-.087.317-.213.492-.306a3.455 3.455 0 0 1 .846-.286 18.985 18.985 0 0 0 2.405-.781c.224-.089.486-.247.455-.485-.04-.317-.538-.355-.67-.647a.382.382 0 0 1 .016-.33c.071.013.146.028.224.046 1.364.303 2.104.422 2.54 1.556z" class="cls-4" transform="translate(-306.742 -673.489)"/>
        <path id="Path_1286" d="M383.98 647.54l-.424 9.969s-.635 2.036-.29 2.618.925 1.163.714 1.507-2.75 4.067-3.57 2.639-1.63-7.616-1.63-7.616l.757-7.643z" class="cls-8" transform="translate(-333.793 -553.524)"/>
        <path id="Path_1287" d="M410.51 491l1.177 1.574v13.69s.344 3.649 0 4.4a11.817 11.817 0 0 1-2.09 2.261l-1.468-7.537.317-7.973z" class="cls-8" transform="translate(-358.486 -421.822)"/>
        <path id="Path_1288" d="M383.98 647.54l-.424 9.969s-.635 2.036-.29 2.618.925 1.163.714 1.507-2.75 4.067-3.57 2.639-1.63-7.616-1.63-7.616l.757-7.643z" class="cls-4" transform="translate(-333.793 -553.524)"/>
        <path id="Path_1289" d="M410.51 491l1.177 1.574v13.69s.344 3.649 0 4.4a11.817 11.817 0 0 1-2.09 2.261l-1.468-7.537.317-7.973z" class="cls-4" transform="translate(-358.486 -421.822)"/>
        <path id="Path_1290" d="M343.431 434.008v7.405l-1.322 5.765s-.424 13.911-.054 15.6-1.269 3.28-1.269 3.28-.952.106-.952.846-1.587 2.856-1.587 2.856l.052 4.125s.689 7.722-.37 9.2.37 1.693.37 1.693c-1.322 4.336-7.669 3.332-8.241 2.856s0-9.838 0-9.838 1.419-14.28 2.529-14.915.054-1.428.424-2.38-.37-3.543-.37-3.543a16.328 16.328 0 0 0-1.111-4.549c-.793-1.48-.689-5.553-.689-5.553s-2.221-2.962-2.881-4.125a14.628 14.628 0 0 1-.927-6.453 20.275 20.275 0 0 1 1.428-5.065c.246-.617.424-1.017.424-1.017l.151.04 8.667 2.269z" class="cls-8" transform="translate(-290.229 -370.669)"/>
        <path id="Path_1291" d="M393.866 208.467a4.851 4.851 0 0 0-2.282 2.02h-.178a5.668 5.668 0 0 1-4.919-2.845 5.584 5.584 0 0 1-.5-1.134c.49-1.246.854-2.328.854-2.328s9.524 3.573 7.025 4.287z" class="cls-4" transform="translate(-339.859 -180.512)"/>
        <path id="Path_1292" d="M395.725 176.1a5.672 5.672 0 1 1-10.612-2.78 5.546 5.546 0 0 1 .6-.866 5.741 5.741 0 0 1 1.3-1.146 5.672 5.672 0 0 1 8.7 4.376c.007.14.012.278.012.416z" class="cls-3" transform="translate(-338.504 -152.111)"/>
        <path id="Path_1293" d="M380.929 240.173l-.019.175-2.639-4.125c-.276.652-.43 1.088-.43 1.088s-6.267-4.719-5.276-5.036c.333-.106.771-.82 1.2-1.72l.054-.114c.46 1.371 3.134 4.111 4.246 5.209.129.127.235.232.317.308l.17.159.089.089c.41.416 2.117 2.256 2.288 3.967z" class="cls-4" transform="translate(-328.475 -202.605)"/>
        <path id="Path_1294" d="M339.175 253.926l-.289 9.293-.051 1.655s-3.421-.317-6.613-.666a43.069 43.069 0 0 1-5.366-.762 10.1 10.1 0 0 0-2.3-.506c-.622-.084-1.111-.129-1.111-.129s-.182.054-.463.1a2.943 2.943 0 0 1-2.315-.343c-.8-.7 1.3-3.227 1.829-3.835l.116-.132-.2-1.833-.516-4.752a28.992 28.992 0 0 0-.793-4.2 7.757 7.757 0 0 1-.275-1.277 10.231 10.231 0 0 1 .267-4.008 8.742 8.742 0 0 0 .286-1.7c.079-1.468 4.562-7.14 5.672-7.656a2.355 2.355 0 0 0 1.136-1.133 2.164 2.164 0 0 0 .173-.493c.476-2.063 1.68-1.244 1.68-1.244.29 1.614 4.786 5.885 4.786 5.885l.089.089c.446.457 2.432 2.6 2.291 4.433a5.373 5.373 0 0 0 .3 2.006 33.916 33.916 0 0 1 1.563 8.886z" class="cls-5" transform="translate(-284.749 -202.36)"/>
        <path id="Path_1295" d="M387.081 310.45s-1.111 2.7-1.944 3.134 2.341.916 1.944-3.134z" class="cls-4" transform="translate(-339.024 -269.92)"/>
        <path id="Path_1296" d="M389.919 342.2s-2.539.317-2.539.793 2.539-.793 2.539-.793z" class="cls-4" transform="translate(-341.028 -296.632)"/>
        <path id="Path_1297" d="M394.444 361.7s-3.689 7.854-4.72 8.092 4.72-8.092 4.72-8.092z" class="cls-4" transform="translate(-342.896 -313.038)"/>
        <path id="Path_1298" d="M374.734 238.234l-3.051 1.327L368 234a2.166 2.166 0 0 0 .173-.493c.476-2.063 1.68-1.244 1.68-1.244.29 1.614 4.786 5.885 4.786 5.885z" class="cls-4" transform="translate(-324.723 -204.001)"/>
        <path id="Path_1299" d="M375.734 236.234l-3.051 1.326L369 232a2.164 2.164 0 0 0 .173-.493c.476-2.063 1.68-1.244 1.68-1.244.29 1.614 4.785 5.885 4.785 5.885z" class="cls-5" transform="translate(-325.564 -202.318)"/>
        <path id="Path_1300" d="M347.578 316.77s-3.421-.317-6.613-.666l5.728 1.5v1.745c-.251.227-.468.344-.609.284-.66-.278-6.047-1.15-6.047-1.15s-3.129-1.587-6.505-3.491a2.616 2.616 0 0 1-.238-.149 3.752 3.752 0 0 1-1-1 7.106 7.106 0 0 1-1.06-3.2 13.843 13.843 0 0 1-.082-1.964 16.1 16.1 0 0 1 .2-2.22 72.979 72.979 0 0 1-.476-8.568 6.786 6.786 0 0 1 4.2-6.029c7.656-.674 5.282 11.7 5.282 11.7s-.443 3.491-.563 3.848a3.767 3.767 0 0 0-.5 1.785c.059.833 1.522 1.829 1.522 1.829a5.342 5.342 0 0 1 2.017 1.661c.428.732 3.211 1.723 4.784 2.431z" class="cls-4" transform="translate(-293.491 -254.256)"/>
        <path id="Path_1301" d="M395.1 168.662a1.8 1.8 0 0 1-.159.758 4.7 4.7 0 0 1-.282.565 2.6 2.6 0 0 1-.7.863 3.556 3.556 0 0 1-1.269.441 1.837 1.837 0 0 0-1.147.651 2.275 2.275 0 0 0-.268.777 1.672 1.672 0 0 1-.317.752.624.624 0 0 1-.743.178.75.75 0 0 1-.287-.37 5.3 5.3 0 0 1-.3-1.3 2.764 2.764 0 0 0-.446-1.246 1.115 1.115 0 0 0-1.171-.449 1.128 1.128 0 0 0-.635.616 3.529 3.529 0 0 0-.24.876q-.3 1.615-.7 3.211a.3.3 0 0 1-.052.121.228.228 0 0 1-.159.067c-.355.048-.7-.2-1.055-.175a.606.606 0 0 0-.109.017 5.669 5.669 0 0 1 .573-6.474l.029-.008a1.711 1.711 0 0 0 .635-.4 6.694 6.694 0 0 0 .635-.735l.127-.159a7.237 7.237 0 0 1 1.238-1.176 1.269 1.269 0 0 1 .422-.228 1.25 1.25 0 0 1 .4-.013 10.087 10.087 0 0 0 1.652.062 10.591 10.591 0 0 1 1.16-.117 3.571 3.571 0 0 1 2.5 1.515 2.347 2.347 0 0 1 .668 1.38z" class="cls-4" transform="translate(-338.444 -148.196)"/>
        <path id="Path_1302" d="M375.649 168.74c-.221.362-.619.608-.768 1-.219.576.151 1.293-.189 1.807-.113.173-.3.3-.362.5-.108.335.187.692.111 1.036s-.53.635-.409.971a.635.635 0 0 0 .349.317 1.365 1.365 0 0 0 .793.176c.433-.071.755-.5 1.195-.528.357-.025.7.222 1.054.176a.238.238 0 0 0 .159-.068.275.275 0 0 0 .052-.121q.4-1.595.7-3.212a3.459 3.459 0 0 1 .238-.876 1.138 1.138 0 0 1 .635-.616 1.119 1.119 0 0 1 1.171.449 2.748 2.748 0 0 1 .447 1.246 5.375 5.375 0 0 0 .3 1.3.759.759 0 0 0 .289.371.621.621 0 0 0 .741-.178 1.655 1.655 0 0 0 .317-.754 2.266 2.266 0 0 1 .268-.776 1.841 1.841 0 0 1 1.147-.651 3.59 3.59 0 0 0 1.269-.443 2.611 2.611 0 0 0 .7-.862 2.537 2.537 0 0 0 .435-1.325 2.432 2.432 0 0 0-.651-1.372 3.566 3.566 0 0 0-2.5-1.514 9.866 9.866 0 0 0-1.16.117 9.928 9.928 0 0 1-1.652-.063 1.3 1.3 0 0 0-.4.014 1.2 1.2 0 0 0-.42.228 7.24 7.24 0 0 0-1.239 1.174 9.094 9.094 0 0 1-.765.889 1.722 1.722 0 0 1-.635.4c-.159.044-.317.013-.468.062-.472.156-.534.767-.752 1.126z" class="cls-6" transform="translate(-329.781 -147.38)"/>
        <path id="Path_1303" d="M462.651 204.839c-1.269.233-2.321-.793-2.9-1.542a6.221 6.221 0 0 1-.487-.717l4.357.822.176.033s.797 1.049-1.146 1.404z" class="cls-4" transform="translate(-401.503 -179.165)"/>
        <g id="Group_3144" class="cls-7" transform="translate(44.223 20.149)">
            <path id="Path_1304" d="M376 210.939a1.32 1.32 0 0 0-.092-.609c0 .016-.014.032-.019.048a1.181 1.181 0 0 0 .082.654.476.476 0 0 0 .029-.093z" transform="translate(-375.566 -205.835)"/>
            <path id="Path_1305" d="M379.048 197.8a3.527 3.527 0 0 0 .013.658 3.534 3.534 0 0 0-.013-.658z" transform="translate(-378.233 -195.293)"/>
            <path id="Path_1306" d="M385.8 183.023a2.6 2.6 0 0 1-.695.863 3.545 3.545 0 0 1-1.269.441 1.832 1.832 0 0 0-1.147.651 2.286 2.286 0 0 0-.268.777 1.661 1.661 0 0 1-.317.754.619.619 0 0 1-.741.178.758.758 0 0 1-.289-.371 5.281 5.281 0 0 1-.3-1.3 2.742 2.742 0 0 0-.447-1.246 1.115 1.115 0 0 0-1.171-.449 1.133 1.133 0 0 0-.635.616 3.456 3.456 0 0 0-.238.876q-.3 1.617-.7 3.211a.274.274 0 0 1-.052.121.238.238 0 0 1-.159.068c-.355.046-.7-.2-1.054-.176-.44.032-.762.457-1.195.527a1.341 1.341 0 0 1-.793-.176.849.849 0 0 1-.29-.206.428.428 0 0 0-.059.37.619.619 0 0 0 .349.317 1.341 1.341 0 0 0 .793.176c.433-.07.755-.5 1.195-.527.357-.025.7.222 1.054.176a.238.238 0 0 0 .159-.068.274.274 0 0 0 .052-.121q.4-1.587.7-3.211a3.461 3.461 0 0 1 .238-.876 1.133 1.133 0 0 1 .635-.616 1.116 1.116 0 0 1 1.171.449 2.749 2.749 0 0 1 .447 1.246 5.373 5.373 0 0 0 .3 1.3.758.758 0 0 0 .289.371.621.621 0 0 0 .741-.178 1.661 1.661 0 0 0 .317-.754 2.286 2.286 0 0 1 .268-.777 1.848 1.848 0 0 1 1.147-.651 3.62 3.62 0 0 0 1.269-.441 2.6 2.6 0 0 0 .695-.863 2.527 2.527 0 0 0 .435-1.323 1.7 1.7 0 0 0-.019-.181 3.118 3.118 0 0 1-.416 1.023z" transform="translate(-373.964 -182)"/>
        </g>
        <path id="Path_1307" d="M398.865 173.338a5.606 5.606 0 0 1 .706 2.356c-1.414-.793-2.743-1.664-3.415-1.967-1.169-.528-5.542-.449-7.186-.4a5.545 5.545 0 0 1 .6-.866 5.741 5.741 0 0 1 1.309-1.146 5.676 5.676 0 0 1 7.994 2.02z" class="cls-4" transform="translate(-342.366 -152.118)"/>
        <path id="Path_1308" d="M463.047 204.167c-.763.235-2.009-.219-3.3-.87a6.221 6.221 0 0 1-.487-.717l4.357.822c.289.198.362.478-.57.765z" class="cls-4" transform="translate(-401.503 -179.165)"/>
        <path id="Path_1309" d="M390.946 154.042s-4.165-.238-5.336 2.023l-.189 2-.317-.035-.063 1.363s6.366-.278 7.815.376 5.95 3.948 7.754 3.392-.159-1.071-.159-1.071-2.483-1.052-2.483-1.877-.617-5.179-7.022-6.171z" class="cls-8" transform="translate(-339.059 -138.323)"/>
        <path id="Path_1310" d="M371.63 622.28s2.658 2.578 3.808 2.38c0 0-3.253-.278-3.808-2.38z" class="cls-4" transform="translate(-327.777 -532.272)"/>
        <path id="Path_1311" d="M368.13 629.81s.238 1.326.873 1.2-.873-1.2-.873-1.2z" class="cls-4" transform="translate(-324.832 -538.607)"/>
        <path id="Path_1312" d="M377.364 769.53s-3.773 2.935-3.137 3.015 3.137-3.015 3.137-3.015z" class="cls-4" transform="translate(-329.901 -656.157)"/>
        <path id="Path_1313" d="M330.96 336.788l12.218-1.988v11.567l-11.608-.608z" class="cls-10" transform="translate(-278.45 -281.674)"/>
        <path id="Path_1314" d="M330.96 336.788l12.218-1.988v11.567l-11.608-.608z" class="cls-11" transform="translate(-278.45 -281.674)"/>
        <path id="Path_1315" d="M407.96 334.8l14.652 1.1-.811 10.066-13.841.4z" class="cls-10" transform="translate(-343.232 -281.674)"/>
        <path id="Path_1316" d="M407.96 334.8l14.652 1.1-.811 10.066-13.841.4z" class="cls-4" transform="translate(-343.232 -281.674)"/>
        <path id="Path_1317" d="M412.465 312.55l-4.5 3.53 14.652 1.1 2.394-3.613z" class="cls-10" transform="translate(-343.232 -262.955)"/>
        <path id="Path_1318" d="M303.08 315.929l11-1.339 5.642 3.207-12.222 1.988z" class="cls-10" transform="translate(-254.994 -264.671)"/>
        <path id="Path_1319" d="M345.856 348.345v15.815l-5.723-.587-2.49-.254-.758-.079-2.488-.255-3.437-.352v-15.3l12.216.831z" class="cls-10" transform="translate(-278.45 -292.216)"/>
        <path id="Path_1320" d="M436.813 341.71v15.423l-4.587.881-2.231.428-5.155.99v-15.815z" class="cls-10" transform="translate(-357.434 -287.488)"/>
        <path id="Path_1321" d="M436.813 341.71v15.423l-4.587.881-2.231.428-5.155.99v-15.815z" class="cls-11" transform="translate(-357.434 -287.488)"/>
        <path id="Path_1322" d="M303.08 350.659l4.424-3.329 14.9 1.015-2.193 3.694z" class="cls-10" transform="translate(-254.994 -292.216)"/>
        <path id="Path_1323" d="M303.08 350.659l4.424-3.329 14.9 1.015-2.193 3.694z" class="cls-12" transform="translate(-254.994 -292.216)"/>
        <path id="Path_1324" d="M436.813 341.71l-11.973 1.907 3.9 3.491 12.825-2.152z" class="cls-10" transform="translate(-357.434 -287.488)"/>
        <path id="Path_1325" d="M436.813 341.71l-11.973 1.907 3.9 3.491 12.825-2.152z" class="cls-12" transform="translate(-357.434 -287.488)"/>
        <path id="Path_1326" d="M459.561 426.464l-2.231.428v-3.3l2.09-.527z" class="cls-12" transform="translate(-384.769 -355.939)"/>
        <path id="Path_1327" d="M375.569 435.96v2.18l-2.49-.254v-1.926z" class="cls-12" transform="translate(-313.887 -366.783)"/>
        <path id="Path_1328" d="M355.108 440.29v1.16l-2.488-.255v-.9z" class="cls-12" transform="translate(-296.673 -370.426)"/>
        <path id="Path_1329" d="M446.512 450.047c-1.706 2.182-7.339.674-7.339.674l-4.186-4.367-.568-.592 1.111-2.063s.317.1.847.289c2.806.981 11.571 4.223 10.135 6.059z" class="cls-4" transform="translate(-380.604 -382.027)"/>
        <path id="Path_1330" d="M445.512 448.047c-1.706 2.182-7.339.674-7.339.674l-4.186-4.367-.568-.592 1.111-2.063s.317.1.847.289c2.806.981 11.571 4.223 10.135 6.059z" class="cls-3" transform="translate(-379.763 -380.344)"/>
        <path id="Path_1331" d="M435.338 441.989a9.384 9.384 0 0 1-1.39 2.366l-.568-.592 1.111-2.063s.319.1.847.289z" class="cls-4" transform="translate(-379.729 -380.344)"/>
        <path id="Path_1332" d="M336.083 287.856a6.786 6.786 0 0 0-4.2 6.029 72.987 72.987 0 0 0 .476 8.568s-1.19 6.624 2.182 8.529 6.505 3.491 6.505 3.491 5.387.873 6.049 1.15 2.961-3.292 2.6-3.887-5.261-2.063-5.844-3.054a5.284 5.284 0 0 0-2.017-1.66s-1.463-1-1.522-1.831a3.748 3.748 0 0 1 .5-1.785c.122-.357.565-3.848.565-3.848s2.361-12.384-5.294-11.702z" class="cls-5" transform="translate(-294.332 -250.888)"/>
        <path id="Path_1333" d="M342.7 380.7s-5.633.635-5.2 2.618a11.85 11.85 0 0 1 5.2-2.618z" class="cls-4" transform="translate(-299.044 -329.023)"/>
        <path id="Path_1334" d="M356.158 385.7s-3.2 2.34-2.61 2.5 2.61-2.5 2.61-2.5z" class="cls-4" transform="translate(-312.504 -333.23)"/>
        <path id="Path_1335" d="M376.439 391.7s-.912 1.641-.4 1.555.4-1.555.4-1.555z" class="cls-4" transform="translate(-331.357 -338.278)"/>
        <path id="Path_1336" d="M720.461 167.379s-6.029-.363-5.325 3.867a1.032 1.032 0 0 0 .536 1.087s.011-.317.619-.208a2.778 2.778 0 0 0 .655.032 1.36 1.36 0 0 0 .8-.332s1.7-.7 2.356-3.473c0 0 .489-.606.476-.762l-1.019.436a1.826 1.826 0 0 1 .073 1.346s-.032-1.319-.229-1.288c-.04 0-.528.255-.528.255a3.01 3.01 0 0 1 .146 2.21s.171-1.577-.333-2.118l-.717.419a3.165 3.165 0 0 1 .225 2.4 4.5 4.5 0 0 0-.376-2.3l-.651.506a3.1 3.1 0 0 1 .257 2.2s-.052-1.926-.4-2.072a3.923 3.923 0 0 0-.654.708s.449.952.17 1.445c0 0-.171-1.284-.317-1.29a4.271 4.271 0 0 0-.625 1.428 3.087 3.087 0 0 1 .487-1.514 1.7 1.7 0 0 0-.866.449s.087-.6 1.006-.654a4.338 4.338 0 0 1 .593-.685 3.72 3.72 0 0 0-1.468.17 1.662 1.662 0 0 1 1.636-.317l.635-.524a5.474 5.474 0 0 0-1.714.017 2.086 2.086 0 0 1 1.887-.136l.7-.417a6.269 6.269 0 0 0-1.636-.141 2.51 2.51 0 0 1 1.841.029l.5-.224s-.752-.148-.971-.171-.232-.084-.232-.084a2.6 2.6 0 0 1 1.411.159 6.224 6.224 0 0 0 1.052-.453z" class="cls-10" transform="translate(-616.731 -149.543)"/>
        <path id="Path_1337" d="M835.921 300.719s-6.03-.363-5.325 3.867a1.032 1.032 0 0 0 .536 1.087s.011-.317.62-.208a2.779 2.779 0 0 0 .655.032 1.358 1.358 0 0 0 .793-.33s1.7-.7 2.358-3.475c0 0 .487-.6.468-.76l-1.019.435a1.83 1.83 0 0 1 .075 1.345s-.033-1.319-.228-1.288c-.04 0-.53.255-.53.255a3.008 3.008 0 0 1 .148 2.21s.171-1.577-.335-2.118l-.709.414a3.165 3.165 0 0 1 .225 2.4 4.5 4.5 0 0 0-.376-2.3l-.649.508a3.1 3.1 0 0 1 .257 2.2s-.052-1.926-.4-2.072a3.98 3.98 0 0 0-.655.708s.451.952.171 1.445c0 0-.171-1.284-.317-1.29a4.271 4.271 0 0 0-.625 1.428 3.1 3.1 0 0 1 .489-1.514 1.706 1.706 0 0 0-.868.449s.089-.6 1.007-.654a3.962 3.962 0 0 1 .594-.685 3.721 3.721 0 0 0-1.468.17 1.648 1.648 0 0 1 1.634-.309l.635-.524a5.476 5.476 0 0 0-1.714.017 2.086 2.086 0 0 1 1.887-.136l.7-.417a6.357 6.357 0 0 0-1.637-.141 2.515 2.515 0 0 1 1.842.029l.5-.224s-.752-.148-.973-.171-.232-.084-.232-.084a2.6 2.6 0 0 1 1.412.159 6.4 6.4 0 0 0 1.054-.458z" class="cls-1" transform="translate(-713.871 -261.726)"/>
        <path id="Path_1338" d="M611.789 245.468s1.388-5.885-2.9-5.906a1.031 1.031 0 0 0-1.162.343s.306.065.1.646a2.832 2.832 0 0 0-.143.635 1.364 1.364 0 0 0 .189.846s.4 1.793 3.015 2.916c0 0 .514.584.67.59l-.254-1.077a1.823 1.823 0 0 1-1.339-.159s1.306.192 1.307 0c0-.04-.159-.565-.159-.565a3.012 3.012 0 0 1-2.2-.233s1.525.438 2.145.033l-.286-.781a3.167 3.167 0 0 1-2.405-.187 4.5 4.5 0 0 0 2.331.022l-.389-.727a3.1 3.1 0 0 1-2.21-.122s1.9.276 2.11-.038a3.945 3.945 0 0 0-.585-.766s-1.009.282-1.453-.078c0 0 1.293.049 1.323-.087a4.279 4.279 0 0 0-1.306-.862 3.11 3.11 0 0 1 1.411.739 1.712 1.712 0 0 0-.3-.931s.578.19.476 1.111a3.953 3.953 0 0 1 .573.7 3.731 3.731 0 0 0 .083-1.476 1.649 1.649 0 0 1 .027 1.664l.406.722a5.266 5.266 0 0 0 .275-1.691 2.08 2.08 0 0 1-.187 1.882l.294.76a6.353 6.353 0 0 0 .417-1.587 2.508 2.508 0 0 1-.343 1.81l.137.53s.273-.716.333-.928.122-.214.122-.214a2.6 2.6 0 0 1-.4 1.365 6.3 6.3 0 0 0 .277 1.101z" class="cls-1" transform="translate(-526.368 -210.231)"/>
        <path id="Path_1339" d="M514.016 281.648s-4.843-3.622-6.574.3a1.033 1.033 0 0 0-.149 1.2s.181-.255.635.168a2.778 2.778 0 0 0 .53.387 1.361 1.361 0 0 0 .852.159s1.8.347 3.878-1.606c0 0 .741-.238.811-.378l-1.093-.192a1.833 1.833 0 0 1-.678 1.165s.7-1.12.516-1.2c-.036-.017-.582-.079-.582-.079a3.011 3.011 0 0 1-1.092 1.928s1.011-1.223.885-1.953l-.83-.044a3.165 3.165 0 0 1-1.131 2.131 4.529 4.529 0 0 0 .952-2.128l-.822.067a3.092 3.092 0 0 1-.993 1.975s1.014-1.638.806-1.948a3.988 3.988 0 0 0-.936.23s-.144 1.038-.652 1.3c0 0 .563-1.166.449-1.247a4.265 4.265 0 0 0-1.311.852 3.1 3.1 0 0 1 1.241-1 1.709 1.709 0 0 0-.971-.1s.4-.454 1.2.008a4.005 4.005 0 0 1 .873-.246 3.713 3.713 0 0 0-1.32-.665 1.652 1.652 0 0 1 1.537.635l.823-.084a5.435 5.435 0 0 0-1.441-.927s.766-.1 1.65.922l.812.036a6.333 6.333 0 0 0-1.291-1.014 2.509 2.509 0 0 1 1.522 1.036l.541.087s-.547-.536-.719-.676-.148-.2-.148-.2a2.607 2.607 0 0 1 1.093.908 6.415 6.415 0 0 0 1.127.193z" class="cls-1" transform="translate(-441.8 -244.405)"/>
        <path id="Path_1340" d="M615.626 69.534s-4.843-3.624-6.574.3a1.033 1.033 0 0 0-.149 1.2s.181-.255.635.168a2.822 2.822 0 0 0 .532.386 1.36 1.36 0 0 0 .852.159s1.8.347 3.878-1.607c0 0 .741-.236.809-.378l-1.093-.189a1.825 1.825 0 0 1-.677 1.165s.7-1.12.517-1.2c-.036-.017-.582-.079-.582-.079a3.024 3.024 0 0 1-1.1 1.928s1.009-1.223.885-1.953l-.83-.044a3.167 3.167 0 0 1-1.131 2.129 4.53 4.53 0 0 0 .952-2.128l-.82.067a3.1 3.1 0 0 1-.995 1.977s1.016-1.637.808-1.948a3.989 3.989 0 0 0-.936.23s-.144 1.038-.652 1.3c0 0 .563-1.166.449-1.249a4.281 4.281 0 0 0-1.311.854 3.084 3.084 0 0 1 1.241-1 1.7 1.7 0 0 0-.973-.1s.4-.454 1.2.008a3.919 3.919 0 0 1 .873-.246 3.734 3.734 0 0 0-1.32-.666 1.654 1.654 0 0 1 1.536.635l.823-.084a5.44 5.44 0 0 0-1.441-.928s.766-.1 1.652.923l.812.035a6.272 6.272 0 0 0-1.29-1.017 2.51 2.51 0 0 1 1.523 1.036l.539.087s-.549-.53-.72-.666-.148-.2-.148-.2a2.6 2.6 0 0 1 1.093.908 6.85 6.85 0 0 0 1.133.187z" class="cls-1" transform="translate(-527.287 -65.947)"/>
        <path id="Path_1341" d="M734.731 85.328s-1.936-5.73-5.587-3.478a1.043 1.043 0 0 0-.8.906s.294-.108.424.5a2.854 2.854 0 0 0 .217.62 1.374 1.374 0 0 0 .609.617s1.288 1.309 4.106.876c0 0 .744.225.881.148l-.793-.779a1.825 1.825 0 0 1-1.219.574s1.211-.527 1.111-.7c-.021-.033-.435-.393-.435-.393a3.016 3.016 0 0 1-1.993.968s1.525-.435 1.836-1.111l-.657-.506a3.162 3.162 0 0 1-2.14 1.111s1.587-.509 1.988-1.214l-.714-.411a3.07 3.07 0 0 1-1.939 1.065s1.764-.773 1.769-1.147a3.966 3.966 0 0 0-.9-.341s-.708.773-1.269.7c0 0 1.123-.643 1.076-.774a4.257 4.257 0 0 0-1.563-.04 3.093 3.093 0 0 1 1.587-.119 1.712 1.712 0 0 0-.744-.635s.59-.144.985.687a4 4 0 0 1 .857.292 3.729 3.729 0 0 0-.709-1.3 1.652 1.652 0 0 1 .9 1.4l.727.4a5.356 5.356 0 0 0-.662-1.587s.687.355.836 1.7l.65.49a6.307 6.307 0 0 0-.485-1.571 2.512 2.512 0 0 1 .666 1.718l.4.378s-.146-.752-.206-.965-.011-.227-.011-.227a2.617 2.617 0 0 1 .386 1.368 6.318 6.318 0 0 0 .815.78z" class="cls-1" transform="translate(-627.888 -77.151)"/>
        <path id="Path_1342" d="M659.592 108.127s-6.014-.67-5.517 3.6a1.03 1.03 0 0 0 .476 1.111s.027-.317.635-.175a2.921 2.921 0 0 0 .654.065 1.365 1.365 0 0 0 .817-.29s1.731-.614 2.539-3.351c0 0 .517-.579.506-.736l-1.039.384a1.769 1.769 0 0 1 0 1.347s.033-1.319-.159-1.3c-.04 0-.541.228-.541.228a3.026 3.026 0 0 1 .035 2.221s.251-1.568-.227-2.133l-.738.381a3.154 3.154 0 0 1 .1 2.41 4.5 4.5 0 0 0-.259-2.315l-.674.476a3.1 3.1 0 0 1 .144 2.209s.046-1.926-.292-2.09a4.128 4.128 0 0 0-.69.673s.4.968.1 1.452c0 0-.106-1.29-.246-1.3a4.267 4.267 0 0 0-.7 1.4 3.089 3.089 0 0 1 .565-1.488 1.707 1.707 0 0 0-.889.4s.118-.6 1.038-.6c0 0 .5-.62.635-.654a3.73 3.73 0 0 0-1.476.1 1.646 1.646 0 0 1 1.649-.227l.668-.49a5.146 5.146 0 0 0-1.718-.086 2.066 2.066 0 0 1 1.891-.04l.719-.382a6.318 6.318 0 0 0-1.628-.224 2.492 2.492 0 0 1 1.838.122l.511-.2s-.744-.186-.963-.221-.227-.1-.227-.1a2.61 2.61 0 0 1 1.4.228 6.485 6.485 0 0 0 1.063-.405z" class="cls-1" transform="translate(-565.382 -99.667)"/>
        <path id="Path_1343" d="M991.209 402.3s-6.01-.67-5.514 3.592a1.03 1.03 0 0 0 .476 1.111s.027-.317.635-.176a2.745 2.745 0 0 0 .654.065 1.353 1.353 0 0 0 .817-.29s1.731-.614 2.531-3.35c0 0 .517-.581.506-.736l-1.039.382a1.774 1.774 0 0 1 0 1.349s.033-1.32-.159-1.3c-.04 0-.541.227-.541.227a3.026 3.026 0 0 1 .035 2.221s.251-1.566-.227-2.133l-.738.382a3.158 3.158 0 0 1 .1 2.41 4.509 4.509 0 0 0-.26-2.317l-.674.476a3.1 3.1 0 0 1 .144 2.207s.046-1.926-.292-2.088a4.185 4.185 0 0 0-.69.673s.4.968.1 1.452c0 0-.106-1.29-.246-1.3a4.267 4.267 0 0 0-.7 1.4 3.089 3.089 0 0 1 .565-1.488 1.694 1.694 0 0 0-.889.4s.117-.6 1.038-.6c0 0 .5-.62.635-.652a3.717 3.717 0 0 0-1.476.094 1.651 1.651 0 0 1 1.65-.225l.666-.49a5.3 5.3 0 0 0-1.712-.07 2.068 2.068 0 0 1 1.891-.041l.719-.381a6.318 6.318 0 0 0-1.628-.224 2.492 2.492 0 0 1 1.837.122l.511-.2s-.744-.186-.963-.219-.227-.1-.227-.1a2.6 2.6 0 0 1 1.4.227 6.219 6.219 0 0 0 1.065-.41z" class="cls-1" transform="translate(-844.384 -347.161)"/>
        <path id="Path_1344" d="M1049.119 437.678s-6.01-.668-5.514 3.592a1.033 1.033 0 0 0 .476 1.111s.027-.317.635-.175a2.8 2.8 0 0 0 .652.063 1.371 1.371 0 0 0 .814-.289s1.729-.614 2.529-3.351c0 0 .519-.579.506-.736l-1.039.382a1.775 1.775 0 0 1 0 1.349s.033-1.319-.159-1.3c-.04 0-.541.227-.541.227a3.026 3.026 0 0 1 .035 2.221s.251-1.566-.227-2.131l-.738.381a3.159 3.159 0 0 1 .1 2.41 4.5 4.5 0 0 0-.26-2.315l-.674.476a3.1 3.1 0 0 1 .146 2.209s.045-1.928-.293-2.09a4.2 4.2 0 0 0-.69.673s.4.968.1 1.452c0 0-.106-1.29-.246-1.3a4.243 4.243 0 0 0-.7 1.4 3.1 3.1 0 0 1 .563-1.488 1.707 1.707 0 0 0-.888.4s.119-.6 1.039-.6c0 0 .5-.62.635-.654a3.73 3.73 0 0 0-1.476.1 1.648 1.648 0 0 1 1.65-.227l.667-.49a5.3 5.3 0 0 0-1.712-.07 2.066 2.066 0 0 1 1.891-.04l.719-.382a6.318 6.318 0 0 0-1.628-.224 2.492 2.492 0 0 1 1.837.122l.511-.2s-.744-.186-.962-.221-.229-.1-.229-.1a2.609 2.609 0 0 1 1.4.228 6.278 6.278 0 0 0 1.071-.413z" class="cls-1" transform="translate(-893.105 -376.928)"/>
        <path id="Path_1345" d="M913.566 131.788s-4.843-3.622-6.574.3a1.033 1.033 0 0 0-.149 1.2s.181-.255.635.168a2.776 2.776 0 0 0 .53.387 1.363 1.363 0 0 0 .852.159s1.8.347 3.88-1.606c0 0 .739-.238.809-.378l-1.09-.2a1.833 1.833 0 0 1-.677 1.165s.7-1.12.516-1.2c-.036-.017-.581-.079-.581-.079a3.016 3.016 0 0 1-1.093 1.928s1.011-1.223.885-1.953l-.83-.044a3.165 3.165 0 0 1-1.131 2.131 4.514 4.514 0 0 0 .952-2.128l-.822.067a3.05 3.05 0 0 1-.993 1.975s1.016-1.637.806-1.948a3.99 3.99 0 0 0-.936.23s-.143 1.038-.651 1.3c0 0 .562-1.166.447-1.247a4.264 4.264 0 0 0-1.311.852 3.1 3.1 0 0 1 1.241-1 1.709 1.709 0 0 0-.971-.1s.4-.454 1.2.008a3.989 3.989 0 0 1 .871-.246 3.714 3.714 0 0 0-1.32-.665 1.652 1.652 0 0 1 1.538.635l.824-.084a5.408 5.408 0 0 0-1.441-.927s.766-.1 1.65.922l.814.036a6.36 6.36 0 0 0-1.29-1.019 2.5 2.5 0 0 1 1.522 1.036l.541.087s-.547-.536-.719-.676-.146-.186-.146-.186a2.608 2.608 0 0 1 1.092.908 6.369 6.369 0 0 0 1.12.192z" class="cls-1" transform="translate(-777.953 -118.324)"/>
        <path id="Path_1346" d="M940.279 282.538s-1.669-5.812-5.423-3.726a1.031 1.031 0 0 0-.846.868s.3-.094.4.514a2.8 2.8 0 0 0 .19.635 1.362 1.362 0 0 0 .581.647s1.228 1.365 4.062 1.06c0 0 .733.257.873.187l-.751-.816a1.824 1.824 0 0 1-1.242.52s1.231-.476 1.136-.646c-.019-.035-.416-.414-.416-.414a3.006 3.006 0 0 1-2.034.877s1.544-.365 1.883-1.022l-.635-.536a3.17 3.17 0 0 1-2.188 1.016s1.6-.44 2.041-1.123l-.695-.443a3.092 3.092 0 0 1-1.985.976s1.8-.693 1.82-1.066a3.964 3.964 0 0 0-.887-.381s-.741.739-1.3.644c0 0 1.152-.592 1.111-.725a4.286 4.286 0 0 0-1.56-.111 3.1 3.1 0 0 1 1.587-.046 1.7 1.7 0 0 0-.714-.666s.6-.119.952.73a3.96 3.96 0 0 1 .843.33 3.712 3.712 0 0 0-.651-1.326 1.648 1.648 0 0 1 .839 1.438l.708.43a5.274 5.274 0 0 0-.59-1.609 2.083 2.083 0 0 1 .76 1.731l.635.519a6.292 6.292 0 0 0-.414-1.587 2.507 2.507 0 0 1 .589 1.745l.378.4s-.111-.758-.159-.974 0-.246 0-.246a2.6 2.6 0 0 1 .325 1.384 6.3 6.3 0 0 0 .777.812z" class="cls-1" transform="translate(-800.924 -242.922)"/>
        <path id="Path_1347" d="M702.864 371.191s-3.242-5.106-6.252-2.05a1.026 1.026 0 0 0-.568 1.071s.262-.175.532.381a2.719 2.719 0 0 0 .359.549 1.356 1.356 0 0 0 .738.457s1.563.965 4.2-.127c0 0 .776.041.89-.065l-.952-.571a1.824 1.824 0 0 1-1.047.849s1.05-.793.909-.939c-.027-.029-.516-.279-.516-.279a3.015 3.015 0 0 1-1.706 1.414s1.379-.785 1.522-1.512l-.76-.335a3.161 3.161 0 0 1-1.814 1.587s1.412-.871 1.642-1.652l-.793-.228s-.67 1.3-1.63 1.495c0 0 1.53-1.171 1.445-1.536a3.941 3.941 0 0 0-.952-.116s-.5.919-1.071.985c0 0 .939-.892.862-1.009a4.276 4.276 0 0 0-1.528.333 3.089 3.089 0 0 1 1.514-.492 1.7 1.7 0 0 0-.871-.44s.538-.281 1.111.433a3.92 3.92 0 0 1 .9.079 3.653 3.653 0 0 0-1-1.09s.746.063 1.209 1.144l.8.213a5.3 5.3 0 0 0-1.019-1.377s.751.181 1.215 1.449l.749.317a6.325 6.325 0 0 0-.846-1.409 2.5 2.5 0 0 1 1.055 1.509l.476.274s-.317-.7-.43-.889-.068-.236-.068-.236a2.6 2.6 0 0 1 .7 1.236 6.445 6.445 0 0 0 .995.577z" class="cls-1" transform="translate(-600.705 -318.478)"/>
        <path id="Path_1348" d="M837.327 206.091s-3.083-5.2-6.188-2.242a1.032 1.032 0 0 0-.6 1.054s.265-.168.519.4a2.735 2.735 0 0 0 .341.562 1.347 1.347 0 0 0 .724.476s1.531 1.012 4.2 0c0 0 .774.065.892-.038l-.932-.6a1.824 1.824 0 0 1-1.073.816s1.074-.766.939-.911c-.028-.03-.508-.3-.508-.3a3.016 3.016 0 0 1-1.745 1.361s1.4-.743 1.566-1.463l-.749-.352a3.164 3.164 0 0 1-1.863 1.533s1.439-.827 1.693-1.6l-.784-.254s-.711 1.269-1.676 1.444c0 0 1.564-1.123 1.492-1.49a3.918 3.918 0 0 0-.952-.146s-.532.9-1.1.952c0 0 .966-.86.893-.981a4.272 4.272 0 0 0-1.538.286 3.1 3.1 0 0 1 1.528-.444 1.707 1.707 0 0 0-.858-.466s.547-.265 1.111.466a4.022 4.022 0 0 1 .9.108 3.8 3.8 0 0 0-.963-1.12s.743.086 1.172 1.18l.793.238a5.276 5.276 0 0 0-.976-1.409s.746.2 1.171 1.485l.738.344a6.375 6.375 0 0 0-.793-1.428 2.51 2.51 0 0 1 1.009 1.541l.465.289s-.3-.706-.4-.9-.06-.238-.06-.238a2.607 2.607 0 0 1 .661 1.257 6.142 6.142 0 0 0 .951.59z" class="cls-10" transform="translate(-713.863 -179.466)"/>
        <path id="Path_1349" d="M723.341 263.787s.159-6.045-4.041-5.193a1.034 1.034 0 0 0-1.069.573s.317 0 .228.611a2.789 2.789 0 0 0-.01.657 1.357 1.357 0 0 0 .357.793s.757 1.672 3.551 2.24c0 0 .62.468.776.443l-.476-1a1.831 1.831 0 0 1-1.342.119s1.317-.078 1.28-.271c0-.04-.273-.522-.273-.522a3 3 0 0 1-2.2.221s1.587.119 2.106-.4l-.443-.7a3.17 3.17 0 0 1-2.393.3 4.51 4.51 0 0 0 2.286-.452l-.528-.635a3.094 3.094 0 0 1-2.188.33s1.923-.116 2.063-.466a4.115 4.115 0 0 0-.73-.635s-.93.476-1.437.219c0 0 1.269-.213 1.277-.354a4.258 4.258 0 0 0-1.453-.578 3.089 3.089 0 0 1 1.531.438 1.706 1.706 0 0 0-.476-.852s.6.068.687.984a3.943 3.943 0 0 1 .7.571 3.71 3.71 0 0 0-.219-1.461 1.646 1.646 0 0 1 .365 1.623l.544.625a5.313 5.313 0 0 0-.075-1.712 2.086 2.086 0 0 1 .2 1.88l.44.684a6.325 6.325 0 0 0 .087-1.641 2.518 2.518 0 0 1 .032 1.842l.241.492s.122-.757.138-.977.076-.235.076-.235a2.605 2.605 0 0 1-.109 1.417 6.056 6.056 0 0 0 .497 1.022z" class="cls-10" transform="translate(-619.382 -226.222)"/>
        <ellipse id="Ellipse_240" cx="4.273" cy=".722" class="cls-1" rx="4.273" ry=".722" transform="translate(106.629 112.936)"/>
        <ellipse id="Ellipse_241" cx="4.273" cy=".722" class="cls-1" rx="4.273" ry=".722" transform="translate(91.053 123.897)"/>
        <ellipse id="Ellipse_242" cx="4.273" cy=".722" class="cls-1" rx="4.273" ry=".722" transform="translate(10.502 118.282)"/>
        <ellipse id="Ellipse_243" cx="4.273" cy=".722" class="cls-1" rx="4.273" ry=".722" transform="translate(123.462 123.175)"/>
        <ellipse id="Ellipse_244" cx="6.38" cy="1.079" class="cls-10" rx="6.38" ry="1.079" transform="translate(125.804 113.658)"/>
        <path id="Path_1350" d="M913.707 751.418a1.842 1.842 0 0 0 .608-.917.815.815 0 0 0-.424-.935 1.2 1.2 0 0 0-1.125.393 1.507 1.507 0 0 1-1.092.528 1.666 1.666 0 0 0 .514-1.556.652.652 0 0 0-.143-.317c-.217-.232-.609-.132-.87.051a3.238 3.238 0 0 0-1.06 2.71 5.086 5.086 0 0 1-.014-1.111 1.14 1.14 0 0 0-.421-.987 1.255 1.255 0 0 0-.635-.159 1.325 1.325 0 0 0-1.038.3 1.023 1.023 0 0 0 .04 1.269 4.105 4.105 0 0 0 1.074.86 2.4 2.4 0 0 1 .768.732.75.75 0 0 1 .056.13h2.326a6.417 6.417 0 0 0 1.436-.991z" class="cls-10" transform="translate(-778.877 -638.447)"/>
        <path id="Path_1351" fill="#a8a8a8" d="M170.29 776.888a8.941 8.941 0 0 0 3.173-.6c.738-.524 3.749-1.147 3.932-.308s3.662 4.171.911 4.194-6.393-.428-7.126-.876-.89-2.41-.89-2.41z" transform="translate(-158.384 -661.24)"/>
        <path id="Path_1352" d="M178.352 786.849c-2.751.022-6.393-.428-7.126-.876-.559-.339-.781-1.56-.855-2.123h-.081s.159 1.966.887 2.412 4.375.9 7.126.876c.793 0 1.068-.289 1.054-.708-.112.255-.415.414-1.005.419z" opacity="0.2" transform="translate(-158.384 -668.205)"/>
    </g>
</svg>
