<svg xmlns="http://www.w3.org/2000/svg" id="undraw_online_discussion_5wgl" width="209.958" height="172.072" viewBox="0 0 209.958 172.072">
    <defs>
        <style>
            .cls-1{fill:#f2f2f2}.cls-2{fill:#6c63ff}.cls-3{fill:#ffb9b9}.cls-4{fill:#2f2e41}.cls-5{fill:#575a89}.cls-6{opacity:.1}.cls-7{fill:#3f3d56}
        </style>
    </defs>
    <path id="Path_1230" d="M220.588 159.448l.894 73.737L260.1 252l-.894-73.736z" class="cls-1" transform="translate(-172.454 -124.655)"/>
    <path id="Path_1231" d="M63.411 132.454L34.553 191.7l39.157 19.072-.894-73.737z" class="cls-1" transform="translate(-27.013 -103.551)"/>
    <path id="Path_1232" d="M682.942 377.841L605 339.875l.894 73.737 48.19 23.474z" class="cls-1" transform="translate(-472.984 -265.712)"/>
    <path id="Path_1233" d="M413.579 245.662l.894 73.736 38.621 18.813-.894-73.737z" class="cls-1" transform="translate(-323.333 -192.057)"/>
    <path id="Rectangle_748" d="M0 0H4.853V6.24H0z" class="cls-2" transform="rotate(-2.221 1554.843 -4422.762)"/>
    <path id="Path_1234" d="M808.028 410.243s-6.716-3.209-6.609-.438 6.77 4.595 6.77 4.595z" class="cls-3" transform="translate(-652.488 -331.658)"/>
    <path id="Path_1235" d="M826.7 510.023a96.9 96.9 0 0 0-4.339 13.352c-1.171 5.6-2.954 13.3-.66 18.76s8.814 21.515 8.881 23.247-.559 3.491.827 3.437 8.926-2.428 9.232-3.48-2.573-3.717-2.573-3.717l-7.109-22.275 7.417-14.512 5.35 21.65 1.048 27.02s5.143-1.587 5.889-.228c0 0 2.3-3.212 2.6-4.611s-1.088-28.06-1.088-28.06 4.72-30.366.91-30.219-18.737-8.987-26.385-.364z" class="cls-4" transform="translate(-667.478 -407.99)"/>
    <path id="Path_1236" d="M850.652 777.859s-3.515 7.769-3.848 8.129-2.624 3.918-.891 3.851 5.822-1.96 8.832-4.853 6.979-7.9 6.619-8.236a20.428 20.428 0 0 0-2.825-1.278z" class="cls-4" transform="translate(-686.772 -618.415)"/>
    <path id="Path_1237" d="M929.928 803.925a20.188 20.188 0 0 1-.851 4.89c-.639 1.412-.558 3.491 1.174 3.424s6.209-.935 6.209-.935.266-2.092-.094-2.425-1.893-4.09-1.241-5.156-5.197.202-5.197.202z" class="cls-4" transform="translate(-752.004 -640.169)"/>
    <path id="Path_1238" d="M928.026 288.992s3.693 5.755 5.132 7.087-2.61 4.264-2.61 4.264l-7.248.975s.091-6.6-.282-7.275 5.008-5.051 5.008-5.051z" class="cls-3" transform="translate(-747.539 -238.09)"/>
    <path id="Path_1239" d="M889.564 317.821s1.493 2.718 2.879 2.664 8.553-3.107 8.859-4.16 2.374 7.541 2.374 7.541l-17.538 30.863-4.278-2.957 2.073-18.121 1.7-9.78z" class="cls-2" transform="translate(-715.377 -259.388)"/>
    <path id="Path_1240" d="M870.388 337.972a9.705 9.705 0 0 0-1.076 4.552c0 .069.005.139.012.208.166 3.206 1.347 6.914 1.771 9.611.307 1.934.22 3.346-.912 3.678-2.744.8.4 1.372-10.218 4.906s-12.471.484-12.5-.209 1.5-5.956 1.144-6.289-5.035 4.358-6.447 3.719-.161-4.157-.161-4.157 3.182-7.409 3.115-9.141 4.82-9.9 4.82-9.9l3.324-21.639s1.278-2.825 3-3.239a4.257 4.257 0 0 1 3.145.572L856.527 317l-3.034 11.22.508 4.144s3.528-7.422 5.846-10.288 7.258-9.649 7.258-9.649 1.154-3.892.283-5.055 3.632-1.341 5.553 3.441c1.018 2.535 2.67 6.315 3.705 9.834.922 3.118 1.358 6.033.444 7.7-1.398 2.544-4.911 5.889-6.702 9.625z" class="cls-5" transform="translate(-683.817 -251.918)"/>
    <path id="Path_1241" d="M975.625 375.3c-1.4 2.545-4.91 5.891-6.7 9.627-.468-1.685-1.039-3.429-1.039-3.429s-2.189-11.711 4.286-14.737a4.333 4.333 0 0 1 3.009.841c.919 3.115 1.358 6.03.444 7.698z" class="cls-6" transform="translate(-782.353 -298.871)"/>
    <path id="Path_1242" d="M837.064 402.583l-5.489 1.6-7.621.3-.784 6.622 12.525.9s3.128-8.796 1.369-9.422z" class="cls-5" transform="translate(-669.493 -326.894)"/>
    <path id="Path_1243" d="M906.666 504.623s-7.343 1.218-5.667 3.428 8.181-.113 8.181-.113z" class="cls-3" transform="translate(-730.145 -406.668)"/>
    <path id="Path_1244" d="M930.345 471.9c.166 3.206 1.347 6.914 1.771 9.611-2.339 2.214-4.564 4.167-5.4 4.2-1.732.067-4.517-.172-5.543.215s-1.627-6.182-1.627-6.182a5.681 5.681 0 0 1 3.343-3.252 38.036 38.036 0 0 0 7.456-4.592z" class="cls-6" transform="translate(-744.838 -381.082)"/>
    <path id="Path_1245" d="M934.287 357.222s5.862-.921 5.546 8.805.618 15.935-1.74 17.761-10.016 10.1-11.748 10.17-4.517-.172-5.543.215-1.627-6.182-1.627-6.182a5.681 5.681 0 0 1 3.343-3.252c2.731-1.147 9.165-5.212 9.111-6.6a44.191 44.191 0 0 0-1.629-6.18s-2.187-11.711 4.287-14.737z" class="cls-5" transform="translate(-744.549 -291.412)"/>
    <circle id="Ellipse_219" cx="7.627" cy="7.627" r="7.627" class="cls-3" transform="translate(167.691 44.17)"/>
    <path id="Path_1246" d="M884.267 237.476a1.472 1.472 0 0 1-.641.322.458.458 0 0 1-.53-.367 1.9 1.9 0 0 1-.728.933c-.356.186-.907.03-.958-.368a1.682 1.682 0 0 1-.387.817.58.58 0 0 1-.815.027 20.949 20.949 0 0 1 .109 2.595 3.3 3.3 0 0 0 .934 2.352c.954.83 2.387.625 3.642.468a1.105 1.105 0 0 1 .571.031c.47.2.448.854.455 1.364a3.791 3.791 0 0 0 3.319 3.6 1.9 1.9 0 0 0 1.412-.345c.356-.3.538-.794.946-1.021.664-.369 1.469.169 1.954.753s.964 1.3 1.716 1.409c.994.141 1.752-.872 2.123-1.805a10.522 10.522 0 0 0-.209-8.176c-2.08-4.526-9.171-5.241-12.913-2.589z" class="cls-4" transform="translate(-714.085 -196.61)"/>
    <circle id="Ellipse_220" cx="15.711" cy="15.711" r="15.711" class="cls-2" transform="translate(114.111 15.726)"/>
    <path id="Path_1247" d="M621.444 90.562c3.62 3.713 9.18 4.163 9.18 4.163s-.308-5.57-3.928-9.283-9.181-4.163-9.181-4.163.309 5.57 3.929 9.283z" class="cls-7" transform="translate(-508.714 -75.701)"/>
    <path id="Path_1248" d="M605.181 113.619c5.007 1.35 8.11 5.986 8.11 5.986s-5.014 2.446-10.02 1.1-8.11-5.986-8.11-5.986 5.013-2.45 10.02-1.1z" class="cls-2" transform="translate(-491.238 -100.667)"/>
    <path id="Path_1249" d="M663.6 65.129c.033 5.185 3.728 9.366 3.728 9.366s3.641-4.227 3.608-9.413-3.728-9.366-3.728-9.366-3.637 4.227-3.608 9.413z" class="cls-7" transform="translate(-544.746 -55.716)"/>
    <path id="Path_1250" d="M644.462 74.343c2.671 4.445 1.692 9.937 1.692 9.937s-5.309-1.714-7.98-6.159-1.692-9.937-1.692-9.937 5.31 1.716 7.98 6.159z" class="cls-2" transform="translate(-523.406 -65.463)"/>
    <circle id="Ellipse_221" cx="8.074" cy="8.074" r="8.074" class="cls-1" transform="translate(120.326 22.157)"/>
    <circle id="Ellipse_222" cx="2.618" cy="2.618" r="2.618" class="cls-7" transform="translate(122.003 30.11)"/>
    <circle id="Ellipse_223" cx="15.711" cy="15.711" r="15.711" class="cls-2" transform="translate(29.676 139.416)"/>
    <path id="Path_1251" d="M294 626.235c1.354 5.006 5.992 8.106 5.992 8.106s2.443-5.016 1.089-10.021-5.992-8.106-5.992-8.106-2.441 5.016-1.089 10.021z" class="cls-7" transform="translate(-255.474 -493.909)"/>
    <path id="Path_1252" d="M271.315 643.16c3.716 3.617 4.17 9.177 4.17 9.177s-5.57-.3-9.286-3.921-4.17-9.177-4.17-9.177 5.571.304 9.286 3.921z" class="cls-2" transform="translate(-230.798 -511.91)"/>
    <path id="Path_1253" d="M326.468 630.84c-2.5 4.546-1.3 10-1.3 10s5.238-1.92 7.734-6.465 1.3-10 1.3-10-5.239 1.919-7.734 6.465z" class="cls-7" transform="translate(-279.934 -500.289)"/>
    <path id="Path_1254" d="M315.858 623.581c.169 5.183-3.36 9.5-3.36 9.5s-3.8-4.082-3.971-9.265 3.36-9.5 3.36-9.5 3.803 4.084 3.971 9.265z" class="cls-2" transform="translate(-267.145 -492.425)"/>
    <circle id="Ellipse_224" cx="8.074" cy="8.074" r="8.074" class="cls-1" transform="translate(36.659 145.307)"/>
    <circle id="Ellipse_225" cx="2.618" cy="2.618" r="2.618" class="cls-7" transform="translate(44.733 146.835)"/>
    <path id="Rectangle_749" d="M0 0H81.828V0.436H0z" class="cls-4" transform="translate(2.182 170.619)"/>
    <path id="Rectangle_750" d="M0 0H81.828V0.436H0z" class="cls-4" transform="translate(122.851 171.492)"/>
    <path id="Path_1255" d="M181.383 663.971l-.388-.2c5.037-9.737 2.343-22.383-.8-31.276a95.856 95.856 0 0 0-8.134-17.167l.369-.233a96.345 96.345 0 0 1 8.177 17.255c3.172 8.974 5.884 21.75.776 31.621z" class="cls-4" transform="translate(-160.459 -493.033)"/>
    <path id="Rectangle_751" d="M0 0H15.75V0.436H0z" class="cls-4" transform="rotate(-79.645 93.443 55.728)"/>
    <path id="Rectangle_752" d="M0 0H0.437V21.461H0z" class="cls-4" transform="rotate(-42.95 175.221 60.86)"/>
    <path id="Rectangle_753" d="M0 0H12.658V0.436H0z" class="cls-4" transform="matrix(.586 -.81 .81 .586 24.7 162.856)"/>
    <circle id="Ellipse_226" cx="2.182" cy="2.182" r="2.182" class="cls-2" transform="translate(23.785 113.667)"/>
    <circle id="Ellipse_227" cx="2.182" cy="2.182" r="2.182" class="cls-7" transform="translate(0 130.469)"/>
    <circle id="Ellipse_228" cx="2.182" cy="2.182" r="2.182" class="cls-7" transform="translate(9.601 132.651)"/>
    <circle id="Ellipse_229" cx="2.182" cy="2.182" r="2.182" class="cls-2" transform="translate(5.237 141.161)"/>
    <circle id="Ellipse_230" cx="2.182" cy="2.182" r="2.182" class="cls-7" transform="translate(32.513 146.617)"/>
    <circle id="Ellipse_231" cx="2.182" cy="2.182" r="2.182" class="cls-7" transform="translate(25.312 149.017)"/>
    <circle id="Ellipse_232" cx="2.182" cy="2.182" r="2.182" class="cls-7" transform="translate(30.331 155.999)"/>
    <circle id="Ellipse_233" cx="2.182" cy="2.182" r="2.182" class="cls-7" transform="translate(7.419 116.286)"/>
    <path id="Rectangle_754" d="M0 0H105.176V63.062H0z" class="cls-7" transform="translate(44.645 39.112)"/>
    <circle id="Ellipse_234" cx="1.091" cy="1.091" r="1.091" class="cls-2" transform="translate(47.7 40.421)"/>
    <circle id="Ellipse_235" cx="1.091" cy="1.091" r="1.091" class="cls-2" transform="translate(51.627 40.421)"/>
    <circle id="Ellipse_236" cx="1.091" cy="1.091" r="1.091" class="cls-2" transform="translate(55.555 40.421)"/>
    <path id="Rectangle_755" d="M0 0H105.088V0.436H0z" class="cls-4" transform="translate(44.733 43.952)"/>
    <path id="Path_1256" d="M357.383 260.24v19.639h-28.548l-5.274 6.328.6-6.328H321.6V260.24z" class="cls-2" transform="translate(-251.422 -203.454)"/>
    <path id="Rectangle_756" d="M0 0H12.874V12.874H0z" class="cls-6" transform="translate(93.087 63.551)"/>
    <path id="Path_1257" d="M439.6 304.24h35.786v19.639h-2.567l.6 6.328-5.273-6.328H439.6z" class="cls-2" transform="translate(-343.673 -237.852)"/>
    <ellipse id="Ellipse_237" cx="7.855" cy=".766" class="cls-6" rx="7.855" ry=".766" transform="translate(64.502 84.387)"/>
    <ellipse id="Ellipse_238" cx="8.947" cy=".873" class="cls-6" rx="8.947" ry=".873" transform="translate(120.799 94.536)"/>
</svg>
