<svg xmlns="http://www.w3.org/2000/svg" width="22.145" height="26.056" viewBox="0 0 22.145 26.056">
    <defs>
        <style>
            .cls-1{fill:#12203c}.cls-2{fill:#ffcf03}.cls-3,.cls-4{fill:#eb0008}.cls-3{clip-rule:evenodd}.cls-5{clip-path:url(#clip-path)}.cls-6{clip-path:url(#clip-path-2)}.cls-7{clip-path:url(#clip-path-3)}.cls-8{clip-path:url(#clip-path-4)}.cls-9{clip-path:url(#clip-path-5)}.cls-10{clip-path:url(#clip-path-6)}
        </style>
        <clipPath id="clip-path">
            <path id="Path_362" d="M12.059-.93A2.742 2.742 0 0 0 14.7-2.942H9.416A2.743 2.743 0 0 0 12.059-.93z" class="cls-1" data-name="Path 362" transform="translate(-9.416 2.942)"/>
        </clipPath>
        <clipPath id="clip-path-2">
            <path id="Path_361" d="M-1404 791.526H52.83V-86H-1404z" class="cls-1" data-name="Path 361" transform="translate(1404 86)"/>
        </clipPath>
        <clipPath id="clip-path-3">
            <path id="Path_365" d="M21.065-10.407c-1-1.5-1.827-6.489-1.827-11.093a8.442 8.442 0 0 0-7.365-8.3v-.074A1.128 1.128 0 0 0 10.748-31a1.128 1.128 0 0 0-1.128 1.128v.074a8.442 8.442 0 0 0-7.365 8.3c0 4.6-.822 9.6-1.827 11.093s2.281 2.721 7.3 2.721h6.029c5.026-.002 8.312-1.226 7.308-2.723z" class="cls-2" data-name="Path 365" transform="translate(-.25 31)"/>
        </clipPath>
        <clipPath id="clip-path-4">
            <path id="Path_364" d="M-1404 791.526H52.83V-86H-1404z" class="cls-2" data-name="Path 364" transform="translate(1404 86)"/>
        </clipPath>
        <clipPath id="clip-path-5">
            <path id="Path_368" d="M20.9-30.209a3.9 3.9 0 0 0 3.9-3.9A3.9 3.9 0 0 0 20.9-38a3.9 3.9 0 0 0-3.9 3.9 3.9 3.9 0 0 0 3.9 3.891z" class="cls-3" data-name="Path 368" transform="translate(-17 38)"/>
        </clipPath>
        <clipPath id="clip-path-6">
            <path id="Path_367" d="M-1404 902H236.241V-86H-1404z" class="cls-4" data-name="Path 367" transform="translate(1404 86)"/>
        </clipPath>
    </defs>
    <g id="Group_1935" data-name="Group 1935" transform="translate(-.25 31)">
        <g id="Group_1928" class="cls-5" data-name="Group 1928" transform="translate(8.105 -6.955)">
            <g id="Group_1927" class="cls-6" data-name="Group 1927" transform="translate(-1211.239 -71.177)">
                <path id="Path_360" d="M4.416-7.942h13.855V2.639H4.416z" class="cls-1" data-name="Path 360" transform="translate(1202.538 74.834)"/>
            </g>
        </g>
        <g id="Group_1930" class="cls-7" data-name="Group 1930" transform="translate(.25 -31)">
            <g id="Group_1929" class="cls-8" data-name="Group 1929" transform="translate(-1203.384 -47.133)">
                <path id="Path_363" d="M-4.75-36h29.565v31.883H-4.75z" class="cls-2" data-name="Path 363" transform="translate(1203.849 78.848)"/>
            </g>
        </g>
        <g id="Group_1932" class="cls-9" data-name="Group 1932" transform="translate(14.604 -30.143)">
            <g id="Group_1931" class="cls-10" data-name="Group 1931" transform="translate(-1371.049 -54.031)">
                <path id="Path_366" d="M12-43h28.945v28.945H12z" class="cls-4" data-name="Path 366" transform="translate(1354.225 84.488)"/>
            </g>
        </g>
    </g>
</svg>
