<svg xmlns="http://www.w3.org/2000/svg" width="18" height="50" viewBox="0 0 18 50">
    <g fill="none" fillRule="nonzero">
        <path fill="#6D6DC9" d="M11 0h7v50h-7C4.925 50 0 45.075 0 39V11C0 4.925 4.925 0 11 0z"/>
        <path fill="#E6E6F5" d="M5.39 26.61l5.334 5.333a1.329 1.329 0 0 0 1.885 0c.521-.52.521-1.365 0-1.886l-4.39-4.39 4.39-4.39a1.333 1.333 0 1 0-1.885-1.886L5.39 24.724c-.521.52-.521 1.365 0 1.885z"/>
    </g>
</svg>
