<svg xmlns="http://www.w3.org/2000/svg" width="18.656" height="17.101" viewBox="0 0 18.656 17.101">
    <defs>
        <style>
            .prefix__cls-1{fill:#5677b1}
        </style>
    </defs>
    <g id="prefix__page" transform="translate(0 -1)">
        <g id="prefix__Group_2751" data-name="Group 2751" transform="translate(3.166 7.219)">
            <path id="prefix__Path_780" d="M6.6 10.166H4.656a.583.583 0 0 1 0-1.166H6.6a.583.583 0 0 1 0 1.166z" class="prefix__cls-1" data-name="Path 780" transform="translate(-4.073 -9)"/>
        </g>
        <g id="prefix__Group_2752" data-name="Group 2752" transform="translate(8.607 7.219)">
            <path id="prefix__Path_781" d="M17.486 10.166h-5.83a.583.583 0 0 1 0-1.166h5.83a.583.583 0 0 1 0 1.166z" class="prefix__cls-1" data-name="Path 781" transform="translate(-11.073 -9)"/>
        </g>
        <g id="prefix__Group_2753" data-name="Group 2753" transform="translate(3.166 10.328)">
            <path id="prefix__Path_782" d="M6.6 14.166H4.656a.583.583 0 0 1 0-1.166H6.6a.583.583 0 0 1 0 1.166z" class="prefix__cls-1" data-name="Path 782" transform="translate(-4.073 -13)"/>
        </g>
        <g id="prefix__Group_2754" data-name="Group 2754" transform="translate(8.607 10.328)">
            <path id="prefix__Path_783" d="M17.486 14.166h-5.83a.583.583 0 0 1 0-1.166h5.83a.583.583 0 0 1 0 1.166z" class="prefix__cls-1" data-name="Path 783" transform="translate(-11.073 -13)"/>
        </g>
        <g id="prefix__Group_2755" data-name="Group 2755" transform="translate(3.166 13.437)">
            <path id="prefix__Path_784" d="M6.6 18.166H4.656a.583.583 0 0 1 0-1.166H6.6a.583.583 0 0 1 0 1.166z" class="prefix__cls-1" data-name="Path 784" transform="translate(-4.073 -17)"/>
        </g>
        <g id="prefix__Group_2756" data-name="Group 2756" transform="translate(8.607 13.437)">
            <path id="prefix__Path_785" d="M17.486 18.166h-5.83a.583.583 0 1 1 0-1.166h5.83a.583.583 0 1 1 0 1.166z" class="prefix__cls-1" data-name="Path 785" transform="translate(-11.073 -17)"/>
        </g>
        <g id="prefix__Group_2757" data-name="Group 2757" transform="translate(0 1)">
            <path id="prefix__Path_786" d="M16.518 18.1H2.138A2.139 2.139 0 0 1 0 15.963V3.138A2.139 2.139 0 0 1 2.138 1h14.38a2.139 2.139 0 0 1 2.138 2.138v12.825a2.139 2.139 0 0 1-2.138 2.137zM2.138 2.166a.973.973 0 0 0-.972.972v12.825a.973.973 0 0 0 .972.972h14.38a.973.973 0 0 0 .972-.972V3.138a.973.973 0 0 0-.972-.972z" class="prefix__cls-1" data-name="Path 786" transform="translate(0 -1)"/>
        </g>
        <g id="prefix__Group_2758" data-name="Group 2758" transform="translate(0 3.721)">
            <path id="prefix__Path_787" d="M18.073 5.666H.583a.583.583 0 0 1 0-1.166h17.49a.583.583 0 1 1 0 1.166z" class="prefix__cls-1" data-name="Path 787" transform="translate(0 -4.5)"/>
        </g>
    </g>
</svg>
