<svg xmlns="http://www.w3.org/2000/svg" width="20" height="20" viewBox="0 0 20 20">
    <path fill="#9b9bd6" fill-rule="evenodd" d="M2.503 0h14.994A2.512 2.512 0 0 1 20 2.503v14.994C20 18.86 18.86 20 17.497 20H2.503A2.512 2.512 0 0 1 0 17.497V2.503A2.496 2.496 0 0 1 2.503 0zm6.32 8.823H5.328c-1.536 0-1.536 2.33 0 2.33h3.495v3.519c0 1.511 2.33 1.511 2.33 0v-3.52h3.519c1.511 0 1.511-2.33 0-2.33h-3.52V5.329c0-1.536-2.33-1.536-2.33 0v3.495z"/>
</svg>
