<svg xmlns="http://www.w3.org/2000/svg" width="18" height="11" viewBox="0 0 18 11">
    <path fill="#000" fill-rule="nonzero" d="M.182 5.5c0-.134.08-.312.161-.398L4.915.18a.567.567 0 0 1 .808-.023c.222.203.228.599.022.819L2.075 4.92h15.25c.316 0 .571.26.571.579 0 .32-.255.579-.57.579H2.075l3.67 3.944c.205.22.19.606-.023.819a.567.567 0 0 1-.808-.023L.343 5.898a.518.518 0 0 1-.16-.398z" />
</svg>
