<svg xmlns="http://www.w3.org/2000/svg" xmlns:xlink="http://www.w3.org/1999/xlink" width="498" height="683" viewBox="0 0 498 683">
    <defs>
        <path id="b" d="M11.112 0H467a8 8 0 0 1 8 8v643a8 8 0 0 1-8 8H10.955a8 8 0 0 1-7.998-7.842L.608 532.318a57 57 0 0 1 9.998-33.388C54.93 434.368 77.093 373.64 77.093 316.75c0-56.004-20.56-109.992-61.682-161.966a57 57 0 0 1-12.3-35.367V8a8 8 0 0 1 8-8z"/>
        <filter id="a" width="107.8%" height="105.6%" x="-3.7%" y="-2.8%" filterUnits="objectBoundingBox">
            <feOffset dx="1" in="SourceAlpha" result="shadowOffsetOuter1"/>
            <feGaussianBlur in="shadowOffsetOuter1" result="shadowBlurOuter1" stdDeviation="6"/>
            <feColorMatrix in="shadowBlurOuter1" values="0 0 0 0 0.62016369 0 0 0 0 0.62016369 0 0 0 0 0.62016369 0 0 0 0.5 0"/>
        </filter>
    </defs>
    <g fill="none" fill-rule="nonzero" transform="translate(10 12)">
        <use fill="#000" filter="url(#a)" xlink:href="#b"/>
        <use fill="#FBFBFB" xlink:href="#b"/>
    </g>
</svg>
