<svg xmlns="http://www.w3.org/2000/svg" xmlns:xlink="http://www.w3.org/1999/xlink" width="325" height="630" viewBox="0 0 526 1024">
    <defs>
        <path id="b" d="M456 0h398.608C909.536 169.833 937 340.5 937 512s-27.464 343.833-82.392 517H456V0z"/>
        <filter id="a" width="128.3%" height="113.2%" x="-14.1%" y="-6.5%" filterUnits="objectBoundingBox">
            <feOffset dy="1" in="SourceAlpha" result="shadowOffsetOuter1"/>
            <feGaussianBlur in="shadowOffsetOuter1" result="shadowBlurOuter1" stdDeviation="22.5"/>
            <feColorMatrix in="shadowBlurOuter1" values="0 0 0 0 1 0 0 0 0 1 0 0 0 0 1 0 0 0 0.5 0"/>
        </filter>
    </defs>
    <g fill="none" fillRule="nonzero" transform="translate(-456)">
        <use fill="#000" filter="url(#a)" xlink:href="#b"/>
        <use fill="#F4F4F9" xlink:href="#b"/>
    </g>
</svg>
