<svg xmlns="http://www.w3.org/2000/svg" width="22" height="18" viewBox="0 0 22 18">
    <path fill="#6D6DC9" fill-rule="nonzero" d="M.751 8.14c.606-.9 1.333-1.717 2.06-2.495.242-.286.646-.286.848 0a19.785 19.785 0 0 1 2.06 2.496l.242.327a.418.418 0 0 1-.323.696H4.346c.08 3.518 2.907 6.34 6.42 6.34 1.253 0 2.383-.368 3.393-.981a1.09 1.09 0 0 1 1.373.163c.525.532.404 1.391-.202 1.8a8.744 8.744 0 0 1-4.563 1.31c-4.766 0-8.602-3.887-8.683-8.673H.792c-.364 0-.525-.41-.323-.696l.282-.286zm5.29-4.826c.364.368.93.45 1.374.163a6.346 6.346 0 0 1 3.392-.982c3.473 0 6.34 2.823 6.421 6.341h-1.292c-.364 0-.525.41-.323.696l.242.327c.606.9 1.333 1.718 2.06 2.496.242.286.646.286.848 0a19.785 19.785 0 0 0 2.06-2.496l.242-.327a.418.418 0 0 0-.323-.696h-1.293C19.37 4.05 15.492.164 10.767.164c-1.696 0-3.231.49-4.564 1.309-.606.45-.686 1.309-.161 1.84z"/>
</svg>
