<svg xmlns="http://www.w3.org/2000/svg" width="20" height="20" viewBox="0 0 20 20">
    <path fill="#535b78" fill-rule="nonzero" d="M17.266 0H2.734A2.734 2.734 0 0 0 0 2.734v14.532A2.734 2.734 0 0 0 2.734 20h14.532A2.734 2.734 0 0 0 20 17.266V2.734A2.734 2.734 0 0 0 17.266 0zm-3.933 10.833H6.667a.833.833 0 1 1 0-1.666h6.666a.833.833 0 1 1 0 1.666z"/>
</svg>
