<svg xmlns="http://www.w3.org/2000/svg" width="26" height="19" viewBox="0 0 26 19">
    <g fill="#6D6DC9" fillRule="nonzero">
        <path d="M10.566 15.257A7.931 7.931 0 0 1 8.254 9.22h4.021L6.138 3.083 0 9.22h3.826a9.158 9.158 0 0 0 2.681 6.542c2.828 2.829 7.038 3.417 10.454 1.787a7.946 7.946 0 0 1-6.395-2.293zM22.174 9.226a9.158 9.158 0 0 0-2.681-6.542C16.665-.145 12.453-.733 9.039.898a7.94 7.94 0 0 1 6.394 2.292 7.926 7.926 0 0 1 2.313 6.036h-4.023l6.138 6.139L26 9.226h-3.826z"/>
    </g>
</svg>
