<svg xmlns="http://www.w3.org/2000/svg" width="20.802" height="20.802" viewBox="0 0 20.802 20.802">
    <defs>
        <style>
            .cls-1{fill:#1a202c}
        </style>
    </defs>
    <g id="revert" transform="translate(172.5 -224.5)">
        <path id="Path_140" d="M19.892 14.929h-4.543l2.622-2.622-.7-.7-3.817 3.817 3.817 3.817.7-.7-2.622-2.621h4.543a2.972 2.972 0 0 1 0 5.944h-3.963v.991h3.962a3.962 3.962 0 1 0 0-7.925zM18.9 7.5a10.4 10.4 0 1 0 10.4 10.4A10.413 10.413 0 0 0 18.9 7.5zm0 19.812a9.411 9.411 0 1 1 9.412-9.412 9.421 9.421 0 0 1-9.412 9.412z" class="cls-1" data-name="Path 140" transform="translate(-181 217)"/>
    </g>
</svg>
