<svg xmlns="http://www.w3.org/2000/svg" width="6.09" height="10.18" viewBox="0 0 6.09 10.18">
    <path id="prefix__Path_748" fill="none" stroke="#d1dff8" stroke-linecap="round" stroke-linejoin="round" stroke-width="2px" d="M0 0l3.676 3.676L7.352 0" data-name="Path 748" transform="rotate(-90 5.09 3.676)"/>
</svg>
