<svg xmlns="http://www.w3.org/2000/svg" width="14.975" height="14.975" viewBox="0 0 14.975 14.975">
    <path id="prefix__add" fill="#3ee585" d="M7.487 1.248a6.239 6.239 0 1 1-6.239 6.239 6.247 6.247 0 0 1 6.239-6.239zm0-1.248a7.487 7.487 0 1 0 7.487 7.487A7.488 7.488 0 0 0 7.487 0zm3.744 8.111H3.744V6.863h7.487z"/>
</svg>
