<svg xmlns="http://www.w3.org/2000/svg" width="31" height="31" viewBox="0 0 31 31">
    <g fill="none" fill-rule="evenodd">
        <circle cx="15.5" cy="15.5" r="15.5" fill="#F3F3F3"/>
        <path fill="#6D6DC9" d="M19.5 20.973L14.555 16l4.945-4.972L17.978 9.5 11.5 16l6.478 6.5 1.522-1.527"/>
    </g>
</svg>
