<svg xmlns="http://www.w3.org/2000/svg" width="18" height="18" viewBox="0 0 18 18">
    <path fill="#000" fillRule="nonzero" d="M7.327 1.098A5.968 5.968 0 0 1 13.29 7.06a5.968 5.968 0 0 1-5.962 5.962 5.968 5.968 0 0 1-5.961-5.962A5.968 5.968 0 0 1 7.327 1.1zm0-1.098a7.06 7.06 0 1 0 0 14.119A7.06 7.06 0 0 0 7.327 0zm10.291 16.241l-4.176-4.176a7.96 7.96 0 0 1-1.109 1.11l4.176 4.175a.782.782 0 0 0 1.11 0 .784.784 0 0 0 0-1.109z"/>
</svg>
