<svg xmlns="http://www.w3.org/2000/svg" width="13" height="8" viewBox="0 0 13 8">
    <path fill="#8B8B8B" fill-rule="evenodd" d="M1.522 0l4.956 4.945L11.433 0l1.522 1.522L6.478 8 0 1.522 1.522 0"/>
</svg>
