<svg xmlns="http://www.w3.org/2000/svg" width="15.164" height="15.164" viewBox="0 0 15.164 15.164">
    <path id="prefix__iconmonstr-info-2" d="M7.582 1.264a6.318 6.318 0 11-6.318 6.318 6.326 6.326 0 016.318-6.318zm0-1.264a7.582 7.582 0 107.582 7.582A7.582 7.582 0 007.582 0zm.632 11.373H6.95V6.318h1.264zm-.632-7.74a.79.79 0 11-.79.79.79.79 0 01.79-.79z" style="fill:#a4b9dd"/>
</svg>
