<svg xmlns="http://www.w3.org/2000/svg" width="47" height="47" viewBox="0 0 47 47">
    <defs>
        <linearGradient id="a" x1="0%" x2="64.822%" y1="0%" y2="100%">
            <stop offset="0%" stop-color="#70F570"/>
            <stop offset="100%" stop-color="#49C628"/>
        </linearGradient>
    </defs>
    <path fill="url(#a)" fill-rule="nonzero" d="M23.5 0A23.402 23.402 0 0 0 0 23.5 23.402 23.402 0 0 0 23.5 47 23.402 23.402 0 0 0 47 23.5 23.402 23.402 0 0 0 23.5 0zm11.747 18.079L21.434 33.242c-.502.505-1.256.758-1.758.758s-1.256-.253-1.758-.758l-6.278-6.824c-1.005-1.01-.754-2.527.25-3.538 1.005-1.01 2.512-.758 3.517.253l4.269 4.802 12.055-13.142a2.677 2.677 0 0 1 3.516-.253c1.004.759 1.004 2.528 0 3.539z"/>
</svg>
