<svg xmlns="http://www.w3.org/2000/svg" width="47" height="47" viewBox="0 0 47 47">
    <defs>
        <linearGradient id="a" x1="0%" x2="229.594%" y1="0%" y2="230.048%">
            <stop offset="0%" stop-color="#EF4B70"/>
            <stop offset="100%" stop-color="#623AA2"/>
        </linearGradient>
    </defs>
    <path fill="url(#a)" fill-rule="nonzero" d="M23.5 0C10.521 0 0 10.521 0 23.5S10.521 47 23.5 47 47 36.479 47 23.5A23.5 23.5 0 0 0 23.5 0zm8.662 30.08a1.16 1.16 0 0 1 0 1.636l-.437.437a1.16 1.16 0 0 1-1.636 0l-6.58-6.58-6.58 6.58a1.16 1.16 0 0 1-1.635 0l-.437-.437a1.16 1.16 0 0 1 0-1.636l6.58-6.58-6.58-6.58a1.16 1.16 0 0 1 0-1.636l.437-.437a1.16 1.16 0 0 1 1.635 0l6.58 6.58 6.58-6.58a1.16 1.16 0 0 1 1.636 0l.437.437a1.16 1.16 0 0 1 0 1.636l-6.58 6.58 6.58 6.58z"/>
</svg>
