<svg xmlns="http://www.w3.org/2000/svg" width="18.103" height="14.331" viewBox="0 0 18.103 14.331">
    <path id="prefix__iconmonstr-check-mark-1" d="M15.3 2l-8.511 8.725L2.8 6.945 0 9.748l6.789 6.583L18.1 4.8z" transform="translate(0 -2)" style="fill:#fff"/>
</svg>
