<svg xmlns="http://www.w3.org/2000/svg" width="9" height="14" viewBox="0 0 9 14" transform='rotate(180)'>
    <path fill="#6d6dc9" fill-rule="evenodd" d="M5.142.307V10.54l2.593-2.586 1.018 1.018-4.333 4.334L.086 8.973l1.019-1.018 2.592 2.586V.307h1.445"/>
</svg>
