<svg xmlns="http://www.w3.org/2000/svg" width="15.653" height="15.653" viewBox="0 0 15.653 15.653">
    <defs>
        <style>
            .cls-1{fill:#fff}
        </style>
    </defs>
    <g id="upgrade" transform="translate(-10.4 -10.4)">
        <path id="Path_138" d="M15.282 26.053V20.4h-3.5l6.443-7.688L24.67 20.4h-3.5v5.653a4.88 4.88 0 0 0 4.882-4.882v-5.89a4.88 4.88 0 0 0-4.881-4.881h-5.89a4.88 4.88 0 0 0-4.881 4.882v5.89a4.892 4.892 0 0 0 4.882 4.881z" class="cls-1" data-name="Path 138"/>
    </g>
</svg>
