<svg xmlns="http://www.w3.org/2000/svg" width="13.854" height="15.697" viewBox="0 0 13.854 15.697">
    <g>
        <g>
            <path fill="#049d97" d="M40.3 37.326a4.65 4.65 0 0 1-6.569 0l-5.364-5.364a.607.607 0 1 1 .859-.859l5.364 5.364a3.43 3.43 0 1 0 4.851-4.851l-6.791-6.791a2.126 2.126 0 1 0-3.008 3.007L36 34.187a.853.853 0 1 0 1.2-1.206l-4.927-4.926a.607.607 0 1 1 .859-.859l4.926 4.926a2.067 2.067 0 1 1-2.923 2.923l-6.353-6.353a3.342 3.342 0 1 1 4.725-4.726l6.793 6.792a4.65 4.65 0 0 1 0 6.568z" transform="translate(-8.322 -5.4) translate(8.322 5.4) translate(-27.805 -22.988)"/>
        </g>
    </g>
</svg>
