<svg xmlns="http://www.w3.org/2000/svg" width="12.696" height="15.235" viewBox="0 0 12.696 15.235">
    <g id="prefix__user_4_" data-name="user (4)" transform="translate(-41.667 2)">
        <g id="prefix__Group_2759" data-name="Group 2759" transform="translate(41.667 -2)">
            <path id="prefix__Path_788" fill="#5677b1" d="M52.175 7.2a3.788 3.788 0 0 0 .649-2.124V3.809a3.809 3.809 0 1 0-7.617 0v1.27a3.788 3.788 0 0 0 .648 2.121 6.34 6.34 0 0 0-3.188 5.5v.635a1.907 1.907 0 0 0 1.9 1.9h8.887a1.907 1.907 0 0 0 1.9-1.9V12.7a6.34 6.34 0 0 0-3.179-5.5zm-5.7-3.394a2.539 2.539 0 1 1 5.078 0v1.27a2.539 2.539 0 1 1-5.078 0zm7.617 9.522a.636.636 0 0 1-.635.635h-8.886a.636.636 0 0 1-.635-.635V12.7a5.083 5.083 0 0 1 2.829-4.551 3.781 3.781 0 0 0 4.5 0 5.083 5.083 0 0 1 2.828 4.551v.635z" data-name="Path 788" transform="translate(-42.667)"/>
        </g>
    </g>
</svg>
