<svg xmlns="http://www.w3.org/2000/svg" width="28" height="28" viewBox="0 0 28 28">
    <g fill="none" fill-rule="evenodd">
        <circle cx="14" cy="14" r="14" fill="#EDEDED"/>
        <g fill="#020202" fill-rule="nonzero">
            <path d="M14 14.5c2.251 0 4.068-1.674 4.068-3.75S16.25 7 14 7c-2.251 0-4.068 1.674-4.068 3.75S11.75 14.5 14 14.5zm0-6.453c1.608 0 2.932 1.22 2.932 2.703 0 1.483-1.324 2.703-2.932 2.703-1.608 0-2.932-1.22-2.932-2.703 0-1.483 1.324-2.703 2.932-2.703zM20.943 17.814a5.97 5.97 0 0 0-.36-.785 5.933 5.933 0 0 0-.624-.89c-1.154-1.29-3.045-1.779-4.843-1.22a3.98 3.98 0 0 1-2.213 0c-1.798-.541-3.708-.053-4.844 1.238a4.639 4.639 0 0 0-.643.89 4.822 4.822 0 0 0-.36.784.466.466 0 0 0 .039.419c.15.244.321.488.491.715a8.01 8.01 0 0 0 1.968 1.78A8.425 8.425 0 0 0 14 22c1.116-.001 2.195-.21 3.216-.629a8.996 8.996 0 0 0 1.23-.628 7.384 7.384 0 0 0 1.968-1.779c.189-.227.34-.47.491-.715a.509.509 0 0 0 .038-.436zm-1.457.54a6.419 6.419 0 0 1-1.683 1.518 8.32 8.32 0 0 1-1.04.54c-.871.367-1.798.541-2.763.541a6.905 6.905 0 0 1-2.743-.54 7.187 7.187 0 0 1-1.04-.54 6.419 6.419 0 0 1-1.685-1.518 5.804 5.804 0 0 1-.302-.419c.056-.14.132-.279.208-.419.151-.261.321-.488.51-.697.852-.96 2.27-1.308 3.614-.907.946.279 1.987.279 2.914 0 1.343-.401 2.762-.053 3.613.89.19.226.36.453.511.714.076.14.151.262.208.402-.113.157-.208.296-.322.436z"/>
        </g>
    </g>
</svg>
