<svg xmlns="http://www.w3.org/2000/svg" width="30.688" height="24.69" viewBox="0 0 30.688 24.69">
    <defs>
        <style>
            .cls-1{fill:#12203c}
        </style>
    </defs>
    <g id="vendor_icon" data-name="vendor icon" transform="translate(-779.115 -170)">
        <g id="Group" transform="translate(779.115 174.671)">
            <path id="Path_350" d="M26.493 49.087a.5.5 0 0 1-.472-.33 5.21 5.21 0 0 0-2.616-3.081.5.5 0 0 1 .4-.919 6.208 6.208 0 0 1 3.156 3.658.5.5 0 0 1-.472.673z" class="cls-1" data-name="Path 350" transform="translate(-16.755 -36.472)"/>
            <path id="Path_351" d="M12.076 51.933h-6.24a1.723 1.723 0 0 1-1.7-2.013 6.72 6.72 0 0 1 3.534-5.147.5.5 0 1 1 .406.918 5.719 5.719 0 0 0-2.95 4.4.726.726 0 0 0 .161.59.7.7 0 0 0 .546.253h6.24a.5.5 0 1 1 0 1z" class="cls-1" data-name="Path 351" transform="translate(-4.115 -36.483)"/>
            <path id="Path_352" d="M12.935 34.831a3.55 3.55 0 1 1 3.549-3.55 3.554 3.554 0 0 1-3.549 3.55zm0-6.1a2.546 2.546 0 1 0 2.546 2.546 2.549 2.549 0 0 0-2.546-2.542z" class="cls-1" data-name="Path 352" transform="translate(-7.623 -25.169)"/>
            <path id="Path_353" d="M65.767 49.088a.5.5 0 0 1-.171-.03.5.5 0 0 1-.3-.643 6.206 6.206 0 0 1 3.156-3.658.5.5 0 0 1 .4.919 5.208 5.208 0 0 0-2.616 3.081.5.5 0 0 1-.469.331z" class="cls-1" data-name="Path 353" transform="translate(-44.816 -36.473)"/>
            <path id="Path_354" d="M77.321 51.931h-6.24a.5.5 0 1 1 0-1h6.24a.7.7 0 0 0 .546-.253.725.725 0 0 0 .161-.59 5.721 5.721 0 0 0-2.95-4.4.5.5 0 0 1 .406-.918 6.72 6.72 0 0 1 3.534 5.148 1.725 1.725 0 0 1-1.7 2.013z" class="cls-1" data-name="Path 354" transform="translate(-48.353 -36.481)"/>
            <path id="Path_355" d="M72.935 34.831a3.55 3.55 0 1 1 3.549-3.55 3.554 3.554 0 0 1-3.549 3.55zm0-6.1a2.546 2.546 0 1 0 2.546 2.546 2.549 2.549 0 0 0-2.546-2.542z" class="cls-1" data-name="Path 355" transform="translate(-47.559 -25.169)"/>
            <path id="Path_356" d="M39.427 58.177H27.935a2.457 2.457 0 0 1-2.419-2.87c.625-3.731 2.731-6.8 5.5-8.018a.5.5 0 0 1 .4.919c-2.459 1.08-4.34 3.864-4.91 7.266a1.462 1.462 0 0 0 .325 1.188 1.442 1.442 0 0 0 1.1.512h11.496a1.443 1.443 0 0 0 1.1-.512 1.463 1.463 0 0 0 .326-1.189c-.568-3.388-2.441-6.168-4.887-7.255a.5.5 0 1 1 .407-.917c2.75 1.222 4.846 4.29 5.469 8.006a2.458 2.458 0 0 1-2.418 2.869z" class="cls-1" data-name="Path 356" transform="translate(-18.337 -38.158)"/>
            <path id="Path_357" d="M39.295 30.826a5.379 5.379 0 1 1 5.379-5.379 5.385 5.385 0 0 1-5.379 5.379zm0-9.754a4.376 4.376 0 1 0 4.375 4.376 4.38 4.38 0 0 0-4.375-4.377z" class="cls-1" data-name="Path 357" transform="translate(-23.95 -20.068)"/>
        </g>
        <g id="cog" transform="translate(800.392 170)">
            <path id="Path_358" d="M17.618 13.249a1.83 1.83 0 0 1 .68-2.506L17.346 9.1a1.833 1.833 0 0 1-2.756-1.6H12.7a1.847 1.847 0 0 1-.249.93 1.817 1.817 0 0 1-2.495.658L9 10.732a1.921 1.921 0 0 1 .68.669A1.83 1.83 0 0 1 9 13.907l.953 1.644a1.8 1.8 0 0 1 .919-.249 1.844 1.844 0 0 1 1.837 1.837H14.6a1.839 1.839 0 0 1 2.756-1.588l.953-1.644a1.751 1.751 0 0 1-.691-.658zm-3.969 1.021a1.95 1.95 0 1 1 1.95-1.95 1.95 1.95 0 0 1-1.95 1.95z" class="cls-1" data-name="Path 358" transform="translate(-9 -7.5)"/>
        </g>
    </g>
</svg>
