<svg xmlns="http://www.w3.org/2000/svg" width="20" height="18" viewBox="0 0 20 18">
    <path fill="#F57323" fill-rule="nonzero" d="M19.646 13.946L12.093 1.26a2.386 2.386 0 0 0-2.05-1.176c-.837 0-1.611.441-2.05 1.155L.438 13.946a2.388 2.388 0 0 0-.02 2.394 2.34 2.34 0 0 0 2.07 1.218h15.107c.858 0 1.632-.462 2.071-1.218a2.388 2.388 0 0 0-.02-2.394zM9.08 6.133c0-.525.44-.966.963-.966.523 0 .962.44.962.966v4.011c0 .525-.44.967-.962.967a.975.975 0 0 1-.963-.967V6.133zm.963 8.338a1.172 1.172 0 0 1-1.172-1.176 1.172 1.172 0 1 1 2.343 0c0 .65-.523 1.176-1.171 1.176z"/>
</svg>
