<svg xmlns="http://www.w3.org/2000/svg" id="prefix__warning2" width="15.01" height="15.01" viewBox="0 0 15.01 15.01">
    <path id="prefix__Path_830" fill="#f8c902" d="M7.505 0a7.505 7.505 0 1 0 7.505 7.505A7.513 7.513 0 0 0 7.505 0zm0 0" data-name="Path 830"/>
    <path id="prefix__Path_831" fill="#eceff1" d="M235.923 363.3a.627.627 0 1 1-.627-.627.627.627 0 0 1 .627.627zm0 0" data-name="Path 831" transform="translate(-227.79 -352.039)"/>
    <path id="prefix__Path_832" fill="#fafafa" d="M235.923 112.314a.627.627 0 1 1-1.255 0V107.3a.627.627 0 0 1 1.255 0zm0 0" data-name="Path 832" transform="translate(-227.79 -103.548)"/>
</svg>
